908 current courses
AR-471
	current profs 250562, 168009, 250556, 100876
	past profs 168009, 231872, 148030, 100876, 223916
	with 168009, 100876 profs in common
HUM-204
	current profs 157690, 176121
	past profs 263736
	HUM-204 has different profs this year.
HUM-206
	current profs 184338
	past profs
	Exists this year but has no profs. Checking archive...
	Not in archive. Treat as new course.
CS-352
	current profs
	past profs
	Exists this year but has no profs. Checking archive...
	has no current profs but had 217799 previously
HUM-202
	current profs 251225
	past profs
	Exists this year but has no profs. Checking archive...
	Not in archive. Treat as new course.
AR-476
	current profs 245459
	past profs 245459
	with 245459 profs in common
AR-479
	current profs 208866
	course not in this year's moodle so checking archive...
	Not in archive. Treat as new course.
	Exists this year but has no profs. Checking archive...
	Not in archive. Treat as new course.
AR-478
	current profs 156450
	course not in this year's moodle so checking archive...
	Not in archive. Treat as new course.
	Exists this year but has no profs. Checking archive...
	Not in archive. Treat as new course.
MSE-485
	current profs 105869
	past profs 105869
	with 105869 profs in common
HUM-209
	current profs 126096
	past profs
	Exists this year but has no profs. Checking archive...
	Not in archive. Treat as new course.
BIOENG-430
	current profs 162095
	past profs 162095
	with 162095 profs in common
PHYS-101(f)
	current profs 179803
	past profs 179803
	with 179803 profs in common
BIO-243
	current profs
	past profs 182445, 161458
	has no current profs but had 182445, 161458 previously
EE-520
	current profs 105059
	past profs 105059
	with 105059 profs in common
BIO-489
	current profs 174228, 169239
	past profs
	Exists this year but has no profs. Checking archive...
EE-280
	current profs 104903
	past profs 104903
	with 104903 profs in common
EE-282
	current profs 104903
	past profs 104903
	with 104903 profs in common
BIO-482
	current profs 157467, 169973
	past profs 157467, 169973
	with 157467, 169973 profs in common
BIO-480
	current profs 240725, 150348
	past profs 240725, 150348
	with 240725, 150348 profs in common
BIO-487
	current profs 240725, 185298
	past profs 240725, 185298
	with 240725, 185298 profs in common
MICRO-312
	current profs 104526
	past profs 104526
	with 104526 profs in common
ME-451
	current profs 140973
	past profs 140973
	with 140973 profs in common
EE-445
	current profs 106441
	past profs 106441
	with 106441 profs in common
ME-453
	current profs 104417
	past profs 104417
	with 104417 profs in common
AR-321
	current profs 263770
	past profs 263770
	with 263770 profs in common
EE-442
	current profs 194090
	past profs 194090
	with 194090 profs in common
AR-323
	current profs 178030
	past profs 178030
	with 178030 profs in common
MGT-454
	current profs 148690
	past profs 148690
	with 148690 profs in common
CH-101
	current profs 105914
	past profs 105914
	with 105914 profs in common
CH-102
	current profs 178464, 181574
	past profs 178464, 181574
	with 178464, 181574 profs in common
MATH-463
	current profs 118332
	past profs 118332
	with 118332 profs in common
MGT-517
	current profs 163910
	past profs 163910
	with 163910 profs in common
MATH-461
	current profs 183121
	past profs 183121
	with 183121 profs in common
MATH-460
	current profs 183121
	past profs 183121
	with 183121 profs in common
CH-160(a)
	current profs 104807, 109839
			CH-160(a) with course:CH-160(a)$CH-160(b)
	with 104807 profs in common
MATH-465
	current profs 183120
	course not in this year's moodle so checking archive...
	Not in archive. Treat as new course.
	Exists this year but has no profs. Checking archive...
	Not in archive. Treat as new course.
CIVIL-234
	current profs 166236, 133346
	past profs 166236, 133346
	with 166236, 133346 profs in common
MATH-303
	current profs 138859
	past profs 138859
	with 138859 profs in common
HUM-208
	current profs 220141, 218730
	past profs
	Exists this year but has no profs. Checking archive...
	Not in archive. Treat as new course.
MATH-301
	current profs 199126
	past profs 199126
	with 199126 profs in common
CS-433
	current profs 124369
	past profs 228491
	CS-433 has different profs this year.
CS-430
	current profs 105074
	past profs 105074
	with 105074 profs in common
MATH-110(a)
	current profs 213191
	past profs 189915
	MATH-110(a) has different profs this year.
HUM-329
	current profs 181991
	past profs 181991
	with 181991 profs in common
CS-434
	current profs 212484
	past profs 212484
	with 212484 profs in common
CS-435
	current profs 243446
	past profs 243446
	with 243446 profs in common
ME-467
	current profs 231182
	past profs 231182
	with 231182 profs in common
MATH-101(b)
	current profs 271675
	past profs 149640
	MATH-101(b) has different profs this year.
HUM-420(a)
	current profs 166176
	past profs
	Exists this year but has no profs. Checking archive...
	Not in archive. Treat as new course.
CH-301
	current profs 150841
	past profs 150841
	with 150841 profs in common
HUM-434(a)
	current profs 182176
	past profs
	Exists this year but has no profs. Checking archive...
	Not in archive. Treat as new course.
HEP-408
	current profs 251148
	course not in this year's moodle so checking archive...
	Not in archive. Treat as new course.
	Exists this year but has no profs. Checking archive...
	Not in archive. Treat as new course.
MATH-211
	current profs 133751
	past profs 138858
	MATH-211 has different profs this year.
EE-310
	current profs 169199
	past profs 169199
	with 169199 profs in common
HUM-436(a)
	current profs 229643, 260640
	past profs 260640, idm-194341@unil.ch
	with 260640 profs in common
ENV-509
	current profs 104934, 152295
	past profs 104934, 152295
	with 104934, 152295 profs in common
ENV-524
	current profs 148669
	past profs 148669
	with 148669 profs in common
ENV-525
	current profs 167659, 270291, 168453
	past profs 167659, 220577, 168453
	with 167659, 168453 profs in common
ENV-522
	current profs 169209
	past profs 174097, 169209
	with 169209 profs in common
CIVIL-474
	current profs 105271, 113159, 105611, 243582
	past profs 105271, 113159, 105611, 243582
	with 105271, 113159, 105611, 243582 profs in common
ENV-521
	current profs 226874
	past profs 226874
	with 226874 profs in common
MICRO-425
	current profs 199130, 159310, 105668
	course not in this year's moodle so checking archive...
	Not in archive. Treat as new course.
	Exists this year but has no profs. Checking archive...
	Not in archive. Treat as new course.
HUM-435(a)
	current profs 190153
	past profs 190153
	with 190153 profs in common
MICRO-420
	current profs 159310
	past profs 159310
	with 159310 profs in common
HUM-437(a)
	current profs 185819
	past profs 185819
	with 185819 profs in common
MICRO-422
	current profs 199130, 182444
	past profs 199130, 182444
	with 199130, 182444 profs in common
ENG-422
	current profs 126096
	past profs
	Exists this year but has no profs. Checking archive...
	Not in archive. Treat as new course.
ENG-420
	current profs 168244, 137873
	past profs 168244, 174097, 137873
	with 168244, 137873 profs in common
HUM-405(a)
	current profs 168003
	past profs 168003
	with 168003 profs in common
EE-350
	current profs 101475, 115534
	past profs 101475, 115534
	with 101475, 115534 profs in common
MSE-208
	current profs 105945, 106123
	past profs 105945, 106123
	with 105945, 106123 profs in common
ME-450
	current profs 126096
	past profs
	Exists this year but has no profs. Checking archive...
	Not in archive. Treat as new course.
BIOENG-312
	current profs 106482
	past profs 106482
	with 106482 profs in common
CH-409
	current profs 251248
	past profs 251248
	with 251248 profs in common
AR-301(a)
	current profs 159253
	past profs 159253
	with 159253 profs in common
ENV-500
	current profs 169977
	past profs 169977
	with 169977 profs in common
CH-405
	current profs 174013
	past profs 174013
	with 174013 profs in common
CH-406
	current profs 263912
	past profs 263912
	with 263912 profs in common
ENV-501
	current profs 265222, 118110, 240288
	past profs 240288, 118110
	with 118110, 240288 profs in common
BIO-341
	current profs 110606
	past profs 110606
	with 110606 profs in common
ME-332
	current profs 100957
	past profs 100957
	with 100957 profs in common
EE-596(a)
	current profs 101565, 190049
	past profs 101565, 190049
	with 101565, 190049 profs in common
EE-490(b)
	current profs 112194, 104020, 122433
	past profs
	Exists this year but has no profs. Checking archive...
CIVIL-351
	current profs 196675
	past profs 196675
	with 196675 profs in common
CS-111(b)
	current profs 208436
	past profs 208436
	with 208436 profs in common
MICRO-511
	current profs 152027
	past profs 152027
	with 152027 profs in common
ME-455
	current profs 106017
	past profs 106017
	with 106017 profs in common
MICRO-514
	current profs 208625
	past profs 208625
	with 208625 profs in common
CIVIL-449
	current profs 198189
	course not in this year's moodle so checking archive...
	Not in archive. Treat as new course.
	Exists this year but has no profs. Checking archive...
	Not in archive. Treat as new course.
HUM-313
	current profs 126039
	past profs 167302
	HUM-313 has different profs this year.
MICRO-450
	current profs 114980, 104561
	past profs 114980, 104561
	with 114980, 104561 profs in common
ENV-418
	current profs 112841
	past profs 112841
	with 112841 profs in common
MICRO-452
	current profs 234821, 111729, 115955
	course not in this year's moodle so checking archive...
	Not in archive. Treat as new course.
	Exists this year but has no profs. Checking archive...
	Not in archive. Treat as new course.
MICRO-455
	current profs 115671
	past profs 115671
	with 115671 profs in common
AR-301(c)
	current profs 113297
			AR-301(c) with course:AR-301(c)$AR-302(c)
	with 113297 profs in common
HUM-220
	current profs 196779
	past profs 196779
	with 196779 profs in common
AR-101
	current profs 173997
	past profs 173997
	with 173997 profs in common
CS-111(e)
	current profs 104937
	past profs 104937
	with 104937 profs in common
HUM-418(a)
	current profs 207179
	past profs
	Exists this year but has no profs. Checking archive...
EE-202(b)
	current profs 106795
	past profs 106795
	with 106795 profs in common
DH-402
	current profs 264553
	course not in this year's moodle so checking archive...
	Not in archive. Treat as new course.
	Exists this year but has no profs. Checking archive...
	Not in archive. Treat as new course.
DH-405
	current profs 174121
	course not in this year's moodle so checking archive...
	Not in archive. Treat as new course.
	Exists this year but has no profs. Checking archive...
	Not in archive. Treat as new course.
CH-415
	current profs
	past profs 217627
	has no current profs but had 217627 previously
MATH-322
	current profs 106581
	past profs 106581
	with 106581 profs in common
PHYS-447
	current profs 187827
	past profs
	Exists this year but has no profs. Checking archive...
	Not in archive. Treat as new course.
PHYS-595
	current profs 126096
	past profs
	Exists this year but has no profs. Checking archive...
	Not in archive. Treat as new course.
MATH-265
	current profs 118332
	past profs 118332
	with 118332 profs in common
PHYS-597
	current profs 126096
	course not in this year's moodle so checking archive...
	Not in archive. Treat as new course.
	Exists this year but has no profs. Checking archive...
	Not in archive. Treat as new course.
PHYS-596
	current profs 197001, 109056
	past profs 197001, 109056
	with 197001, 109056 profs in common
CH-329
	current profs 145138
	past profs 145138
	with 145138 profs in common
MICRO-313
	current profs 105563, 106071
	past profs 105563, 106071
	with 105563, 106071 profs in common
PHYS-455
	current profs 106638, 108813
	past profs 106638
	with 106638 profs in common
AR-201(g)
	current profs 103324
	past profs 108031, 103324
	with 103324 profs in common
MGT-528
	current profs 216550
	past profs 216550
	with 216550 profs in common
PHYS-450
	current profs 215204, 239871, 108813
	past profs 215204
	with 215204 profs in common
BIO-488
	current profs 192826, 213145, 172749
	past profs 192826, 213145, 172749
	with 192826, 213145, 172749 profs in common
CH-491
	current profs 126096
	past profs
	Exists this year but has no profs. Checking archive...
	Not in archive. Treat as new course.
PHYS-453
	current profs 105021
	past profs 105021
	with 105021 profs in common
MATH-100(a)
	current profs 161312
	past profs 181579
	MATH-100(a) has different profs this year.
MATH-203(c)
	current profs 235589
	past profs 235589
	with 235589 profs in common
HUM-241
	current profs 114106
	past profs
	Exists this year but has no profs. Checking archive...
	Not in archive. Treat as new course.
ME-231(a)
	current profs 188690, 176631
	past profs 188690, 176631
	with 188690, 176631 profs in common
EE-371
	current profs 156731
	past profs 156731
	with 156731 profs in common
BIO-447
	current profs 106911, 235263, 172749
	past profs 106911, 235263, 172749
	with 106911, 235263, 172749 profs in common
AR-131
	current profs 108031
			AR-131 with course:AR-131$AR-132
	with 108031 profs in common
AR-365
	current profs 224574
			AR-365 with course:AR-365$AR-366
	with 224574 profs in common
ME-419
	current profs 156847
	past profs 156847
	with 156847 profs in common
ME-416
	current profs 105551
	past profs 105551, 155576
	with 105551 profs in common
CH-353
	current profs 150117
	past profs 150117
	with 150117 profs in common
ME-410
	current profs 218367
	course not in this year's moodle so checking archive...
	Not in archive. Treat as new course.
	Exists this year but has no profs. Checking archive...
	Not in archive. Treat as new course.
PHYS-101(b)
	current profs 178548
	past profs 178548
	with 178548 profs in common
BIO-449
	current profs 164642
	past profs 164642
	with 164642 profs in common
BIO-109(d)
	current profs 168676
	past profs 168676
	with 168676 profs in common
AR-201(n)
	current profs 126032
	course not in this year's moodle so checking archive...
	Not in archive. Treat as new course.
	Exists this year but has no profs. Checking archive...
	Not in archive. Treat as new course.
ENV-460
	current profs 130072, 192838
	past profs 130072
	with 130072 profs in common
EE-370
	current profs 104759
	past profs 104759
	with 104759 profs in common
ENV-469
	current profs 112854
	past profs 112854
	with 112854 profs in common
ENV-468
	current profs 106641
	past profs 106641
	with 106641 profs in common
PENS-490
	current profs 126096
	course not in this year's moodle so checking archive...
	Not in archive. Treat as new course.
	Exists this year but has no profs. Checking archive...
	Not in archive. Treat as new course.
HUM-407(a)
	current profs 229955
	past profs
	Exists this year but has no profs. Checking archive...
	Not in archive. Treat as new course.
MATH-423
	current profs 113868
	past profs 113868
	with 113868 profs in common
CH-108(a)
	current profs 149479
	past profs 149479
	with 149479 profs in common
CIVIL-597
	current profs 126096
	past profs
	Exists this year but has no profs. Checking archive...
	Not in archive. Treat as new course.
CIVIL-599
	current profs 126096
	past profs
	Exists this year but has no profs. Checking archive...
	Not in archive. Treat as new course.
MGT-412
	current profs 258630
	past profs 258630
	with 258630 profs in common
MATH-111(a)
	current profs 104781
	past profs 106409
	MATH-111(a) has different profs this year.
MGT-414
	current profs 263771
	past profs 263771
	with 263771 profs in common
MSE-450
	current profs 180921, 178548
	past profs 178548, 180921
	with 180921, 178548 profs in common
HUM-207(a)
	current profs 141572
	past profs 141572
	with 141572 profs in common
MATH-202(c)
	current profs 105837
	past profs 105837
	with 105837 profs in common
MSE-490(c)
	current profs 126096
	past profs
	Exists this year but has no profs. Checking archive...
	Not in archive. Treat as new course.
MATH-101(a)
	current profs 120861
	past profs 120861
	with 120861 profs in common
AR-407
	current profs 180534
	past profs 180534
	with 180534 profs in common
ME-482
	current profs 103117
	past profs 103117
	with 103117 profs in common
AR-219
	current profs 126096, 116344
	past profs 170092, 116344, 190414
	with 116344 profs in common
EE-575
	current profs 106170
	past profs 106170
	with 106170 profs in common
EE-597(a)
	current profs 101565, 190049
	past profs 101565, 190049
	with 101565, 190049 profs in common
AR-211
	current profs 184705
	past profs 184705
	with 184705 profs in common
AR-401(y)
	current profs 166540
	course not in this year's moodle so checking archive...
	Not in archive. Treat as new course.
	Exists this year but has no profs. Checking archive...
	Not in archive. Treat as new course.
MATH-101(f)
	current profs 121777
	past profs 121777
	with 121777 profs in common
ChE-411
	current profs 174688
	past profs 174688
	with 174688 profs in common
CH-160(d)
	current profs 150841
	past profs 150841
	with 150841 profs in common
PHYS-502(a)
	current profs 126096
	past profs
	Exists this year but has no profs. Checking archive...
	Not in archive. Treat as new course.
MSE-423
	current profs 210230
	past profs 210230
	with 210230 profs in common
MSE-304
	current profs 235586
	past profs 235586
	with 235586 profs in common
MSE-422
	current profs 115064
	past profs 115064
	with 115064 profs in common
PHYS-201(b)
	current profs 212341, 110635
			PHYS-201(b) with course:PHYS-201(b)$PHYS-207(b)
	PHYS-201(b) has different profs this year.
ENV-202
	current profs 121849, 171550
	past profs 121849, 171550
	with 121849, 171550 profs in common
MSE-420
	current profs 138857
	past profs 138857
	with 138857 profs in common
MSE-424
	current profs 161342, 112836, 106123
	past profs 112836, 106123
	with 112836, 106123 profs in common
MSE-351
	current profs 105869, 105945, 112564
	past profs 105945, 112564
	with 105945, 112564 profs in common
ChE-403
	current profs 154408
	past profs 105553
	ChE-403 has different profs this year.
MSE-352
	current profs 265228, 104267, 120862
	past profs 104267, 120862, 105410
	with 104267, 120862 profs in common
CH-444
	current profs 257108
	past profs 122830
	CH-444 has different profs this year.
ENV-367
	current profs 112696
	past profs 112696
	with 112696 profs in common
CH-443
	current profs 105914
	past profs 105914
	with 105914 profs in common
BIOENG-596
	current profs 126096
	past profs
	Exists this year but has no profs. Checking archive...
	Not in archive. Treat as new course.
EE-490(d)
	current profs 104903
	past profs 104903
	with 104903 profs in common
MATH-234(a)
	current profs 126039
	past profs 154487
	MATH-234(a) has different profs this year.
HUM-406(a)
	current profs 126039
	past profs 167293, 264199
	HUM-406(a) has different profs this year.
ChE-409
	current profs 154408
	past profs 154408, 178220, 105553
	with 154408 profs in common
HUM-409(a)
	current profs 169009, 172779
	past profs 169009, 172779
	with 169009, 172779 profs in common
PHYS-403
	current profs 109250
			PHYS-403 with course:PHYS-403$PHYS404(a)
	with 109250 profs in common
HUM-348
	current profs 171551
	past profs 171551
	with 171551 profs in common
PHYS-401
	current profs 222189
	past profs 157449
	PHYS-401 has different profs this year.
MICRO-310(a)
	current profs 115227
	past profs 120906
	MICRO-310(a) has different profs this year.
PHYS-407
	current profs 132653, 105546
	past profs 132653, 105546
	with 132653, 105546 profs in common
MATH-120
	current profs 178545
	past profs 178545
	with 178545 profs in common
PHYS-405
	current profs 120862, 105040
	past profs 120862, 105040
	with 120862, 105040 profs in common
MICRO-331
	current profs 145781, 113762
	past profs 145781, 113762
	with 145781, 113762 profs in common
HUM-346
	current profs 229441
	past profs 264221
	HUM-346 has different profs this year.
CS-210
	current profs 177241, 126003
	past profs 177241, 126003
	with 177241, 126003 profs in common
HUM-408(a)
	current profs 260621
	past profs
	Exists this year but has no profs. Checking archive...
	Not in archive. Treat as new course.
ENV-445
	current profs 105831, 104028
	past profs 105831
	with 105831 profs in common
HUM-419(a)
	current profs 188747
	past profs
	Exists this year but has no profs. Checking archive...
	Not in archive. Treat as new course.
ENV-444
	current profs 149002
	past profs 149002
	with 149002 profs in common
FIN-403
	current profs 192822
	past profs 192822
	with 192822 profs in common
FIN-402
	current profs 192170
	past profs 192170
	with 192170 profs in common
FIN-401
	current profs 192818
	past profs 192818
	with 192818 profs in common
FIN-406
	current profs 174686
	past profs 174686
	with 174686 profs in common
MATH-260
	current profs 183120
	past profs 183120
	with 183120 profs in common
MATH-203(b)
	current profs 105837
	past profs 106096
	MATH-203(b) has different profs this year.
FIN-408
	current profs 192820
	past profs 192820
	with 192820 profs in common
CH-242(a)
	current profs 164385
	course not in this year's moodle so checking archive...
	Not in archive. Treat as new course.
	Exists this year but has no profs. Checking archive...
	Not in archive. Treat as new course.
EE-360
	current profs 156731, 252123, 101913
	past profs 156731, 252123, 101913
	with 156731, 252123, 101913 profs in common
HUM-205
	current profs 229955
	past profs
	Exists this year but has no profs. Checking archive...
	Not in archive. Treat as new course.
CS-111(i)
	current profs 106336
			CS-111(i) with course:CS-111(i)$CS-112(i)
	with 106336 profs in common
HUM-411(c)
	current profs 209405
	past profs 29660@unige.ch
	HUM-411(c) has different profs this year.
ME-344
	current profs 162579
	past profs 104417
	ME-344 has different profs this year.
CIVIL-438
	current profs 261547, 106690
	past profs 261547, 106690
	with 261547, 106690 profs in common
ENG-209
	current profs 104020, 106795
	past profs
	Exists this year but has no profs. Checking archive...
PHYS-317
	current profs
	past profs 105530
	has no current profs but had 105530 previously
PREPA-001
	current profs 106559, 100435, 104677
	past profs 106559, 100435, 104677
	with 106559, 100435, 104677 profs in common
PHYS-315
	current profs 159141
	past profs 159141
	with 159141 profs in common
PREPA-003
	current profs 106748, 157882, 104677
	past profs 106748, 157882, 104677
	with 106748, 157882, 104677 profs in common
PHYS-313
	current profs 103561
	past profs 103561
	with 103561 profs in common
PREPA-005
	current profs 106748, 100527, 107148
	past profs 106748, 100527, 107148
	with 106748, 100527, 107148 profs in common
PHYS-311
	current profs 162579
			PHYS-311 with course:PHYS-311$PHYS-312
	with 162579 profs in common
PREPA-007
	current profs 100527
	past profs 100527
	with 100527 profs in common
MATH-111(e)
	current profs 156849
	past profs 201226
	MATH-111(e) has different profs this year.
HUM-114
	current profs 141723
	past profs 141723
	with 141723 profs in common
PHYS-104
	current profs 136611, 109056
	past profs 136611, 109056
	with 136611, 109056 profs in common
EE-491(a)
	current profs 126096
	past profs
	Exists this year but has no profs. Checking archive...
	Not in archive. Treat as new course.
MGT-597
	current profs 126096
	past profs
	Exists this year but has no profs. Checking archive...
	Not in archive. Treat as new course.
MICRO-391
	current profs 209207
	past profs 209207
	with 209207 profs in common
EE-550
	current profs 105043
	past profs 105043
	with 105043 profs in common
AR-401(w)
	current profs 269944, 269945
	course not in this year's moodle so checking archive...
	Not in archive. Treat as new course.
	Exists this year but has no profs. Checking archive...
	Not in archive. Treat as new course.
MICRO-523
	current profs 104526
	past profs 104526
	with 104526 profs in common
BIO-406
	current profs 126096
	course not in this year's moodle so checking archive...
	Not in archive. Treat as new course.
	Exists this year but has no profs. Checking archive...
	Not in archive. Treat as new course.
BIO-109(c)
	current profs 235263
	past profs 235263
	with 235263 profs in common
MGT-599
	current profs 126096
	past profs
	Exists this year but has no profs. Checking archive...
	Not in archive. Treat as new course.
ENV-422
	current profs 133834, 190741
	past profs 190741
	with 190741 profs in common
ENV-426
	current profs 254448, 262293, 253102
	past profs 254448, 262293, 253102
	with 254448, 262293, 253102 profs in common
ENV-424
	current profs 182281
	past profs 182281, 182988
	with 182281 profs in common
CH-210
	current profs 163670
	past profs 163670
	with 163670 profs in common
CS-320
	current profs 177241
	past profs 177241
	with 177241 profs in common
CS-321
	current profs 104900
	past profs 104900
	with 104900 profs in common
BIOENG-437
	current profs 110882
	past profs 110882
	with 110882 profs in common
AR-444
	current profs 105709
	past profs 105709
	with 105709 profs in common
CS-328
	current profs 265226
	course not in this year's moodle so checking archive...
	Not in archive. Treat as new course.
	Exists this year but has no profs. Checking archive...
	Not in archive. Treat as new course.
AR-447
	current profs 169271, 104128
	past profs 169271, 104128
	with 169271, 104128 profs in common
AR-440
	current profs 266736, 108031, 103938, 103324, 126378
	past profs 248767, 243582, 126378, 108031, 103938, 103324
	with 108031, 103938, 103324, 126378 profs in common
CS-110(d)
	current profs 112547
	past profs
	Exists this year but has no profs. Checking archive...
AR-442
	current profs 253134, 103938, 243582
	past profs 103938, 243582, 104348
	with 103938, 243582 profs in common
ME-446
	current profs 108776, 232732, 220992
	past profs 108776, 232732, 220992
	with 108776, 232732, 220992 profs in common
ME-445
	current profs 252550
	past profs 123870
	ME-445 has different profs this year.
EE-530
	current profs 108571
	past profs 108571
	with 108571 profs in common
PHYS-101(e)
	current profs 161577
	past profs 161577
	with 161577 profs in common
EE-536
	current profs 133331
	past profs 133331
	with 133331 profs in common
EE-535
	current profs 122431
	past profs 122431
	with 122431 profs in common
MGT-413(a)
	current profs 231531
	past profs 231531, 171551
	with 231531 profs in common
EE-539
	current profs 107331
	past profs 205437, 201148, 107331, 199820, 222513
	with 107331 profs in common
ME-523
	current profs 105941
	past profs 105941
	with 105941 profs in common
BIO-479
	current profs 246669, 196676
	past profs 246669, 196676
	with 246669, 196676 profs in common
EE-432
	current profs 104020
	past profs 104020
	with 104020 profs in common
AR-312
	current profs 180534
	past profs 180534
	with 180534 profs in common
BIO-471
	current profs 174228, 168670, 253104
	past profs 174228, 168670, 171552, 253104
	with 174228, 168670, 253104 profs in common
MATH-111(b)
	current profs 178502
	past profs 149640
	MATH-111(b) has different profs this year.
MATH-458
	current profs 182721
	past profs 182721
	with 182721 profs in common
MATH-459
	current profs
	past profs 232231
	has no current profs but had 232231 previously
MATH-456
	current profs 190484
	past profs 159570
	MATH-456 has different profs this year.
MATH-452
	current profs
	past profs 189915
	has no current profs but had 189915 previously
MATH-451
	current profs 118353
	past profs 118353
	with 118353 profs in common
FIN-505
	current profs 196224
	past profs 196224
	with 196224 profs in common
MICRO-563
	current profs 126096
	past profs
	Exists this year but has no profs. Checking archive...
	Not in archive. Treat as new course.
BIOENG-390
	current profs 126096
	past profs
	Exists this year but has no profs. Checking archive...
	Not in archive. Treat as new course.
AR-401(i)
	current profs 105615
	past profs 105615
	with 105615 profs in common
BIOENG-490
	current profs 126096
	past profs
	Exists this year but has no profs. Checking archive...
	Not in archive. Treat as new course.
HUM-213
	current profs 218732
	past profs
	Exists this year but has no profs. Checking archive...
MSE-465
	current profs 105945
	past profs 105945
	with 105945 profs in common
MATH-251(b)
	current profs 118377
	past profs 118377
	with 118377 profs in common
AR-598
	current profs 126096
	past profs
	Exists this year but has no profs. Checking archive...
	Not in archive. Treat as new course.
AR-599
	current profs 126096
	past profs
	Exists this year but has no profs. Checking archive...
	Not in archive. Treat as new course.
ENG-472(a)
	current profs 126096
	past profs
	Exists this year but has no profs. Checking archive...
	Not in archive. Treat as new course.
EE-540
	current profs 107296
	past profs 107296
	with 107296 profs in common
COM-404
	current profs 122796
	past profs 131639
	COM-404 has different profs this year.
ME-232
	current profs 111182
	past profs 111182
	with 111182 profs in common
AR-597
	current profs 159253
	past profs 159253
	with 159253 profs in common
EE-548
	current profs 157878
	past profs 157878
	with 157878 profs in common
EE-549
	current profs 115530
	past profs 115530
	with 115530 profs in common
HUM-402(a)
	current profs 196358
	past profs 206054, 196358, 181931
	with 196358 profs in common
CS-110(c)
	current profs 104608
	past profs 104608
	with 104608 profs in common
HUM-352
	current profs 218335
	past profs 218335
	with 218335 profs in common
MATH-201
	current profs 113868
	past profs 113868
	with 113868 profs in common
MATH-200
	current profs 104848
	past profs 104848
	with 104848 profs in common
CIVIL-447
	current profs
	past profs 105271
	has no current profs but had 105271 previously
CIVIL-446
	current profs 100959
	past profs 100959
	with 100959 profs in common
CIVIL-443
	current profs 121845, 172705
	past profs 121845, 172705
	with 121845, 172705 profs in common
HUM-499(a)
	current profs 251747, 167659, 176402
	course not in this year's moodle so checking archive...
	Not in archive. Treat as new course.
	Exists this year but has no profs. Checking archive...
	Not in archive. Treat as new course.
CIVIL-441
	current profs 113119, 104868
	past profs 113119, 104868
	with 113119, 104868 profs in common
ENG-445
	current profs 105271
	past profs 105271
	with 105271 profs in common
AR-401(e)
	current profs 156151
	past profs 156151
	with 156151 profs in common
EE-320
	current profs 107331, 182237
	past profs 107331, 182237
	with 182237, 107331 profs in common
HUM-316
	current profs 218732
	past profs
	Exists this year but has no profs. Checking archive...
HUM-401(a)
	current profs 221192, 157990
	past profs
	Exists this year but has no profs. Checking archive...
	Not in archive. Treat as new course.
HUM-219
	current profs 114106
	past profs
	Exists this year but has no profs. Checking archive...
	Not in archive. Treat as new course.
ENG-440
	current profs 105275, 176402
	past profs 105275, 176402
	with 105275, 176402 profs in common
CS-250
	current profs 213225, 179025
	past profs 213225
	with 213225 profs in common
HUM-403(a)
	current profs 218732
	past profs 196377
	HUM-403(a) has different profs this year.
FIN-521
	current profs 192822
	past profs 192822
	with 192822 profs in common
FIN-522
	current profs 192818
	past profs 192818
	with 192818 profs in common
FIN-523
	current profs 174686
	past profs 174686
	with 174686 profs in common
FIN-525
	current profs 126416
	past profs 126416, 192824
	with 126416 profs in common
ME-302
	current profs 218367
	past profs 218367
	with 218367 profs in common
EE-490(a)
	current profs 157878
	past profs 157878
	with 157878 profs in common
MATH-234(b)
	current profs 126039
	past profs 105381
	MATH-234(b) has different profs this year.
PHYS-217
	current profs 147448
	past profs 147448
	with 147448 profs in common
EE-516
	current profs 149175, 137762
	past profs 149175, 137762
	with 149175, 137762 profs in common
HUM-265(a)
	current profs 196358
	past profs 196358
	with 196358 profs in common
CIVIL-340
	current profs 105271
	past profs 105271
	with 105271 profs in common
AR-459
	current profs 166241, 235560
	past profs 166241, 235560
	with 166241, 235560 profs in common
MICRO-567
	current profs 174684
	past profs 174684
	with 174684 profs in common
CS-111(c)
	current profs 104608
			CS-111(c) with course:CS-111(c)$CS-112(c)
	with 104608 profs in common
MICRO-561
	current profs 231181
	past profs 231181
	with 231181 profs in common
MICRO-560
	current profs 107144
	past profs 107144
	with 107144 profs in common
HUM-432(a)
	current profs 217408
	past profs 217408
	with 217408 profs in common
MICRO-568
	current profs 107144, 104385
	past profs 107144, 104385
	with 107144, 104385 profs in common
HEP-449
	current profs 126096
	course not in this year's moodle so checking archive...
	Not in archive. Treat as new course.
	Exists this year but has no profs. Checking archive...
	Not in archive. Treat as new course.
CH-250
	current profs 133818, 181577
	past profs 133818, 181577
	with 133818, 181577 profs in common
AR-301(d)
	current profs 225190, 225189
	past profs 225190, 225189
	with 225190, 225189 profs in common
BIO-598(a)
	current profs 126096
	past profs
	Exists this year but has no profs. Checking archive...
	Not in archive. Treat as new course.
HUM-245(a)
	current profs 141288
	past profs 141288
	with 141288 profs in common
MICRO-599
	current profs 126096
	past profs 208625
	MICRO-599 has different profs this year.
UNIL-101
	current profs 149479
			UNIL-101 with course:UNIL-101$UNIL-102
	with 149479 profs in common
HUM-308
	current profs 106542
	past profs 106542
	with 106542 profs in common
PHYS-449
	current profs 105530
	past profs 131663
	PHYS-449 has different profs this year.
PHYS-448
	current profs 173996
	past profs 173996
	with 173996 profs in common
HUM-305
	current profs 229955
	past profs
	Exists this year but has no profs. Checking archive...
	Not in archive. Treat as new course.
HUM-304
	current profs 263736
	past profs 263736
	with 263736 profs in common
PHYS-445
	current profs 105078
	past profs 106568, 105078
	with 105078 profs in common
HUM-306
	current profs 184338
	past profs
	Exists this year but has no profs. Checking archive...
	Not in archive. Treat as new course.
FIN-599
	current profs 126096
	past profs
	Exists this year but has no profs. Checking archive...
	Not in archive. Treat as new course.
PHYS-441
	current profs 144344
	past profs 144344
	with 144344 profs in common
MICRO-597
	current profs 190049, 104911
	past profs 190049, 104911
	with 190049, 104911 profs in common
MATH-100(b)
	current profs 125665
	past profs 125665
	with 125665 profs in common
MSE-390
	current profs 126096
	past profs
	Exists this year but has no profs. Checking archive...
	Not in archive. Treat as new course.
HUM-222
	current profs 240848, 262931
	past profs
	Exists this year but has no profs. Checking archive...
	Not in archive. Treat as new course.
AR-521
	current profs 231597
	past profs 231597
	with 231597 profs in common
CIVIL-532
	current profs 104926
	past profs 104926
	with 104926 profs in common
AR-401(z)
	current profs 269948, 134547
	course not in this year's moodle so checking archive...
	Not in archive. Treat as new course.
	Exists this year but has no profs. Checking archive...
	Not in archive. Treat as new course.
UNIL-109
	current profs 122784
	past profs 122784
	with 122784 profs in common
ME-409
	current profs 207354, 140973, 107971
	course not in this year's moodle so checking archive...
	Not in archive. Treat as new course.
	Exists this year but has no profs. Checking archive...
	Not in archive. Treat as new course.
HUM-429(a)
	current profs 192425
	past profs
	Exists this year but has no profs. Checking archive...
	Not in archive. Treat as new course.
PHYS-446
	current profs 215204, 251903, 252176
	past profs 215204, 251903, 252176
	with 215204, 251903, 252176 profs in common
ME-403
	current profs 103606
	course not in this year's moodle so checking archive...
	Not in archive. Treat as new course.
	Exists this year but has no profs. Checking archive...
	Not in archive. Treat as new course.
ME-402
	current profs 126096
	past profs
	Exists this year but has no profs. Checking archive...
	Not in archive. Treat as new course.
ME-401
	current profs 126096
	past profs
	Exists this year but has no profs. Checking archive...
	Not in archive. Treat as new course.
UNIL-103
	current profs 149479
	past profs
	Exists this year but has no profs. Checking archive...
	Not in archive. Treat as new course.
UNIL-104
	current profs 149479
	past profs 149479
	with 149479 profs in common
AR-351
	current profs 106674, 115221, 117356
	past profs 106674, 117356
	with 106674, 117356 profs in common
UNIL-106
	current profs 148571
	past profs 148571
	with 148571 profs in common
UNIL-107
	current profs 121777
	past profs 121777
	with 121777 profs in common
MICRO-200
	current profs 101874
	past profs 101874
	with 101874 profs in common
CH-313
	current profs 123155
	past profs 123155
	with 123155 profs in common
BIO-493
	current profs 157467, 170052
	past profs 157467, 170052
	with 157467, 170052 profs in common
AR-201(a)
	current profs 143954, 115080
	past profs 143954, 115080
	with 143954, 115080 profs in common
PHYS-443
	current profs 228965, 252176
	past profs 228965, 252176
	with 228965, 252176 profs in common
BIO-501
	current profs 126096
	past profs
	Exists this year but has no profs. Checking archive...
	Not in archive. Treat as new course.
MGT-408
	current profs 141288
	past profs 141288
	with 141288 profs in common
MGT-409
	current profs 162370
	past profs 192959
	MGT-409 has different profs this year.
HUM-400
	current profs 126096
	past profs
	Exists this year but has no profs. Checking archive...
	Not in archive. Treat as new course.
ENG-421
	current profs 229644
	past profs 217963, 229644
	with 229644 profs in common
MICRO-300
	current profs 105416
	past profs 105416
	with 105416 profs in common
CIVIL-223
	current profs 104868
	past profs 104868, 182721
	with 104868 profs in common
MGT-401
	current profs 263225
	past profs 263225
	with 263225 profs in common
PENS-492
	current profs 103938, 126096
	course not in this year's moodle so checking archive...
	Not in archive. Treat as new course.
	Exists this year but has no profs. Checking archive...
	Not in archive. Treat as new course.
MATH-381
	current profs 183376
	past profs 183376
	with 183376 profs in common
PENS-494
	current profs 126096
	course not in this year's moodle so checking archive...
	Not in archive. Treat as new course.
	Exists this year but has no profs. Checking archive...
	Not in archive. Treat as new course.
HUM-330(a)
	current profs 167290
	past profs
	Exists this year but has no profs. Checking archive...
	Not in archive. Treat as new course.
MATH-111(f)
	current profs 105396
	past profs 105396
	with 105396 profs in common
AR-415
	current profs 103576
	past profs 103576
	with 103576 profs in common
COM-516
	current profs 107931, 107423
	past profs 107931, 107423
	with 107931, 107423 profs in common
COM-511
	current profs 113819
	past profs 113819
	with 113819 profs in common
AR-411
	current profs 104355
	past profs 104355
	with 104355 profs in common
BIOENG-514
	current profs 184841
	past profs 184841
	with 184841 profs in common
CS-171
	current profs 158881
	past profs
	Exists this year but has no profs. Checking archive...
BIOENG-516
	current profs 178419
	past profs 178419
	with 178419 profs in common
BIOENG-511
	current profs 188367, 183356
	past profs 183356, 169239, 148998
	with 183356 profs in common
BIOENG-513
	current profs 163673
	past profs 163673
	with 163673 profs in common
BIOENG-512
	current profs 112822, 103994
	past profs 103994, 112822
	with 112822, 103994 profs in common
HUM-315
	current profs 158392
	past profs 158392
	with 158392 profs in common
BIOENG-451
	current profs 263769, 160090
	past profs 160090, 150822, 220184
	with 160090 profs in common
MSE-490(b)
	current profs 126096
	past profs
	Exists this year but has no profs. Checking archive...
	Not in archive. Treat as new course.
AR-331
	current profs 104348
			AR-331 with course:AR-331$AR-332
	with 104348 profs in common
EE-465
	current profs 243438
	past profs 243438
	with 243438 profs in common
EE-466
	current profs 106311
	past profs 243668, 106311
	with 106311 profs in common
EE-461
	current profs 105563
	past profs 105563
	with 105563 profs in common
PREPA-011
	current profs 115196
	past profs 115196
	with 115196 profs in common
PREPA-009
	current profs 207302
	past profs 207302
	with 207302 profs in common
AR-221
	current profs 263770
	past profs 263770
	with 263770 profs in common
ME-474
	current profs 106362
	past profs 106362
	with 106362 profs in common
AR-223
	current profs 270802
	past profs 169227
	AR-223 has different profs this year.
CH-599
	current profs 126096
	past profs
	Exists this year but has no profs. Checking archive...
	Not in archive. Treat as new course.
MSE-597
	current profs 107522, 190049
	past profs 107522, 190049
	with 107522, 190049 profs in common
MSE-599
	current profs 126096
	past profs
	Exists this year but has no profs. Checking archive...
	Not in archive. Treat as new course.
ChE-201
	current profs 174688
	past profs 174688
	with 174688 profs in common
UNIL-200
	current profs 148588
	past profs 148588
	with 148588 profs in common
UNIL-207
	current profs 123314
	past profs 123314
	with 123314 profs in common
PHYS-319
	current profs 136611, 161833, 106001
	past profs 136611, 161833, 106001
	with 136611, 161833, 106001 profs in common
HUM-412(c)
	current profs 141572, 181991
	past profs 141572, 181991
	with 141572, 181991 profs in common
PHYS-201(c)
	current profs 107920
	past profs
	Exists this year but has no profs. Checking archive...
	Not in archive. Treat as new course.
UNIL-208
	current profs 182444
	past profs 182444
	with 182444 profs in common
BIO-109(b)
	current profs 168670
	past profs 168670
	with 168670 profs in common
AR-455
	current profs 117356
	past profs 117356
	with 117356 profs in common
CIVIL-436
	current profs 104646
	past profs 104646
	with 104646 profs in common
CS-452
	current profs 126003
	past profs 126003
	with 126003 profs in common
CS-453
	current profs 105326
	past profs 105326
	with 105326 profs in common
MSE-430
	current profs 105657
	past profs 105657
	with 105657 profs in common
COM-301
	current profs 107463
	past profs 107463
	with 107463 profs in common
MATH-251(a)
	current profs 118353
	past profs 118353
	with 118353 profs in common
CS-107
	current profs 106336
	past profs 106336, 177766
	with 106336 profs in common
CH-451
	current profs 106285
	past profs 106285
	with 106285 profs in common
CH-590
	current profs
	course not in this year's moodle so checking archive...
	Not in archive. Treat as new course.
	Exists this year but has no profs. Checking archive...
	Not in archive. Treat as new course.
CS-101
	current profs 171548
	course not in this year's moodle so checking archive...
	Not in archive. Treat as new course.
	Exists this year but has no profs. Checking archive...
	Not in archive. Treat as new course.
PHYS-500(a)
	current profs 126096
	past profs
	Exists this year but has no profs. Checking archive...
	Not in archive. Treat as new course.
CIVIL-122
	current profs 104671
	past profs 104671
	with 104671 profs in common
BIO-318
	current profs 182445, 182376, 181957
	past profs 182445, 182376, 181957
	with 182445, 182376, 181957 profs in common
COM-597
	current profs 126096
	past profs
	Exists this year but has no profs. Checking archive...
	Not in archive. Treat as new course.
CIVIL-430
	current profs 133346
	past profs 133346
	with 133346 profs in common
CS-472
	current profs 167918
	past profs 167918
	with 167918 profs in common
COM-599
	current profs 126096
	past profs
	Exists this year but has no profs. Checking archive...
	Not in archive. Treat as new course.
PHYS-435
	current profs 263767
	past profs 144344
	PHYS-435 has different profs this year.
CH-321
	current profs 181278
	past profs 181278, 145138
	with 181278 profs in common
PHYS-433
	current profs 165328
	past profs 165328
	with 165328 profs in common
PHYS-431
	current profs 174685
	past profs 174685
	with 174685 profs in common
CIVIL-490
	current profs 126096
	past profs
	Exists this year but has no profs. Checking archive...
	Not in archive. Treat as new course.
CIVIL-491
	current profs 126096
	past profs
	Exists this year but has no profs. Checking archive...
	Not in archive. Treat as new course.
CIVIL-492
	current profs 126096
	past profs
	Exists this year but has no profs. Checking archive...
	Not in archive. Treat as new course.
CIVIL-493
	current profs 126096
	past profs
	Exists this year but has no profs. Checking archive...
	Not in archive. Treat as new course.
MICRO-404
	current profs 109297
	course not in this year's moodle so checking archive...
	Not in archive. Treat as new course.
	Exists this year but has no profs. Checking archive...
	Not in archive. Treat as new course.
MICRO-405
	current profs 159310
	course not in this year's moodle so checking archive...
	Not in archive. Treat as new course.
	Exists this year but has no profs. Checking archive...
	Not in archive. Treat as new course.
MICRO-402
	current profs 110635, 176631, 107144
	course not in this year's moodle so checking archive...
	Not in archive. Treat as new course.
	Exists this year but has no profs. Checking archive...
	Not in archive. Treat as new course.
MICRO-403
	current profs 109297
	course not in this year's moodle so checking archive...
	Not in archive. Treat as new course.
	Exists this year but has no profs. Checking archive...
	Not in archive. Treat as new course.
MICRO-401
	current profs 115671
	course not in this year's moodle so checking archive...
	Not in archive. Treat as new course.
	Exists this year but has no profs. Checking archive...
	Not in archive. Treat as new course.
ENV-504
	current profs 171550
	past profs 171550
	with 171550 profs in common
HEP-402
	current profs 251147, 251146
	course not in this year's moodle so checking archive...
	Not in archive. Treat as new course.
	Exists this year but has no profs. Checking archive...
	Not in archive. Treat as new course.
ENV-506
	current profs 104934
	past profs 247939, 104934
	with 104934 profs in common
ENV-507
	current profs
	past profs 173999, 169370
	has no current profs but had 173999, 169370 previously
HEP-407
	current profs 251149, 109752
	course not in this year's moodle so checking archive...
	Not in archive. Treat as new course.
	Exists this year but has no profs. Checking archive...
	Not in archive. Treat as new course.
CS-208
	current profs 101954
	past profs
	Exists this year but has no profs. Checking archive...
	CS-208 has different profs this year.
CS-111(g)
	current profs 112547
			CS-111(g) with course:CS-111(g)$CS-112(g)
	with 112547 profs in common
FIN-410
	current profs 188388
	past profs
	Exists this year but has no profs. Checking archive...
	Not in archive. Treat as new course.
FIN-411
	current profs 240660
	past profs 240660
	with 240660 profs in common
CIVIL-390
	current profs 126096
	past profs
	Exists this year but has no profs. Checking archive...
	Not in archive. Treat as new course.
CS-522
	current profs 172241, 229105, 176638
	past profs 257875, 229105, 205917, 176638
	with 229105, 176638 profs in common
CH-424
	current profs 145138
	past profs 145138
	with 145138 profs in common
CH-422
	current profs 123171
	past profs 123171, 149418
	with 123171 profs in common
CH-423
	current profs 144957
	past profs 144957
	with 144957 profs in common
MSE-230
	current profs 106123
	past profs 106123
	with 106123 profs in common
CH-421
	current profs 181278
	past profs 181278
	with 181278 profs in common
CIVIL-403
	current profs 106517
	past profs 106517
	with 106517 profs in common
CIVIL-402
	current profs 160132, 105611
	past profs 160132, 105611
	with 160132, 105611 profs in common
MICRO-499
	current profs 126096
	past profs
	Exists this year but has no profs. Checking archive...
	Not in archive. Treat as new course.
MICRO-498
	current profs 126096
	past profs
	Exists this year but has no profs. Checking archive...
	Not in archive. Treat as new course.
PHYS-324
	current profs 266889
	past profs 174685
	PHYS-324 has different profs this year.
ENG-274
	current profs 104589
	past profs 104589
	with 104589 profs in common
EE-512
	current profs 106643
	past profs 106643
	with 106643 profs in common
PHYS-115
	current profs 106368
			PHYS-115 with course:PHYS-115$PHYS-116
	with 106368 profs in common
PHYS-114
	current profs 240229
	past profs 240229
	with 240229 profs in common
PHYS-100
	current profs 137850, 104398
	past profs 137850, 104398
	with 137850, 104398 profs in common
MATH-599
	current profs 126096
	past profs
	Exists this year but has no profs. Checking archive...
	Not in archive. Treat as new course.
MATH-598
	current profs 126096
	past profs
	Exists this year but has no profs. Checking archive...
	Not in archive. Treat as new course.
MATH-597
	current profs 126096
	past profs
	Exists this year but has no profs. Checking archive...
	Not in archive. Treat as new course.
MATH-596
	current profs 126096
	past profs
	Exists this year but has no profs. Checking archive...
	Not in archive. Treat as new course.
MATH-595
	current profs 126096
	past profs
	Exists this year but has no profs. Checking archive...
	Not in archive. Treat as new course.
AR-401(v)
	current profs 121763
	course not in this year's moodle so checking archive...
	Not in archive. Treat as new course.
	Exists this year but has no profs. Checking archive...
	Not in archive. Treat as new course.
MATH-592
	current profs 126096
	past profs
	Exists this year but has no profs. Checking archive...
	Not in archive. Treat as new course.
MATH-591
	current profs 126096
	past profs
	Exists this year but has no profs. Checking archive...
	Not in archive. Treat as new course.
EE-732
	current profs 120906, 140163
	course not in this year's moodle so checking archive...
	Not in archive. Treat as new course.
	Exists this year but has no profs. Checking archive...
	Not in archive. Treat as new course.
PHYS-501(a)
	current profs 126096
	past profs
	Exists this year but has no profs. Checking archive...
	Not in archive. Treat as new course.
UNIL-130
	current profs 149640
	past profs 149640
	with 149640 profs in common
EE-106
	current profs 106775
	past profs 106775
	with 106775 profs in common
PHYS-101(en)
	current profs 137850
	past profs 189937
	PHYS-101(en) has different profs this year.
EE-100
	current profs 159310
	past profs 159310
	with 159310 profs in common
HUM-357
	current profs 110625
	past profs 110625
	with 110625 profs in common
ChE-596
	current profs 126096
	past profs
	Exists this year but has no profs. Checking archive...
	Not in archive. Treat as new course.
HUM-355
	current profs 118273
	past profs 118273
	with 118273 profs in common
CIVIL-308
	current profs 258084, 163925
	past profs 258084, 163925
	with 258084, 163925 profs in common
HUM-353
	current profs 141723
	past profs 141723
	with 141723 profs in common
MATH-341
	current profs 180565
	past profs 180565
	with 180565 profs in common
CH-221
	current profs 253110, 145138
	past profs 253110, 145138
	with 253110, 145138 profs in common
ChE-599
	current profs 126096
	past profs
	Exists this year but has no profs. Checking archive...
	Not in archive. Treat as new course.
HUM-358
	current profs 185819, 196377
	past profs
	Exists this year but has no profs. Checking archive...
	with 185819 profs in common
CH-160(c)
	current profs 109839
	past profs 109839
	with 109839 profs in common
AR-337
	current profs 156151
	past profs 156151
	with 156151 profs in common
AR-453
	current profs
	past profs 221847
	has no current profs but had 221847 previously
AR-451
	current profs 105248
	past profs 105248
	with 105248 profs in common
AR-457
	current profs 109766
	past profs 109766
	with 109766 profs in common
EE-203(b)
	current profs 106795
	past profs 106795
	with 106795 profs in common
BIO-503
	current profs 126096
	past profs
	Exists this year but has no profs. Checking archive...
	Not in archive. Treat as new course.
BIO-502
	current profs 126096
	past profs
	Exists this year but has no profs. Checking archive...
	Not in archive. Treat as new course.
ME-430
	current profs 211624, 246108
	past profs 211624, 246108
	with 211624, 246108 profs in common
BIO-507
	current profs
	course not in this year's moodle so checking archive...
	Not in archive. Treat as new course.
	Exists this year but has no profs. Checking archive...
	Not in archive. Treat as new course.
BIO-505
	current profs 126096
	past profs
	Exists this year but has no profs. Checking archive...
	Not in archive. Treat as new course.
BIO-504
	current profs 126096
	past profs
	Exists this year but has no profs. Checking archive...
	Not in archive. Treat as new course.
PHYS-101(d)
	current profs 105941
	past profs 105941
	with 105941 profs in common
AR-261
	current profs 100876
	past profs 100876
	with 100876 profs in common
EE-429
	current profs 112194, 194090
	past profs 112194, 194090
	with 112194, 194090 profs in common
EE-428
	current profs 112194, 167171
	past profs 112194, 167171
	with 112194, 167171 profs in common
MICRO-332
	current profs 110149, 145781, 113762
	past profs 110149, 145781, 113762
	with 110149, 145781, 113762 profs in common
BIO-468
	current profs 113607, 110606
	past profs 182443, 217758
	BIO-468 has different profs this year.
BIO-469
	current profs 106911, 182445
	past profs 106911, 182445
	with 106911, 182445 profs in common
BIO-464
	current profs 168676
	course not in this year's moodle so checking archive...
	Not in archive. Treat as new course.
	Exists this year but has no profs. Checking archive...
	Not in archive. Treat as new course.
EE-420
	current profs 122433
	past profs 122433
	with 122433 profs in common
ChE-402
	current profs 103246
	past profs 103246
	with 103246 profs in common
BIO-467
	current profs 254787, 190693, 231181
	past profs 254787, 190693, 231181, 160091, 141360
	with 254787, 190693, 231181 profs in common
EE-425
	current profs 107331
	past profs 107331
	with 107331 profs in common
BIO-463
	current profs 182519
	past profs 182519
	with 182519 profs in common
MATH-441
	current profs
	past profs 193356, 105911
	has no current profs but had 193356, 105911 previously
MATH-111(c)
	current profs 121157
	past profs 121157
	with 121157 profs in common
MATH-442
	current profs 180565
	past profs 180565
	with 180565 profs in common
MATH-447
	current profs
	past profs 111184
	has no current profs but had 111184 previously
HUM-309
	current profs 126096
	past profs
	Exists this year but has no profs. Checking archive...
	Not in archive. Treat as new course.
MATH-449
	current profs 105911
	past profs 105911
	with 105911 profs in common
MATH-203(a)
	current profs 106096
	past profs 104781
	MATH-203(a) has different profs this year.
CIVIL-598
	current profs 126096
	past profs
	Exists this year but has no profs. Checking archive...
	Not in archive. Treat as new course.
CS-411
	current profs 155704, 157873
	past profs 155704, 157873
	with 155704, 157873 profs in common
MSE-479
	current profs 105410
	past profs 105410
	with 105410 profs in common
MSE-490(a)
	current profs 126096
	past profs
	Exists this year but has no profs. Checking archive...
	Not in archive. Treat as new course.
MATH-101(en)
	current profs 232231
	past profs 224282
	MATH-101(en) has different profs this year.
BIOENG-489
	current profs 126096
	past profs 208625
	BIOENG-489 has different profs this year.
PENS-491
	current profs 103938, 126096
	course not in this year's moodle so checking archive...
	Not in archive. Treat as new course.
	Exists this year but has no profs. Checking archive...
	Not in archive. Treat as new course.
MSE-470
	current profs 235586, 231890
	past profs 235586, 231890
	with 235586, 231890 profs in common
MSE-471
	current profs 108578
	past profs 108578
	with 108578 profs in common
MSE-472
	current profs 149278
	past profs 149278
	with 149278 profs in common
AR-425
	current profs 126097
	past profs 126097
	with 126097 profs in common
MGT-402
	current profs 141161
	past profs 141161
	with 141161 profs in common
AR-421
	current profs 105747
	past profs 105747
	with 105747 profs in common
EE-555
	current profs 102553
	past profs 102553
	with 102553 profs in common
EE-554
	current profs 117014
	past profs 117014
	with 117014 profs in common
EE-556
	current profs 199128
	past profs 199128
	with 199128 profs in common
COM-414
	current profs 129099
	past profs 129099
	with 129099 profs in common
COM-415
	current profs 229818, 171595, 144820
	past profs 229818, 171595, 144820
	with 229818, 171595, 144820 profs in common
COM-416
	current profs 126096
	past profs
	Exists this year but has no profs. Checking archive...
	Not in archive. Treat as new course.
BIO-212
	current profs 183105
	course not in this year's moodle so checking archive...
	Not in archive. Treat as new course.
	Exists this year but has no profs. Checking archive...
	Not in archive. Treat as new course.
BIO-599
	current profs 126096
	past profs
	Exists this year but has no profs. Checking archive...
	Not in archive. Treat as new course.
CIVIL-225
	current profs 178549
	past profs 178549
	with 178549 profs in common
EE-100(B)
	current profs 106775, 105228, 106071
	past profs 105228, 106071
	with 105228, 106071 profs in common
CS-110(b)
	current profs 155705, 105326, 152655
	past profs 155705, 131639, 105326
	with 155705, 105326 profs in common
MATH-233
	current profs 161312
	past profs 161312
	with 161312 profs in common
MATH-230
	current profs 104859
	past profs 104859
	with 104859 profs in common
MATH-231
	current profs 151741
	past profs 166221, 154487
	MATH-231 has different profs this year.
ENV-540
	current profs 166738
	past profs
	Exists this year but has no profs. Checking archive...
PREPA-023
	current profs 145266
	past profs 145266
	with 145266 profs in common
PREPA-021
	current profs 107148, 157882, 104677
	past profs 107148, 157882, 104677
	with 107148, 157882, 104677 profs in common
PREPA-024
	current profs 105209
	past profs 105209
	with 105209 profs in common
ENV-547
	current profs 103773
	past profs 103773
	with 103773 profs in common
ENV-548
	current profs 126005
	past profs
	Exists this year but has no profs. Checking archive...
ME-462
	current profs 123870
	past profs 123870
	with 123870 profs in common
EE-599(c)
	current profs 126096
	past profs
	Exists this year but has no profs. Checking archive...
	Not in archive. Treat as new course.
CH-462
	current profs 122830
	past profs 122830, 223637
	with 122830 profs in common
MSE-270
	current profs 101178, 156608, 138857
	past profs 101178, 156608, 138857
	with 101178, 156608, 138857 profs in common
CH-309(a)
	current profs 150841
	past profs 150841
	with 150841 profs in common
EE-334
	current profs 104020, 194090
	past profs 104020, 194090
	with 104020, 194090 profs in common
BIOENG-486
	current profs 218366, 220184
	past profs 218366, 220184
	with 218366, 220184 profs in common
HUM-428(a)
	current profs 141723
	past profs 141723
	with 141723 profs in common
EE-584
	current profs 171149
	past profs 171149
	with 171149 profs in common
PHYS-332
	current profs 161849
	past profs 161849
	with 161849 profs in common
EE-490(f)
	current profs 120906
	past profs 120906
	with 120906 profs in common
PHYS-204
	current profs 136611
	past profs 136611
	with 136611 profs in common
COM-309
	current profs 107423
	past profs 107423
	with 107423 profs in common
PHYS-203
	current profs 106653
			PHYS-203 with course:PHYS-203$PHYS-210
	with 106653 profs in common
COM-502
	current profs 103925
	course not in this year's moodle so checking archive...
	Exists this year but has no profs. Checking archive...
COM-307
	current profs 126096
	past profs
	Exists this year but has no profs. Checking archive...
	Not in archive. Treat as new course.
COM-300
	current profs 103925
	past profs 103925
	with 103925 profs in common
BIOENG-517
	current profs 170330, 169261
	past profs 170330, 169261
	with 170330, 169261 profs in common
CIVIL-331
	current profs 102832
	past profs 102832
	with 102832 profs in common
CH-243
	current profs 105258
	past profs 105258
	with 105258 profs in common
HUM-366
	current profs 181931
	past profs 181931
	with 181931 profs in common
HUM-440(a)
	current profs 251747, 229444, 181931
	past profs
	Exists this year but has no profs. Checking archive...
	Not in archive. Treat as new course.
MGT-481
	current profs 240660
	past profs 240660
	with 240660 profs in common
MGT-482
	current profs 185422
	past profs 185422
	with 185422 profs in common
CS-451
	current profs 105326
	past profs 105326
	with 105326 profs in common
MGT-484
	current profs 239987
	past profs 239987
	with 239987 profs in common
MGT-400
	current profs 185026
	past profs 185026
	with 185026 profs in common
ENV-167
	current profs 169209, 121849, 171550
	past profs 169370, 121849, 169209
	with 121849, 169209 profs in common
MATH-498
	current profs 126096
	past profs
	Exists this year but has no profs. Checking archive...
	Not in archive. Treat as new course.
MGT-427
	current profs 106738
	past profs 106738
	with 106738 profs in common
MATH-101(d)
	current profs 166061
	past profs 166061
	with 166061 profs in common
ENG-470
	current profs 112780, 105924, 112841
	past profs 105924, 112841
	with 105924, 112841 profs in common
MATH-300
	current profs 105837
	past profs 105837
	with 105837 profs in common
MSE-204
	current profs 196998
	past profs 196998
	with 196998 profs in common
MSE-203
	current profs 101178
	past profs 101178
	with 101178 profs in common
ENG-474
	current profs 263709, 144043, 110786
	past profs 144043
	with 144043 profs in common
EE-382
	current profs 101913, 223603
	past profs 101913, 223603
	with 101913, 223603 profs in common
HUM-483
	current profs 206054, 196358
	past profs 206054, 196358, 181931
	with 206054, 196358 profs in common
HUM-221(a)
	current profs 167290
	past profs
	Exists this year but has no profs. Checking archive...
	Not in archive. Treat as new course.
AR-123
	current profs 169225
	past profs 169225
	with 169225 profs in common
AR-121
	current profs 105747
			AR-121 with course:AR-121$AR-122
	with 105747 profs in common
CH-263
	current profs 166619
	past profs 166619
	with 166619 profs in common
CIVIL-458
	current profs 243083, 261546, 106166
	past profs 106166
	with 106166 profs in common
HUM-318
	current profs 229643
	past profs idm-194341@unil.ch
	HUM-318 has different profs this year.
CIVIL-451
	current profs 247086
	past profs 106595
	CIVIL-451 has different profs this year.
CIVIL-452
	current profs 101265
	past profs 101265
	with 101265 profs in common
HUM-311
	current profs 207179
	past profs 181990
	HUM-311 has different profs this year.
CIVIL-454
	current profs 115027, 253778
	past profs 115027, 105012
	with 115027 profs in common
HUM-317
	current profs 166176
	past profs
	Exists this year but has no profs. Checking archive...
	Not in archive. Treat as new course.
HUM-314
	current profs 220239, 245404
	past profs
	Exists this year but has no profs. Checking archive...
	Not in archive. Treat as new course.
CIVIL-457
	current profs 196675
	past profs 196675
	with 196675 profs in common
EE-580
	current profs 184749
	past profs 184749
	with 184749 profs in common
CIVIL-523
	current profs
	past profs 178549, 182721
	has no current profs but had 178549, 182721 previously
EE-586
	current profs 176803
	past profs 176803
	with 176803 profs in common
CIVIL-525
	current profs 166236
	past profs 166236
	with 166236 profs in common
CIVIL-526
	current profs 113159
	past profs 113159
	with 113159 profs in common
CIVIL-527
	current profs 178549
	past profs 178549
	with 178549 profs in common
EE-491(c)
	current profs 126096
	past profs
	Exists this year but has no profs. Checking archive...
	Not in archive. Treat as new course.
EE-589
	current profs 126096
	past profs
	Exists this year but has no profs. Checking archive...
	Not in archive. Treat as new course.
HUM-233
	current profs 167294
	past profs 167294
	with 167294 profs in common
MSE-477
	current profs 105410
	past profs 105410
	with 105410 profs in common
UNIL-119
	current profs 148581
	past profs 148581
	with 148581 profs in common
UNIL-118
	current profs 144957
	past profs 144957
	with 144957 profs in common
HUM-498(a)
	current profs 181931
	course not in this year's moodle so checking archive...
	Not in archive. Treat as new course.
	Exists this year but has no profs. Checking archive...
	Not in archive. Treat as new course.
AR-201(k)
	current profs 235585
	past profs 235585
	with 235585 profs in common
BIO-109(a)
	current profs 212964
	past profs 212964
	with 212964 profs in common
UNIL-114
	current profs 149640
	past profs 149640
	with 149640 profs in common
CH-163
	current profs
	past profs 148588
	has no current profs but had 148588 previously
MATH-409
	current profs 201226
	course not in this year's moodle so checking archive...
	Not in archive. Treat as new course.
	Exists this year but has no profs. Checking archive...
	Not in archive. Treat as new course.
MATH-408
	current profs 111184
	course not in this year's moodle so checking archive...
	Not in archive. Treat as new course.
	Exists this year but has no profs. Checking archive...
	Not in archive. Treat as new course.
MGT-433
	current profs 265221
	course not in this year's moodle so checking archive...
	Not in archive. Treat as new course.
	Exists this year but has no profs. Checking archive...
	Not in archive. Treat as new course.
MATH-407
	current profs 235589
	past profs 235589
	with 235589 profs in common
MGT-439
	current profs 242706, 162370
	past profs 242706, 162370
	with 242706, 162370 profs in common
MATH-400
	current profs 145266
	past profs 145266
	with 145266 profs in common
MATH-101(de)
	current profs 106409
	past profs 251896, 213191
	MATH-101(de) has different profs this year.
PHYS-101(de)
	current profs 161735
	past profs 161735
	with 161735 profs in common
UNIL-303
	current profs 150841
	past profs 150841
	with 150841 profs in common
PHYS-101(i)
	current profs 137850
	past profs 108328, 105753
	PHYS-101(i) has different profs this year.
PHYS-458
	current profs 136611, 109056
			PHYS-458 with course:PHYS-458$PHYS-459
	with 136611, 109056 profs in common
MATH-397
	current profs 126096
	past profs
	Exists this year but has no profs. Checking archive...
	Not in archive. Treat as new course.
CIVIL-237
	current profs 104646
	past profs 104646
	with 104646 profs in common
MATH-111(g)
	current profs 149640
	past profs 178502
	MATH-111(g) has different profs this year.
HUM-216
	current profs 192425
	past profs
	Exists this year but has no profs. Checking archive...
	Not in archive. Treat as new course.
HUM-215
	current profs 188747, 198529
	past profs
	Exists this year but has no profs. Checking archive...
	Not in archive. Treat as new course.
AR-401(b)
	current profs 147009
	past profs 147009
	with 147009 profs in common
AR-465
	current profs 106052, 104576, 136121
	past profs 106052, 104576, 136121
	with 106052, 104576, 136121 profs in common
HUM-439(a)
	current profs 263196, 263730
	past profs
	Exists this year but has no profs. Checking archive...
	Not in archive. Treat as new course.
COM-507
	current profs 126096
	past profs
	Exists this year but has no profs. Checking archive...
	Not in archive. Treat as new course.
BIOENG-445
	current profs 106697
	past profs 106697
	with 106697 profs in common
HUM-218
	current profs 166176
	past profs
	Exists this year but has no profs. Checking archive...
	Not in archive. Treat as new course.
PHYS-101(g)
	current profs 105173
	past profs 105173
	with 105173 profs in common
AR-231
	current profs 108031
			AR-231 with course:AR-231$AR-232
	with 108031 profs in common
MSE-210
	current profs 182447
	past profs 182447
	with 182447 profs in common
EE-295
	current profs 190693, 122433
	past profs 190693, 122433
	with 190693, 122433 profs in common
MATH-101(c)
	current profs 106409
	past profs
	Exists this year but has no profs. Checking archive...
AR-239
	current profs 121845, 101009
	past profs 121845, 101009
	with 121845, 101009 profs in common
MATH-310
	current profs 100776
	past profs 100776
	with 100776 profs in common
EE-519
	current profs 108571
	past profs
	Exists this year but has no profs. Checking archive...
	Not in archive. Treat as new course.
BIO-494
	current profs 185233, 177247
	past profs 185233, 177247
	with 177247, 185233 profs in common
BIO-496
	current profs 126096
	past profs
	Exists this year but has no profs. Checking archive...
	Not in archive. Treat as new course.
EE-456
	current profs 104417
	past profs 104417
	with 104417 profs in common
EE-532
	current profs 106334
	past profs 106334
	with 106334 profs in common
MICRO-301
	current profs 109297
	course not in this year's moodle so checking archive...
	Not in archive. Treat as new course.
	Exists this year but has no profs. Checking archive...
	Not in archive. Treat as new course.
COM-514
	current profs 240759, 107537, 171595, 177240
	past profs 177240, 107537, 171595, 240759
	with 177240, 107537, 171595, 240759 profs in common
EE-513
	current profs 104991
	past profs 104991
	with 104991 profs in common
ME-466
	current profs 189938
	past profs 212033, 189938
	with 189938 profs in common
EE-515
	current profs 190693
	past profs 190693
	with 190693 profs in common
COM-510
	current profs 124369
	past profs 122796
	COM-510 has different profs this year.
ME-463
	current profs 245903
	past profs 245903
	with 245903 profs in common
CH-492
	current profs 105958, 123171
	past profs 105958, 123171
	with 105958, 123171 profs in common
MGT-500
	current profs 106272
	past profs 106272
	with 106272 profs in common
HUM-410(a)
	current profs 171337, 196400, 218733, 218335, 218730
	past profs 218335
	with 218335 profs in common
EE-537
	current profs 106334
	past profs 106334
	with 106334 profs in common
MATH-472
	current profs 239570, 213191, 118353
	past profs 239570, 213191, 118353
	with 239570, 118353, 213191 profs in common
MATH-474
	current profs 151741
	course not in this year's moodle so checking archive...
	Not in archive. Treat as new course.
	Exists this year but has no profs. Checking archive...
	Not in archive. Treat as new course.
ME-442
	current profs 107971
	past profs 107971
	with 107971 profs in common
MSE-443(a)
	current profs 240979
	past profs 240979
	with 240979 profs in common
ENV-342
	current profs 251276, 105275
	past profs 251276, 105275
	with 251276, 105275 profs in common
EE-517
	current profs 182237
	past profs 182237
	with 182237 profs in common
ENV-340
	current profs 115027
	past profs 115027
	with 115027 profs in common
ENV-221
	current profs 182281
	past profs 182281
	with 182281 profs in common
CH-311
	current profs 224007
	past profs 224007
	with 224007 profs in common
ENV-222
	current profs 105325, 169209
	past profs 105325, 169209
	with 105325, 169209 profs in common
ChE-460
	current profs 126096
	past profs
	Exists this year but has no profs. Checking archive...
	Not in archive. Treat as new course.
MSE-403
	current profs 186314
	past profs 186314
	with 186314 profs in common
MATH-110(b)
	current profs 106581
	past profs 106581
	with 106581 profs in common
AR-427
	current profs 113297
	past profs 113297
	with 113297 profs in common
CS-116
	current profs 182519, 212484
	past profs 182519, 212484
	with 182519, 212484 profs in common
EE-204
	current profs 106170
	past profs 106170
	with 106170 profs in common
EE-206
	current profs 133331
	past profs 133331
	with 133331 profs in common
CS-446
	current profs 196500
	past profs 196500
	with 196500 profs in common
EE-200
	current profs 105917
	past profs 105917, 114730
	with 105917 profs in common
EE-202
	current profs 105540, 104364, 122433
	past profs 104979, 105540, 122433
	with 105540, 122433 profs in common
ME-212
	current profs 104571
	past profs 104571
	with 104571 profs in common
ME-599
	current profs 126096
	past profs
	Exists this year but has no profs. Checking archive...
	Not in archive. Treat as new course.
CS-595
	current profs 126096
	past profs
	Exists this year but has no profs. Checking archive...
	Not in archive. Treat as new course.
CS-596
	current profs 126096
	past profs
	Exists this year but has no profs. Checking archive...
	Not in archive. Treat as new course.
CS-599
	current profs 126096
	past profs
	Exists this year but has no profs. Checking archive...
	Not in archive. Treat as new course.
HUM-242
	current profs 126039
	past profs 251223
	HUM-242 has different profs this year.
ME-597
	current profs 190049, 162030
	past profs 190049, 162030
	with 190049, 162030 profs in common
MICRO-432
	current profs 152066
	past profs 152066
	with 152066 profs in common
MICRO-431
	current profs 113381, 113762
	past profs 113381, 113762
	with 113381, 113762 profs in common
HUM-354
	current profs 260640
	past profs 260640
	with 260640 profs in common
ChE-451
	current profs 169257
			ChE-451 with course:ChE-451$ChE-452
	with 169257 profs in common
ENG-433
	current profs 248045
	course not in this year's moodle so checking archive...
	Not in archive. Treat as new course.
	Exists this year but has no profs. Checking archive...
	Not in archive. Treat as new course.
ChE-301
	current profs 178220
	past profs 178220
	with 178220 profs in common
ChE-303
	current profs 105553
	past profs 105553
	with 105553 profs in common
AR-301(b)
	current profs 161950
	past profs 161950
	with 161950 profs in common
EE-348
	current profs 157878
	past profs 157878
	with 157878 profs in common
EE-331
	current profs 105540, 104903
	past profs 105540, 104903
	with 105540, 104903 profs in common
MSE-326
	current profs 104626, 105410
	past profs 104626, 105410
	with 104626, 105410 profs in common
CH-438
	current profs 206332
	past profs 206332
	with 206332 profs in common
CH-343
	current profs 121774
	past profs 121774
	with 121774 profs in common
CH-341
	current profs 106283
	past profs 106283
	with 106283 profs in common
ENG-383
	current profs 112780, 111310
			ENG-383 with course:ENG-383$ENG-484
	ENG-383 has different profs this year.
EE-345
	current profs 106441, 105917
	past profs 106441, 105917
	with 106441, 105917 profs in common
CH-432
	current profs 206338
	past profs 206338
	with 206338 profs in common
PHYS-335
	current profs 107373, 106368
	past profs 107373, 106368
	with 107373, 106368 profs in common
PHYS-201(e)
	current profs 176429
	past profs 188499
	PHYS-201(e) has different profs this year.
BIO-376
	current profs 178546, 169973
	past profs 178546, 169973
	with 178546, 169973 profs in common
CIVIL-410
	current profs 112543, 112841
	past profs 112543, 112841
	with 112543, 112841 profs in common
CIVIL-411
	current profs 112841
	past profs 112841
	with 112841 profs in common
BIO-372
	current profs 177246
	past profs 177246
	with 177246 profs in common
BIO-373
	current profs 170716, 182376
	past profs 170716, 182376
	with 170716, 182376 profs in common
MICRO-486
	current profs 126096
	past profs
	Exists this year but has no profs. Checking archive...
	Not in archive. Treat as new course.
EE-492(c)
	current profs 156731, 101913
	past profs 156731, 101913
	with 156731, 101913 profs in common
ME-321
	current profs 106335, 207237
	past profs 106335, 207237
	with 106335, 207237 profs in common
BIO-378
	current profs 103075
	past profs 103075
	with 103075 profs in common
EE-434
	current profs 104020
	past profs
	Exists this year but has no profs. Checking archive...
ENG-267
	current profs 105831
	course not in this year's moodle so checking archive...
	Not in archive. Treat as new course.
	Exists this year but has no profs. Checking archive...
	Not in archive. Treat as new course.
AR-489
	current profs 168009
	past profs 168009
	with 168009 profs in common
ENV-405
	current profs 210253, 121849
	past profs 210253, 121849
	with 210253, 121849 profs in common
ENV-406
	current profs 220185
	past profs 220185
	with 220185 profs in common
MICRO-321
	current profs 159310
	past profs 159310
	with 159310 profs in common
ENV-402
	current profs 259234
	past profs 259234
	with 259234 profs in common
MICRO-501
	current profs 126096
	course not in this year's moodle so checking archive...
	Not in archive. Treat as new course.
	Exists this year but has no profs. Checking archive...
	Not in archive. Treat as new course.
CH-233
	current profs 206332
	past profs 206332
	with 206332 profs in common
AR-111
	current profs 180534, 106453
	past profs 180534, 106453
	with 180534, 106453 profs in common
HUM-203(a)
	current profs 196397
	past profs
	Exists this year but has no profs. Checking archive...
	Not in archive. Treat as new course.
MATH-350
	current profs 118377
	past profs 118377
	with 118377 profs in common
EE-477
	current profs 105245
	past profs 105245
	with 105245 profs in common
HUM-427(a)
	current profs 251219, 167289
	past profs 167289
	with 167289 profs in common
BIO-105
	current profs 150333
	past profs 150333
	with 150333 profs in common
HUM-320
	current profs 196779
	past profs 196779
	with 196779 profs in common
BIO-103
	current profs 170716, 185233, 172749, 162095
	past profs 170716, 185233, 172749, 162095
	with 170716, 172749, 185233, 162095 profs in common
PHYS-421
	current profs 126096
	past profs
	Exists this year but has no profs. Checking archive...
	Not in archive. Treat as new course.
PHYS-423
	current profs 176621
	past profs 176621
	with 176621 profs in common
PHYS-422
	current profs 126096
	past profs
	Exists this year but has no profs. Checking archive...
	Not in archive. Treat as new course.
PHYS-425
	current profs 126010
	past profs 126010
	with 126010 profs in common
PHYS-427
	current profs 126010
	past profs 126010, 234371, 217895
	with 126010 profs in common
CIVIL-412
	current profs 129345, 112841
	past profs 202221, 112841
	with 112841 profs in common
ME-231(b)
	current profs 199129
	past profs 199129
	with 199129 profs in common
CS-305
	current profs 172241
	past profs 240726
	CS-305 has different profs this year.
CS-307
	current profs 229313, 268184
	past profs 177958
	CS-307 has different profs this year.
HUM-256
	current profs 185819
	past profs
	Exists this year but has no profs. Checking archive...
ME-421
	current profs 139973
	past profs 139973
	with 139973 profs in common
ME-435
	current profs 123870
	past profs
	Exists this year but has no profs. Checking archive...
	ME-435 has different profs this year.
PHYS-101(c)
	current profs 162579
	past profs 162579
	with 162579 profs in common
BIO-109(e)
	current profs 162095
	past profs 162095
	with 162095 profs in common
BIO-450
	current profs 169115
	past profs 169115
	with 169115 profs in common
HUM-417(a)
	current profs 158392
	past profs 158392
	with 158392 profs in common
BIO-455
	current profs 181991, 174227
	past profs 181991, 174227
	with 181991, 174227 profs in common
MSE-340
	current profs 104610, 105745
	past profs 104610, 105745
	with 104610, 105745 profs in common
MATH-434
	current profs 161312
	past profs 161312
	with 161312 profs in common
MATH-124
	current profs 184705
	past profs 184705
	with 184705 profs in common
MSE-437
	current profs 156848
	past profs 156848
	with 156848 profs in common
MATH-431
	current profs 104859
	past profs 104859
	with 104859 profs in common
MATH-432
	current profs 138859
	past profs 138859
	with 138859 profs in common
MGT-469
	current profs 167287
	past profs 167287
	with 167287 profs in common
MGT-466
	current profs 258630, 167287
	past profs 167287
	with 167287 profs in common
HUM-312(a)
	current profs 141092
	past profs
	Exists this year but has no profs. Checking archive...
	Not in archive. Treat as new course.
FIN-614
	current profs 263846, 264782
	past profs 192824, G23332, G23333, 263846, 264782
	with 263846, 264782 profs in common
ME-325
	current profs 106335, 139973
	past profs 106335, 139973
	with 106335, 139973 profs in common
MATH-438
	current profs 272945
	course not in this year's moodle so checking archive...
	Not in archive. Treat as new course.
	Exists this year but has no profs. Checking archive...
	Not in archive. Treat as new course.
HUM-268
	current profs 243436
	course not in this year's moodle so checking archive...
	Not in archive. Treat as new course.
	Exists this year but has no profs. Checking archive...
	Not in archive. Treat as new course.
CS-401
	current profs 194540
	course not in this year's moodle so checking archive...
	Not in archive. Treat as new course.
	Exists this year but has no profs. Checking archive...
	Not in archive. Treat as new course.
MSE-441
	current profs 105869, 107971, 248791
	past profs 105869, 107971, 248791
	with 105869, 107971, 248791 profs in common
MSE-440
	current profs 104610, 113157
	past profs 104610, 113157
	with 104610, 113157 profs in common
MATH-498(c)
	current profs 126096
	past profs
	Exists this year but has no profs. Checking archive...
	Not in archive. Treat as new course.
ENV-300
	current profs 104872, 169977, 270113
	past profs 104872, 169977
	with 104872, 169977 profs in common
ENV-301
	current profs 121849, 169209
	past profs 121849, 169209
	with 121849, 169209 profs in common
ENV-304
	current profs 144043, 147641, 136235, 246320
	past profs 144043, 147641
	with 144043, 147641 profs in common
ME-251
	current profs 207354
	past profs 207354
	with 207354 profs in common
AR-439
	current profs 104348, 187807, 113297, 104646, 169929
	past profs 169929, 113297, 104646, 104348
	with 104348, 113297, 104646, 169929 profs in common
PHYS-300(a)
	current profs 113541, 188482, 118780
	past profs 220473, 113541, 188482
	with 113541, 188482 profs in common
CH-452
	current profs 251670
	past profs 251670
	with 251670 profs in common
AR-434
	current profs 171093, 161950
	past profs 171093, 161950
	with 171093, 161950 profs in common
CS-398
	current profs 126096
	past profs
	Exists this year but has no profs. Checking archive...
	Not in archive. Treat as new course.
AR-432
	current profs 167595, 180954, 170197, 105747
	past profs 103277, 100230, 105747
	with 105747 profs in common
MATH-101(g)
	current profs 149640
	course not in this year's moodle so checking archive...
	Exists this year but has no profs. Checking archive...
BIO-205
	current profs 168579, 235263
	past profs 168676, 168579
	with 168579 profs in common
ME-551
	current profs 107971
	past profs 111369, 107971
	with 107971 profs in common
BIO-201
	current profs 110199
	past profs 110199
	with 110199 profs in common
BIO-203
	current profs 181957, 168670
	past profs 181957, 168670
	with 181957, 168670 profs in common
MATH-220
	current profs 199126
	past profs 120861
	MATH-220 has different profs this year.
CS-498
	current profs 126096
	past profs
	Exists this year but has no profs. Checking archive...
	Not in archive. Treat as new course.
CS-110(a)
	current profs 193870, 107931
	past profs 193870, 107931
	with 193870, 107931 profs in common
PHYS-200
	current profs 105530
			PHYS-200 with course:PHYS-200$PHYS-206
	with 105530 profs in common
PREPA-017
	current profs 107148, 107044
	past profs 107148, 107044
	with 107148, 107044 profs in common
PREPA-015
	current profs 157882
	past profs 157882
	with 157882 profs in common
PREPA-013
	current profs 106559, 100527, 100435
	past profs 106559, 100435, 100527
	with 106559, 100435, 100527 profs in common
ENV-270
	current profs 104589
	past profs 104589
	with 104589 profs in common
MATH-184
	current profs 121777
	past profs 121777
	with 121777 profs in common
PREPA-019
	current profs 145266
	past profs 145266
	with 145266 profs in common
AR-401(c)
	current profs 236660
	past profs 236660
	with 236660 profs in common
CS-473
	current profs 100366
	past profs 100366
	with 100366 profs in common
CS-471
	current profs
	past profs 177958
	has no current profs but had 177958 previously
ENV-370
	current profs 129626
	past profs 129626
	with 129626 profs in common
AR-480
	current profs 101855
	course not in this year's moodle so checking archive...
	Not in archive. Treat as new course.
	Exists this year but has no profs. Checking archive...
	Not in archive. Treat as new course.
AR-483
	current profs 265224
	course not in this year's moodle so checking archive...
	Not in archive. Treat as new course.
	Exists this year but has no profs. Checking archive...
	Not in archive. Treat as new course.
AR-484
	current profs 270082
	course not in this year's moodle so checking archive...
	Not in archive. Treat as new course.
	Exists this year but has no profs. Checking archive...
	Not in archive. Treat as new course.
MSE-360
	current profs 105745, 106123
	past profs 105745, 106123
	with 105745, 106123 profs in common
FIN-503
	current profs 192823
	past profs 192823
	with 192823 profs in common
ChE-413
	current profs 126096
	course not in this year's moodle so checking archive...
	Not in archive. Treat as new course.
	Exists this year but has no profs. Checking archive...
	Not in archive. Treat as new course.
FIN-504
	current profs 263346
	past profs 263346
	with 263346 profs in common
EE-490(g)
	current profs 176649
	past profs 176649
	with 176649 profs in common
HUM-415(a)
	current profs 166241
	past profs 166241
	with 166241 profs in common
HUM-248(a)
	current profs 196783
	past profs 264029, 164283207188@unil.ch
	HUM-248(a) has different profs this year.
PHYS-201(a)
	current profs 125942
	past profs 125942
	with 125942 profs in common
PHYS-411
	current profs 160566
	past profs 160566
	with 160566 profs in common
MGT-429
	current profs 124002
	past profs 124002
	with 124002 profs in common
MATH-111(en)
	current profs 183120
	past profs
	Exists this year but has no profs. Checking archive...
	Not in archive. Treat as new course.
PHYS-415
	current profs 122784
	past profs 122784
	with 122784 profs in common
MICRO-310(b)
	current profs 120906
	past profs 120906
	with 120906 profs in common
PHYS-419
	current profs 159141
	past profs 159141
	with 159141 profs in common
HUM-370
	current profs 216550, 109846, 260630, 209405, 228955
	past profs 109846, 216550
	with 109846, 216550 profs in common
HUM-404(a)
	current profs 126039
	past profs 218374
	HUM-404(a) has different profs this year.
HUM-416(a)
	current profs 167301, 181989
	past profs
	Exists this year but has no profs. Checking archive...
	Not in archive. Treat as new course.
AR-201(c)
	current profs 247708, 248025
	past profs 247708, 248025
	with 247708, 248025 profs in common
MATH-483
	current profs 183376
	past profs 183376
	with 183376 profs in common
MSE-462
	current profs 104626, 105410, 154807
	past profs 104626, 105410
	with 104626, 105410 profs in common
CS-111(a)
	current profs 148204
	past profs 148204
	with 148204 profs in common
HUM-414(a)
	current profs 126096
	past profs
	Exists this year but has no profs. Checking archive...
	Not in archive. Treat as new course.
MATH-317
	current profs
	past profs 178545
	has no current profs but had 178545 previously
MATH-311
	current profs 270833
	past profs 224282
	MATH-311 has different profs this year.
MSE-211
	current profs 149479, 190315
	past profs 149479, 190315
	with 149479, 190315 profs in common
ENG-466
	current profs
	past profs 105782
	has no current profs but had 105782 previously
MSE-310
	current profs 243441
	past profs 243441
	with 243441 profs in common
EE-399
	current profs 126096
	past profs
	Exists this year but has no profs. Checking archive...
	Not in archive. Treat as new course.
AR-151
	current profs 105248
	past profs 105248
	with 105248 profs in common
MATH-318
	current profs
	past profs 183376
	has no current profs but had 183376 previously
CIVIL-429
	current profs 258069
	past profs 258069
	with 258069 profs in common
PHYS-309
	current profs 192951, 162305
	past profs 192951, 162305
	with 192951, 162305 profs in common
ME-372
	current profs 105270
	past profs 105270
	with 105270 profs in common
MSE-100(b)
	current profs 113157
			MSE-100(b) with course:MSE-100(a)$MSE-100(b)
	with 113157 profs in common
PHYS-307
	current profs 109056
	past profs 109056
	with 109056 profs in common
CIVIL-420
	current profs 136291
	past profs 136291
	with 136291 profs in common
PHYS-302
	current profs 129621
	past profs 129621
	with 129621 profs in common
EE-490(e)
	current profs 106441
	past profs 229856, 106441
	with 106441 profs in common
MATH-111(d)
	current profs 144617
	past profs 144617
	with 144617 profs in common
EE-597
	current profs 101565, 190049
	past profs 101565, 190049
	with 101565, 190049 profs in common
HUM-422(a)
	current profs 229439, 196782
	past profs 135098201078@unil.ch, 110862202188@unil.ch
	HUM-422(a) has different profs this year.
EE-599
	current profs 126096
	past profs
	Exists this year but has no profs. Checking archive...
	Not in archive. Treat as new course.
EE-598
	current profs 126096
	past profs
	Exists this year but has no profs. Checking archive...
	Not in archive. Treat as new course.
EE-491(b)
	current profs 126096
	past profs
	Exists this year but has no profs. Checking archive...
	Not in archive. Treat as new course.
COM-401
	current profs 131602
	past profs 131602
	with 131602 profs in common
AR-401(x)
	current profs 269946, 269947
	course not in this year's moodle so checking archive...
	Not in archive. Treat as new course.
	Exists this year but has no profs. Checking archive...
	Not in archive. Treat as new course.
COM-407
	current profs 105633
	past profs 105633
	with 105633 profs in common
COM-208
	current profs 176638
	past profs 257875, 184891, 176638
	with 176638 profs in common
HUM-201
	current profs 196780
	past profs
	Exists this year but has no profs. Checking archive...
UNIL-120
	current profs 105148
	past profs 105148
	with 105148 profs in common
ENV-597
	current profs 126096
	past profs
	Exists this year but has no profs. Checking archive...
	Not in archive. Treat as new course.
ENV-595
	current profs 126096
	past profs
	Exists this year but has no profs. Checking archive...
	Not in archive. Treat as new course.
PHYS-101(a)
	current profs 112367
	past profs 122830, 112367
	with 112367 profs in common
ENV-593
	current profs 126096
	past profs
	Exists this year but has no profs. Checking archive...
	Not in archive. Treat as new course.
MATH-101(e)
	current profs 167946
	past profs 167946
	with 167946 profs in common
CH-230
	current profs 206332
	past profs 206332
	with 206332 profs in common
ENV-599
	current profs 126096
	past profs
	Exists this year but has no profs. Checking archive...
	Not in archive. Treat as new course.
ENV-598
	current profs 126096
	past profs
	Exists this year but has no profs. Checking archive...
	Not in archive. Treat as new course.
ME-106
	current profs 218963, 240428
	past profs 218963, 240428
	with 218963, 240428 profs in common
ME-101
	current profs 218963, 240428
	past profs 218963, 240428
	with 218963, 240428 profs in common
HEP-450
	current profs 126096
	course not in this year's moodle so checking archive...
	Not in archive. Treat as new course.
	Exists this year but has no profs. Checking archive...
	Not in archive. Treat as new course.
CH-201
	current profs 148588
	past profs 148588
	with 148588 profs in common
PHYS-101(h)
	current profs 161735
	past profs
	Exists this year but has no profs. Checking archive...
	Not in archive. Treat as new course.


no change: 592
new profs: 57
