 Notification email sent to pavel.kejik@epfl.ch about new course MICRO-443
 Notification email sent to frederic.chautems@epfl.ch about new course MICRO-441
 Notification email sent to robert.dalang@epfl.ch about new course MATH-330
 Notification email sent to vassily.hatzimanikatis@epfl.ch about new course ChE-320
 Notification email sent to kersten.geers@epfl.ch about new course AR-522
 Notification email sent to brice.lecampion@epfl.ch about new course CIVIL-533
 Notification email sent to giordano.favi@epfl.ch about new course UNIL-108
 Notification email sent to didier.coquoz@epfl.ch about new course BIO-430
 Notification email sent to anne-sophie.chauvin@epfl.ch about new course UNIL-105
 Notification email sent to jacques.levy@epfl.ch about new course HUM-415(b)
 Notification email sent to nicolas.monod@epfl.ch about new course MATH-416
 Notification email sent to pierre.leboudec@epfl.ch about new course MATH-417
 Notification email sent to guido.haefeli@epfl.ch about new course PHYS-440
 Notification email sent to philipp.schaerer@epfl.ch about new course AR-416
 Notification email sent to georges.abou-jaoude@epfl.ch about new course AR-414
 Notification email sent to ronald.cicurel@epfl.ch about new course AR-414
 Notification email sent to sebastien.lasserre@epfl.ch about new course AR-414
 Notification email sent to georges.abou-jaoude@epfl.ch about new course AR-412
 Notification email sent to eduardo.sanchez@epfl.ch about new course CS-173
 Notification email sent to mirco.magnini@epfl.ch about new course ME-571
 Notification email sent to nicola.braghieri@epfl.ch about new course AR-220
 Notification email sent to hugues.poltier@unil.ch about new course HUM-271
 Notification email sent to michel.bierlaire@epfl.ch about new course MATH-600
 Notification email sent to veronique.mauron@epfl.ch about new course HUM-409(b)
 Notification email sent to andre.ourednik@epfl.ch about new course HUM-409(b)
 Notification email sent to m.schmutz@epfl.ch about new course MATH-470
 Notification email sent to michel.schinz@epfl.ch about new course CS-108
 Notification email sent to eugen.bruehwiler@epfl.ch about new course CIVIL-437
 Notification email sent to jiri.vanicek@epfl.ch about new course CH-453
 Notification email sent to anne-marie.dovi@epfl.ch about new course PREPA-002
 Notification email sent to veronique.tissot@epfl.ch about new course PREPA-002
 Notification email sent to dimitrios.lignos@epfl.ch about new course CIVIL-435
 Notification email sent to andrii.neronov@epfl.ch about new course PHYS-439
 Notification email sent to aurelio.bay@epfl.ch about new course PHYS-439
 Notification email sent to Gianni.Haver@unil.ch about new course HUM-337(a)
 Notification email sent to riccardo.rattazzi@epfl.ch about new course PHYS-432
 Notification email sent to michael.mattle@epfl.ch about new course ENV-509
 Notification email sent to marc.deront@epfl.ch about new course ENV-509
 Notification email sent to harry.gugger@epfl.ch about new course AR-402(b)
 Notification email sent to jiri.vanicek@epfl.ch about new course CH-359
 Notification email sent to clemence.corminboeuf@epfl.ch about new course CH-359
 Notification email sent to ursula.roethlisberger@epfl.ch about new course CH-359
 Notification email sent to marinella.mazzanti@epfl.ch about new course CH-427
 Notification email sent to kay.severin@epfl.ch about new course CH-424
 Notification email sent to dragan.damjanovic@epfl.ch about new course MSE-231
 Notification email sent to igor.stolitchnov@epfl.ch about new course MSE-231
 Notification email sent to pierre.north@epfl.ch about new course PHYS-323
 Notification email sent to iva.tkalcec@epfl.ch about new course PHYS-320
 Notification email sent to arnaud.magrez@epfl.ch about new course PHYS-320
 Notification email sent to daniel.oberli@epfl.ch about new course PHYS-320
 Notification email sent to isabella.pasqualini@epfl.ch about new course PENS-311
 Notification email sent to dominique.perrault@epfl.ch about new course AR-202(k)
 Notification email sent to paul.dyson@epfl.ch about new course CH-229
 Notification email sent to john.botsis@epfl.ch about new course ME-432
 Notification email sent to joel.cugnoni@epfl.ch about new course ME-432
 Notification email sent to philippe.metzener@epfl.ch about new course MATH-207(c)
 Notification email sent to raphael.menard@epfl.ch about new course AR-402(u)
 Notification email sent to philippe.metzener@epfl.ch about new course MATH-207(d)
 Notification email sent to sabine.susstrunk@epfl.ch about new course CS-413
 Notification email sent to william.carter@epfl.ch about new course MSE-443(b)
 Notification email sent to michele.ceriotti@epfl.ch about new course MSE-443(b)
 Notification email sent to frank.nuesch@epfl.ch about new course MSE-478
 Notification email sent to sebastien.vaucher@epfl.ch about new course MSE-474
 Notification email sent to johann.michler@epfl.ch about new course MSE-474
 Notification email sent to stephan.siegmann@epfl.ch about new course MSE-474
 Notification email sent to luca.ortelli@epfl.ch about new course AR-420
 Notification email sent to mariachiara.barone@epfl.ch about new course AR-420
 Notification email sent to georges.meylan@epfl.ch about new course UNIL-002
 Notification email sent to pierino.lestuzzi@epfl.ch about new course CIVIL-224
 Notification email sent to dario.floreano@epfl.ch about new course MICRO-515
 Notification email sent to roger.sauser@epfl.ch about new course PREPA-022
 Notification email sent to guido.burmeister@epfl.ch about new course PREPA-022
 Notification email sent to hans-joerg.ruppen@epfl.ch about new course PREPA-020
 Notification email sent to adrian.ionescu@epfl.ch about new course EE-333
 Notification email sent to lionel.sofia@epfl.ch about new course MSE-271
 Notification email sent to cyril.denereaz@epfl.ch about new course MSE-271
 Notification email sent to patricia.guaita@epfl.ch about new course PENS-308
 Notification email sent to dieter.dietz@epfl.ch about new course PENS-308
 Notification email sent to christian.roecker@epfl.ch about new course PENS-301
 Notification email sent to mariacristina.munariprobst@epfl.ch about new course PENS-301
 Notification email sent to laurent.tacher@epfl.ch about new course PENS-302
 Notification email sent to francois.golay@epfl.ch about new course PENS-302
 Notification email sent to yvan.delemontey@epfl.ch about new course PENS-302
 Notification email sent to lyesse.laloui@epfl.ch about new course PENS-302
 Notification email sent to valentin.simeonov@epfl.ch about new course PENS-302
 Notification email sent to franz.graf@epfl.ch about new course PENS-302
 Notification email sent to jerome.zufferey@epfl.ch about new course PENS-303
 Notification email sent to pierre-yves.gillieron@epfl.ch about new course PENS-303
 Notification email sent to olivier.burdet@epfl.ch about new course PENS-303
 Notification email sent to frederic.courbin@epfl.ch about new course PHYS-209
 Notification email sent to rudiger.urbanke@epfl.ch about new course COM-302
 Notification email sent to joao.falcaodecampos@epfl.ch about new course AR-402(s)
 Notification email sent to frederic.kaplan@epfl.ch about new course HUM-369
 Notification email sent to Brenno.Boccadoro@unige.ch about new course HUM-364
 Notification email sent to roland.loge@epfl.ch about new course MSE-207
 Notification email sent to pierre-etienne.bourban@epfl.ch about new course MSE-205
 Notification email sent to andre.decurnex@epfl.ch about new course EE-380
 Notification email sent to paul.bowen@epfl.ch about new course MSE-209
 Notification email sent to esther.amstad@epfl.ch about new course MSE-209
 Notification email sent to bruno.storni@epfl.ch about new course EE-583
 Notification email sent to giordano.favi@epfl.ch about new course MATH-106(f)
 Notification email sent to francois.patthey@epfl.ch about new course UNIL-111
 Notification email sent to aurelio.bay@epfl.ch about new course UNIL-110
 Notification email sent to joachim.stubbe@epfl.ch about new course MATH-105(b)
 Notification email sent to thomas.weber@epfl.ch about new course MGT-431
 Notification email sent to joachim.krieger@epfl.ch about new course MATH-405
 Notification email sent to boris.buffoni@epfl.ch about new course MATH-404
 Notification email sent to delphine.preissmann@unil.ch about new course HUM-437(b)
 Notification email sent to yann.dahhaoui@unil.ch about new course HUM-436(b)
 Notification email sent to jacques.levy@epfl.ch about new course AR-460
 Notification email sent to eduardo.camacho-huebner@epfl.ch about new course AR-460
 Notification email sent to boris.beaude@epfl.ch about new course AR-461
 Notification email sent to bruno.correia@epfl.ch about new course BIOENG-447
 Notification email sent to oliver.hantschel@epfl.ch about new course BIOENG-447
 Notification email sent to marc-andre.dupertuis@epfl.ch about new course PHYS-454
 Notification email sent to kathryn.hess@epfl.ch about new course MATH-225
 Notification email sent to jean-marie.drezet@epfl.ch about new course MSE-103
 Notification email sent to pierre-etienne.bourban@epfl.ch about new course MSE-103
 Notification email sent to lea.deillon@epfl.ch about new course MSE-103
 Notification email sent to nicolas.macris@epfl.ch about new course COM-516
 Notification email sent to olivier.leveque@epfl.ch about new course COM-516
 Notification email sent to elisa.celis@epfl.ch about new course COM-512
 Notification email sent to patrick.thiran@epfl.ch about new course COM-512
 Notification email sent to tom.battin@epfl.ch about new course ENV-321
 Notification email sent to jean-luc.marendaz@epfl.ch about new course ENG-432
 Notification email sent to marta.rocaescoda@unil.ch about new course HUM-334(a)
 Notification email sent to olivier.burdet@epfl.ch about new course CIVIL-123
 Notification email sent to pascal.turberg@epfl.ch about new course UNIL-301
 Notification email sent to philippe.renaud@epfl.ch about new course MICRO-434
 Notification email sent to carl-erik.hansen@epfl.ch about new course ENG-436
 Notification email sent to shaik.zakeer@epfl.ch about new course CH-426
 Notification email sent to berend.smit@epfl.ch about new course ChE-304
 Notification email sent to jeremy.luterbacher@epfl.ch about new course ChE-304
 Notification email sent to kersten.geers@epfl.ch about new course AR-402(c)
 Notification email sent to karen.scrivener@epfl.ch about new course MSE-322
 Notification email sent to lionel.sofia@epfl.ch about new course MSE-322
 Notification email sent to emmanuelle.boehm@epfl.ch about new course MSE-322
 Notification email sent to clemence.corminboeuf@epfl.ch about new course CH-431
 Notification email sent to andre.pexieder@epfl.ch about new course BIO-379
 Notification email sent to philippe.muellhaupt@epfl.ch about new course ME-324
 Notification email sent to marco.picasso@epfl.ch about new course MATH-351
 Notification email sent to claus.gunti@unil.ch about new course HUM-321
 Notification email sent to feliciedemaupeou@hotmail.fr about new course HUM-438(b)
 Notification email sent to ambrogio.fasoli@epfl.ch about new course PHYS-424
 Notification email sent to duccio.testa@epfl.ch about new course PHYS-424
 Notification email sent to alan.howling@epfl.ch about new course PHYS-424
 Notification email sent to ivo.furno@epfl.ch about new course PHYS-424
 Notification email sent to nicolas.macris@epfl.ch about new course CS-308
 Notification email sent to kossi.agbeviade@epfl.ch about new course ME-424
 Notification email sent to luc.thevenaz@epfl.ch about new course PHYS-607
 Notification email sent to ambrogio.fasoli@epfl.ch about new course PHYS-106(h)
 Notification email sent to peter.ryser@epfl.ch about new course MICRO-343
 Notification email sent to peter.ryser@epfl.ch about new course MICRO-342
 Notification email sent to jeffrey.jensen@epfl.ch about new course BIO-451
 Notification email sent to roberto.gargiani@epfl.ch about new course AR-423(a)
 Notification email sent to ola.svensson@epfl.ch about new course CS-455
 Notification email sent to eglantine.bigot-doll@epfl.ch about new course AR-433
 Notification email sent to paule.soubeyrand@epfl.ch about new course AR-433
 Notification email sent to drazen.dujic@epfl.ch about new course EE-565
 Notification email sent to jean-luc.marendaz@epfl.ch about new course UNIL-401
 Notification email sent to roger.sauser@epfl.ch about new course PREPA-016
 Notification email sent to veronique.tissot@epfl.ch about new course PREPA-014
 Notification email sent to anne-marie.dovi@epfl.ch about new course PREPA-014
 Notification email sent to jordis.tietje-girault@epfl.ch about new course PREPA-012
 Notification email sent to saida.guennoun-lehmann@epfl.ch about new course PREPA-010
 Notification email sent to camil.petrescu@epfl.ch about new course PREPA-018
 Notification email sent to roger.roethlisberger@epfl.ch about new course PREPA-018
 Notification email sent to samuel.bendahan@epfl.ch about new course HUM-435(b)
 Notification email sent to paolo.ienne@epfl.ch about new course CS-470
 Notification email sent to oliver.krocher@epfl.ch about new course ChE-410
 Notification email sent to adriano.giardina@unil.ch about new course HUM-406(b)
 Notification email sent to paolo.prandoni@epfl.ch about new course COM-303
 Notification email sent to aurelio.bay@epfl.ch about new course PHYS-416
 Notification email sent to peter.ryser@epfl.ch about new course MICRO-540
 Notification email sent to john.maddocks@epfl.ch about new course MATH-481
 Notification email sent to donna.testerman@epfl.ch about new course MATH-314
 Notification email sent to holger.frauenrath@epfl.ch about new course MSE-211
 Notification email sent to eva.bayer@epfl.ch about new course MATH-312
 Notification email sent to jade.rudler@epfl.ch about new course PENS-209
 Notification email sent to riccardo.scarinci@epfl.ch about new course PENS-209
 Notification email sent to patrick.giromini@epfl.ch about new course PENS-208
 Notification email sent to nicola.braghieri@epfl.ch about new course PENS-208
 Notification email sent to michel.bierlaire@epfl.ch about new course CIVIL-557
 Notification email sent to jean-luc.marendaz@epfl.ch about new course UNIL-127
 Notification email sent to kamiar.aminian@epfl.ch about new course UNIL-125
 Notification email sent to dominique.pioletti@epfl.ch about new course UNIL-125
 Notification email sent to wolfgang.harbich@epfl.ch about new course UNIL-123
 Notification email sent to philippe.wieser@epfl.ch about new course MGT-426
 Notification email sent to frank.dezeeuw@epfl.ch about new course MATH-360
 Notification email sent to jean-francois.ferrot@epfl.ch about new course ME-107
 Notification email sent to bertrand.lacour@epfl.ch about new course ME-107
 Notification email sent to christian.muellerinderbitzin@epfl.ch about new course AR-402(r)
