Server Time: Tue, 10 May 2016 02:53:01 +0000


Execute scheduled task: Cleanup old sessions
... started 02:53:01. Current memory use 16.8MB.
... used 65 dbqueries
... used 0.27241516113281 seconds
Scheduled task complete: Cleanup old sessions
Execute scheduled task: Send new user passwords
... started 02:53:02. Current memory use 18.2MB.
... used 1 dbqueries
... used 0.083347082138062 seconds
Scheduled task complete: Send new user passwords
Execute scheduled task: Send failed login notifications
... started 02:53:02. Current memory use 18.2MB.
... used 0 dbqueries
... used 5.3167343139648E-5 seconds
Scheduled task complete: Send failed login notifications
Execute scheduled task: Background processing for gradebook
... started 02:53:02. Current memory use 18.3MB.
... used 2 dbqueries
... used 0.018722057342529 seconds
Scheduled task complete: Background processing for gradebook
Execute scheduled task: Background processing for events
... started 02:53:02. Current memory use 19.5MB.
... used 2 dbqueries
... used 0.0013980865478516 seconds
Scheduled task complete: Background processing for events
Execute scheduled task: Calculate completion data
... started 02:53:02. Current memory use 19.5MB.
... used 7 dbqueries
... used 0.090887069702148 seconds
Scheduled task complete: Calculate completion data
Execute scheduled task: Background processing for portfolio plugins
... started 02:53:02. Current memory use 24.5MB.
... used 0 dbqueries
... used 4.1961669921875E-5 seconds
Scheduled task complete: Background processing for portfolio plugins
Execute scheduled task: Background processing for plagiarism plugins
... started 02:53:02. Current memory use 24.5MB.
... used 0 dbqueries
... used 0.00057005882263184 seconds
Scheduled task complete: Background processing for plagiarism plugins
Execute scheduled task: Send calendar notifications
... started 02:53:02. Current memory use 24.6MB.
Updating calendar subscriptions:
... started 02:53:02. Current memory use 26MB.
Finished updating calendar subscriptions.
... used 1 dbqueries
... used 0.016661167144775 seconds
Scheduled task complete: Send calendar notifications
Execute scheduled task: Sync external blogs
... started 02:53:02. Current memory use 26MB.
... used 2 dbqueries
... used 0.0090060234069824 seconds
Scheduled task complete: Sync external blogs
Execute scheduled task: Background processing for question engine
... started 02:53:02. Current memory use 26.5MB.

  Cleaning up old question previews...done.

  Cleaning up old question statistics cache records...done.
... used 6 dbqueries
... used 4.8628509044647 seconds
Scheduled task complete: Background processing for question engine
Execute scheduled task: Forum mailings and maintenance jobs
... started 02:53:07. Current memory use 31.3MB.
Starting digest processing...
Cleaned old digest records
... used 6 dbqueries
... used 0.053121089935303 seconds
Scheduled task complete: Forum mailings and maintenance jobs
Execute scheduled task: Incoming email pickup
... started 02:53:07. Current memory use 31.9MB.
Inbound Message not fully configured - exiting early.
... used 0 dbqueries
... used 0.0025839805603027 seconds
Scheduled task complete: Incoming email pickup
Execute scheduled task: Removes any unnecessary event monitor events
... started 02:53:07. Current memory use 32.2MB.
... used 0 dbqueries
... used 0.00087594985961914 seconds
Scheduled task complete: Removes any unnecessary event monitor events
Cron script completed correctly
Cron completed at 02:53:07. Memory used 32.2MB.
Execution took 5.746232 seconds
