Server Time: Tue, 12 Apr 2016 20:45:01 +0000


Execute scheduled task: Cleanup old sessions
... started 20:45:01. Current memory use 16.8MB.
... used 52 dbqueries
... used 0.34561491012573 seconds
Scheduled task complete: Cleanup old sessions
Execute scheduled task: Send new user passwords
... started 20:45:02. Current memory use 18.2MB.
... used 1 dbqueries
... used 0.073987007141113 seconds
Scheduled task complete: Send new user passwords
Execute scheduled task: Send failed login notifications
... started 20:45:02. Current memory use 18.2MB.
... used 0 dbqueries
... used 5.3167343139648E-5 seconds
Scheduled task complete: Send failed login notifications
Execute scheduled task: Background processing for gradebook
... started 20:45:02. Current memory use 18.3MB.
... used 2 dbqueries
... used 0.01866888999939 seconds
Scheduled task complete: Background processing for gradebook
Execute scheduled task: Background processing for events
... started 20:45:02. Current memory use 19.5MB.
... used 2 dbqueries
... used 0.0015308856964111 seconds
Scheduled task complete: Background processing for events
Execute scheduled task: Calculate completion data
... started 20:45:02. Current memory use 19.5MB.
... used 7 dbqueries
... used 0.11459398269653 seconds
Scheduled task complete: Calculate completion data
Execute scheduled task: Background processing for portfolio plugins
... started 20:45:02. Current memory use 24.5MB.
... used 0 dbqueries
... used 5.0067901611328E-5 seconds
Scheduled task complete: Background processing for portfolio plugins
Execute scheduled task: Background processing for plagiarism plugins
... started 20:45:02. Current memory use 24.5MB.
... used 0 dbqueries
... used 0.00057101249694824 seconds
Scheduled task complete: Background processing for plagiarism plugins
Execute scheduled task: Send calendar notifications
... started 20:45:02. Current memory use 24.6MB.
Updating calendar subscriptions:
... started 20:45:02. Current memory use 26MB.
Finished updating calendar subscriptions.
... used 1 dbqueries
... used 0.020888805389404 seconds
Scheduled task complete: Send calendar notifications
Execute scheduled task: Sync external blogs
... started 20:45:02. Current memory use 26MB.
... used 2 dbqueries
... used 0.010447025299072 seconds
Scheduled task complete: Sync external blogs
Execute scheduled task: Background processing for question engine
... started 20:45:02. Current memory use 26.5MB.

  Cleaning up old question previews...done.

  Cleaning up old question statistics cache records...done.
... used 6 dbqueries
... used 4.2385199069977 seconds
Scheduled task complete: Background processing for question engine
Execute scheduled task: Forum mailings and maintenance jobs
... started 20:45:06. Current memory use 31.3MB.
Starting digest processing...
Cleaned old digest records
... used 6 dbqueries
... used 0.058580875396729 seconds
Scheduled task complete: Forum mailings and maintenance jobs
Execute scheduled task: Incoming email pickup
... started 20:45:07. Current memory use 31.9MB.
Inbound Message not fully configured - exiting early.
... used 0 dbqueries
... used 0.0028460025787354 seconds
Scheduled task complete: Incoming email pickup
Execute scheduled task: Removes any unnecessary event monitor events
... started 20:45:07. Current memory use 32.2MB.
... used 0 dbqueries
... used 0.0016191005706787 seconds
Scheduled task complete: Removes any unnecessary event monitor events
Cron script completed correctly
Cron completed at 20:45:07. Memory used 32.2MB.
Execution took 5.248323 seconds
