Server Time: Tue, 17 May 2016 21:00:01 +0000


Execute scheduled task: Cleanup old sessions
... started 21:00:02. Current memory use 16.8MB.
... used 195 dbqueries
... used 1.4023408889771 seconds
Scheduled task complete: Cleanup old sessions
Execute scheduled task: Delete unconfirmed users
... started 21:00:03. Current memory use 18.2MB.
... used 1 dbqueries
... used 0.015777111053467 seconds
Scheduled task complete: Delete unconfirmed users
Execute scheduled task: Send new user passwords
... started 21:00:03. Current memory use 18.2MB.
... used 1 dbqueries
... used 0.13468503952026 seconds
Scheduled task complete: Send new user passwords
Execute scheduled task: Send failed login notifications
... started 21:00:03. Current memory use 18.3MB.
... used 0 dbqueries
... used 6.103515625E-5 seconds
Scheduled task complete: Send failed login notifications
Execute scheduled task: Background processing for gradebook
... started 21:00:03. Current memory use 18.3MB.
... used 2 dbqueries
... used 0.019773006439209 seconds
Scheduled task complete: Background processing for gradebook
Execute scheduled task: Background processing for events
... started 21:00:03. Current memory use 19.5MB.
... used 2 dbqueries
... used 0.0015199184417725 seconds
Scheduled task complete: Background processing for events
Execute scheduled task: Calculate completion data
... started 21:00:03. Current memory use 19.5MB.
... used 7 dbqueries
... used 0.096133947372437 seconds
Scheduled task complete: Calculate completion data
Execute scheduled task: Background processing for portfolio plugins
... started 21:00:03. Current memory use 24.5MB.
... used 0 dbqueries
... used 4.1007995605469E-5 seconds
Scheduled task complete: Background processing for portfolio plugins
Execute scheduled task: Background processing for plagiarism plugins
... started 21:00:03. Current memory use 24.6MB.
... used 0 dbqueries
... used 0.00064492225646973 seconds
Scheduled task complete: Background processing for plagiarism plugins
Execute scheduled task: Send calendar notifications
... started 21:00:03. Current memory use 24.6MB.
Updating calendar subscriptions:
... started 21:00:03. Current memory use 26MB.
Finished updating calendar subscriptions.
... used 1 dbqueries
... used 0.017634153366089 seconds
Scheduled task complete: Send calendar notifications
Execute scheduled task: Sync external blogs
... started 21:00:03. Current memory use 26MB.
... used 2 dbqueries
... used 0.0096590518951416 seconds
Scheduled task complete: Sync external blogs
Execute scheduled task: Background processing for question engine
... started 21:00:03. Current memory use 26.6MB.

  Cleaning up old question previews...done.

  Cleaning up old question statistics cache records...done.
... used 6 dbqueries
... used 3.7823491096497 seconds
Scheduled task complete: Background processing for question engine
Execute scheduled task: Background processing for statistics
... started 21:00:07. Current memory use 29.2MB.
... used 0 dbqueries
... used 5.1975250244141E-5 seconds
Scheduled task complete: Background processing for statistics
Execute scheduled task: Forum mailings and maintenance jobs
... started 21:00:07. Current memory use 31.4MB.
Starting digest processing...
Cleaned old digest records
... used 6 dbqueries
... used 0.060004949569702 seconds
Scheduled task complete: Forum mailings and maintenance jobs
Execute scheduled task: Incoming email pickup
... started 21:00:08. Current memory use 32MB.
Inbound Message not fully configured - exiting early.
... used 0 dbqueries
... used 0.002608060836792 seconds
Scheduled task complete: Incoming email pickup
Execute scheduled task: Removes any unnecessary event monitor events
... started 21:00:08. Current memory use 32.2MB.
... used 0 dbqueries
... used 0.0013618469238281 seconds
Scheduled task complete: Removes any unnecessary event monitor events
Cron script completed correctly
Cron completed at 21:00:08. Memory used 32.3MB.
Execution took 6.224948 seconds
