Server Time: Thu, 21 Apr 2016 15:44:02 +0000


Execute scheduled task: Cleanup old sessions
... started 15:44:02. Current memory use 16.8MB.
... used 61 dbqueries
... used 0.32955384254456 seconds
Scheduled task complete: Cleanup old sessions
Execute scheduled task: Send new user passwords
... started 15:44:02. Current memory use 18.2MB.
... used 1 dbqueries
... used 0.099385023117065 seconds
Scheduled task complete: Send new user passwords
Execute scheduled task: Send failed login notifications
... started 15:44:02. Current memory use 18.2MB.
... used 0 dbqueries
... used 0.00021004676818848 seconds
Scheduled task complete: Send failed login notifications
Execute scheduled task: Background processing for gradebook
... started 15:44:02. Current memory use 18.3MB.
... used 2 dbqueries
... used 0.020725011825562 seconds
Scheduled task complete: Background processing for gradebook
Execute scheduled task: Background processing for events
... started 15:44:02. Current memory use 19.5MB.
... used 2 dbqueries
... used 0.0018880367279053 seconds
Scheduled task complete: Background processing for events
Execute scheduled task: Calculate completion data
... started 15:44:02. Current memory use 19.5MB.
... used 7 dbqueries
... used 0.10014414787292 seconds
Scheduled task complete: Calculate completion data
Execute scheduled task: Background processing for portfolio plugins
... started 15:44:02. Current memory use 24.5MB.
... used 0 dbqueries
... used 4.1961669921875E-5 seconds
Scheduled task complete: Background processing for portfolio plugins
Execute scheduled task: Background processing for plagiarism plugins
... started 15:44:02. Current memory use 24.5MB.
... used 0 dbqueries
... used 0.00057387351989746 seconds
Scheduled task complete: Background processing for plagiarism plugins
Execute scheduled task: Send calendar notifications
... started 15:44:02. Current memory use 24.6MB.
Updating calendar subscriptions:
... started 15:44:02. Current memory use 26MB.
Finished updating calendar subscriptions.
... used 1 dbqueries
... used 0.018110036849976 seconds
Scheduled task complete: Send calendar notifications
Execute scheduled task: Sync external blogs
... started 15:44:03. Current memory use 26MB.
... used 2 dbqueries
... used 0.0097219944000244 seconds
Scheduled task complete: Sync external blogs
Execute scheduled task: Background processing for question engine
... started 15:44:03. Current memory use 26.5MB.

  Cleaning up old question previews...done.

  Cleaning up old question statistics cache records...done.
... used 6 dbqueries
... used 2.8293919563293 seconds
Scheduled task complete: Background processing for question engine
Execute scheduled task: Forum mailings and maintenance jobs
... started 15:44:05. Current memory use 31.3MB.
Starting digest processing...
Cleaned old digest records
... used 6 dbqueries
... used 0.11155605316162 seconds
Scheduled task complete: Forum mailings and maintenance jobs
Execute scheduled task: Incoming email pickup
... started 15:44:06. Current memory use 31.9MB.
Inbound Message not fully configured - exiting early.
... used 0 dbqueries
... used 0.0025670528411865 seconds
Scheduled task complete: Incoming email pickup
Execute scheduled task: Removes any unnecessary event monitor events
... started 15:44:06. Current memory use 32.2MB.
... used 0 dbqueries
... used 0.00092101097106934 seconds
Scheduled task complete: Removes any unnecessary event monitor events
Cron script completed correctly
Cron completed at 15:44:06. Memory used 32.2MB.
Execution took 3.895196 seconds
