Server Time: Sun, 17 Apr 2016 23:52:01 +0000


Execute scheduled task: Cleanup old sessions
... started 23:52:01. Current memory use 16.8MB.
... used 52 dbqueries
... used 0.25608897209167 seconds
Scheduled task complete: Cleanup old sessions
Execute scheduled task: Send new user passwords
... started 23:52:01. Current memory use 18.2MB.
... used 1 dbqueries
... used 0.060957908630371 seconds
Scheduled task complete: Send new user passwords
Execute scheduled task: Send failed login notifications
... started 23:52:01. Current memory use 18.2MB.
... used 0 dbqueries
... used 5.0067901611328E-5 seconds
Scheduled task complete: Send failed login notifications
Execute scheduled task: Background processing for gradebook
... started 23:52:01. Current memory use 18.3MB.
... used 2 dbqueries
... used 0.019500017166138 seconds
Scheduled task complete: Background processing for gradebook
Execute scheduled task: Background processing for events
... started 23:52:01. Current memory use 19.5MB.
... used 2 dbqueries
... used 0.0011918544769287 seconds
Scheduled task complete: Background processing for events
Execute scheduled task: Calculate completion data
... started 23:52:01. Current memory use 19.5MB.
... used 7 dbqueries
... used 0.088514089584351 seconds
Scheduled task complete: Calculate completion data
Execute scheduled task: Background processing for portfolio plugins
... started 23:52:01. Current memory use 24.5MB.
... used 0 dbqueries
... used 3.9100646972656E-5 seconds
Scheduled task complete: Background processing for portfolio plugins
Execute scheduled task: Background processing for plagiarism plugins
... started 23:52:01. Current memory use 24.5MB.
... used 0 dbqueries
... used 0.00062799453735352 seconds
Scheduled task complete: Background processing for plagiarism plugins
Execute scheduled task: Send calendar notifications
... started 23:52:01. Current memory use 24.6MB.
Updating calendar subscriptions:
... started 23:52:01. Current memory use 26MB.
Finished updating calendar subscriptions.
... used 1 dbqueries
... used 0.022022008895874 seconds
Scheduled task complete: Send calendar notifications
Execute scheduled task: Sync external blogs
... started 23:52:01. Current memory use 26MB.
... used 2 dbqueries
... used 0.011665105819702 seconds
Scheduled task complete: Sync external blogs
Execute scheduled task: Background processing for question engine
... started 23:52:01. Current memory use 26.5MB.

  Cleaning up old question previews...done.

  Cleaning up old question statistics cache records...done.
... used 6 dbqueries
... used 2.4481320381165 seconds
Scheduled task complete: Background processing for question engine
Execute scheduled task: Forum mailings and maintenance jobs
... started 23:52:04. Current memory use 31.3MB.
Starting digest processing...
Cleaned old digest records
... used 6 dbqueries
... used 0.053340911865234 seconds
Scheduled task complete: Forum mailings and maintenance jobs
Execute scheduled task: Incoming email pickup
... started 23:52:04. Current memory use 31.9MB.
Inbound Message not fully configured - exiting early.
... used 0 dbqueries
... used 0.0026388168334961 seconds
Scheduled task complete: Incoming email pickup
Execute scheduled task: Removes any unnecessary event monitor events
... started 23:52:04. Current memory use 32.2MB.
... used 0 dbqueries
... used 0.0009458065032959 seconds
Scheduled task complete: Removes any unnecessary event monitor events
Cron script completed correctly
Cron completed at 23:52:04. Memory used 32.2MB.
Execution took 3.2243 seconds
