Server Time: Tue, 19 Apr 2016 17:03:01 +0000


Execute scheduled task: Cleanup old sessions
... started 17:03:01. Current memory use 16.8MB.
... used 70 dbqueries
... used 1.9831750392914 seconds
Scheduled task complete: Cleanup old sessions
Execute scheduled task: Send new user passwords
... started 17:03:03. Current memory use 18.2MB.
... used 1 dbqueries
... used 0.30627512931824 seconds
Scheduled task complete: Send new user passwords
Execute scheduled task: Send failed login notifications
... started 17:03:04. Current memory use 18.2MB.
... used 0 dbqueries
... used 7.3909759521484E-5 seconds
Scheduled task complete: Send failed login notifications
Execute scheduled task: Background processing for gradebook
... started 17:03:04. Current memory use 18.3MB.
... used 2 dbqueries
... used 0.03780198097229 seconds
Scheduled task complete: Background processing for gradebook
Execute scheduled task: Background processing for events
... started 17:03:04. Current memory use 19.5MB.
... used 2 dbqueries
... used 0.024386167526245 seconds
Scheduled task complete: Background processing for events
Execute scheduled task: Calculate completion data
... started 17:03:04. Current memory use 19.5MB.
... used 7 dbqueries
... used 0.18009686470032 seconds
Scheduled task complete: Calculate completion data
Execute scheduled task: Background processing for portfolio plugins
... started 17:03:04. Current memory use 24.5MB.
... used 0 dbqueries
... used 3.8862228393555E-5 seconds
Scheduled task complete: Background processing for portfolio plugins
Execute scheduled task: Background processing for plagiarism plugins
... started 17:03:04. Current memory use 24.5MB.
... used 0 dbqueries
... used 0.00068092346191406 seconds
Scheduled task complete: Background processing for plagiarism plugins
Execute scheduled task: Send calendar notifications
... started 17:03:04. Current memory use 24.6MB.
Updating calendar subscriptions:
... started 17:03:04. Current memory use 26MB.
Finished updating calendar subscriptions.
... used 1 dbqueries
... used 0.028418064117432 seconds
Scheduled task complete: Send calendar notifications
Execute scheduled task: Sync external blogs
... started 17:03:04. Current memory use 26MB.
... used 2 dbqueries
... used 0.0097260475158691 seconds
Scheduled task complete: Sync external blogs
Execute scheduled task: Background processing for question engine
... started 17:03:04. Current memory use 26.5MB.

  Cleaning up old question previews...done.

  Cleaning up old question statistics cache records...done.
... used 6 dbqueries
... used 6.3864359855652 seconds
Scheduled task complete: Background processing for question engine
Execute scheduled task: Forum mailings and maintenance jobs
... started 17:03:11. Current memory use 31.3MB.
Starting digest processing...
Cleaned old digest records
... used 6 dbqueries
... used 0.094654083251953 seconds
Scheduled task complete: Forum mailings and maintenance jobs
Execute scheduled task: Incoming email pickup
... started 17:03:11. Current memory use 31.9MB.
Inbound Message not fully configured - exiting early.
... used 0 dbqueries
... used 0.0025069713592529 seconds
Scheduled task complete: Incoming email pickup
Execute scheduled task: Removes any unnecessary event monitor events
... started 17:03:11. Current memory use 32.2MB.
... used 0 dbqueries
... used 0.00097894668579102 seconds
Scheduled task complete: Removes any unnecessary event monitor events
Cron script completed correctly
Cron completed at 17:03:11. Memory used 32.2MB.
Execution took 9.991129 seconds
