Server Time: Tue, 22 Mar 2016 14:21:01 +0000


Execute scheduled task: Cleanup old sessions
... started 14:21:01. Current memory use 16.8MB.
... used 82 dbqueries
... used 0.44163489341736 seconds
Scheduled task complete: Cleanup old sessions
Execute scheduled task: Send new user passwords
... started 14:21:02. Current memory use 18.2MB.
... used 1 dbqueries
... used 0.07457709312439 seconds
Scheduled task complete: Send new user passwords
Execute scheduled task: Send failed login notifications
... started 14:21:02. Current memory use 18.2MB.
... used 0 dbqueries
... used 5.6028366088867E-5 seconds
Scheduled task complete: Send failed login notifications
Execute scheduled task: Background processing for gradebook
... started 14:21:02. Current memory use 18.3MB.
... used 2 dbqueries
... used 0.019767999649048 seconds
Scheduled task complete: Background processing for gradebook
Execute scheduled task: Background processing for events
... started 14:21:02. Current memory use 19.5MB.
... used 2 dbqueries
... used 0.0017480850219727 seconds
Scheduled task complete: Background processing for events
Execute scheduled task: Calculate completion data
... started 14:21:02. Current memory use 19.5MB.
... used 7 dbqueries
... used 0.096461057662964 seconds
Scheduled task complete: Calculate completion data
Execute scheduled task: Background processing for portfolio plugins
... started 14:21:02. Current memory use 24.5MB.
... used 0 dbqueries
... used 4.1007995605469E-5 seconds
Scheduled task complete: Background processing for portfolio plugins
Execute scheduled task: Background processing for plagiarism plugins
... started 14:21:02. Current memory use 24.5MB.
... used 0 dbqueries
... used 0.00058197975158691 seconds
Scheduled task complete: Background processing for plagiarism plugins
Execute scheduled task: Send calendar notifications
... started 14:21:02. Current memory use 24.6MB.
Updating calendar subscriptions:
... started 14:21:02. Current memory use 26MB.
Finished updating calendar subscriptions.
... used 1 dbqueries
... used 0.017238855361938 seconds
Scheduled task complete: Send calendar notifications
Execute scheduled task: Sync external blogs
... started 14:21:02. Current memory use 26MB.
... used 2 dbqueries
... used 0.0096199512481689 seconds
Scheduled task complete: Sync external blogs
Execute scheduled task: Background processing for question engine
... started 14:21:02. Current memory use 26.5MB.

  Cleaning up old question previews...done.

  Cleaning up old question statistics cache records...done.
... used 6 dbqueries
... used 4.7011229991913 seconds
Scheduled task complete: Background processing for question engine
Execute scheduled task: Forum mailings and maintenance jobs
... started 14:21:07. Current memory use 31.3MB.
Processing user 236500
Processing user 223746
Processing user 223430
Processing user 237516
Processing user 235862
Sending post 10747: Re: Problème: Undefined symbols for architecture x86_64:
Processing user 219946
Processing user 223617
Sending post 10747: Re: Problème: Undefined symbols for architecture x86_64:
Processing user 195431
Processing user 55701
Sending post 10747: Re: Problème: Undefined symbols for architecture x86_64:
Processing user 237692
Processing user 234239
Sending post 10747: Re: Problème: Undefined symbols for architecture x86_64:
Processing user 223727
Processing user 237786
Processing user 223444
Processing user 214801
Sending post 10747: Re: Problème: Undefined symbols for architecture x86_64:
Processing user 234269
Processing user 219239
Sending post 10747: Re: Problème: Undefined symbols for architecture x86_64:
Processing user 223378
Processing user 223661
Processing user 223156
Processing user 223265
Processing user 235056
Processing user 223459
Processing user 232532
Processing user 219221
Sending post 10747: Re: Problème: Undefined symbols for architecture x86_64:
Processing user 223419
Processing user 237612
Processing user 235280
Processing user 234901
Processing user 218895
Processing user 218334
Sending post 10747: Re: Problème: Undefined symbols for architecture x86_64:
Processing user 218048
Processing user 223729
Processing user 233017
Processing user 221035
Processing user 218257
Sending post 10747: Re: Problème: Undefined symbols for architecture x86_64:
Processing user 236677
Processing user 223434
Processing user 221862
Processing user 234774
Processing user 223798
Processing user 234933
Processing user 128011
Sending post 10747: Re: Problème: Undefined symbols for architecture x86_64:
Processing user 223366
Processing user 218461
Processing user 234783
Processing user 223491
Sending post 10747: Re: Problème: Undefined symbols for architecture x86_64:
Processing user 221914
Processing user 237928
Processing user 213181
Processing user 223738
Processing user 217261
Processing user 236667
Processing user 223655
Processing user 114481
Processing user 237727
Processing user 232412
Processing user 235321
Processing user 234803
Processing user 237930
Processing user 234810
Processing user 235187
Processing user 220865
Processing user 236313
Processing user 222495
Processing user 235194
Processing user 235677
Processing user 223489
Processing user 236405
Processing user 235349
Processing user 218315
Processing user 214321
Processing user 236803
Sending post 10747: Re: Problème: Undefined symbols for architecture x86_64:
Processing user 223545
Processing user 237601
Processing user 167501
Processing user 223511
Processing user 164371
Sending post 10747: Re: Problème: Undefined symbols for architecture x86_64:
Processing user 218181
Sending post 10747: Re: Problème: Undefined symbols for architecture x86_64:
Processing user 235024
Processing user 219410
Processing user 223385
Processing user 236430
Processing user 218834
Processing user 219106
Sending post 10747: Re: Problème: Undefined symbols for architecture x86_64:
Processing user 214805
Processing user 223841
15 users were sent post 10747, 'Re: Problème: Undefined symbols for architecture x86_64:'
Starting digest processing...
Cleaned old digest records
... used 224 dbqueries
... used 4.2175810337067 seconds
Scheduled task complete: Forum mailings and maintenance jobs
Execute scheduled task: Incoming email pickup
... started 14:21:11. Current memory use 40.8MB.
Inbound Message not fully configured - exiting early.
... used 0 dbqueries
... used 0.0026369094848633 seconds
Scheduled task complete: Incoming email pickup
Execute scheduled task: Removes any unnecessary event monitor events
... started 14:21:11. Current memory use 41MB.
... used 0 dbqueries
... used 8.0108642578125E-5 seconds
Scheduled task complete: Removes any unnecessary event monitor events
Cron script completed correctly
Cron completed at 14:21:11. Memory used 41.1MB.
Execution took 9.9632 seconds
