Server Time: Wed, 16 Mar 2016 18:46:02 +0000


Execute scheduled task: Cleanup old sessions
... started 18:46:02. Current memory use 16.8MB.
... used 98 dbqueries
... used 0.64152884483337 seconds
Scheduled task complete: Cleanup old sessions
Execute scheduled task: Send new user passwords
... started 18:46:03. Current memory use 18.2MB.
... used 1 dbqueries
... used 0.073408842086792 seconds
Scheduled task complete: Send new user passwords
Execute scheduled task: Send failed login notifications
... started 18:46:03. Current memory use 18.2MB.
... used 0 dbqueries
... used 5.1021575927734E-5 seconds
Scheduled task complete: Send failed login notifications
Execute scheduled task: Background processing for gradebook
... started 18:46:03. Current memory use 18.3MB.
... used 2 dbqueries
... used 0.020267009735107 seconds
Scheduled task complete: Background processing for gradebook
Execute scheduled task: Background processing for events
... started 18:46:03. Current memory use 19.5MB.
... used 2 dbqueries
... used 0.0013110637664795 seconds
Scheduled task complete: Background processing for events
Execute scheduled task: Calculate completion data
... started 18:46:03. Current memory use 19.5MB.
... used 7 dbqueries
... used 0.090798139572144 seconds
Scheduled task complete: Calculate completion data
Execute scheduled task: Background processing for portfolio plugins
... started 18:46:03. Current memory use 24.5MB.
... used 0 dbqueries
... used 3.9100646972656E-5 seconds
Scheduled task complete: Background processing for portfolio plugins
Execute scheduled task: Background processing for plagiarism plugins
... started 18:46:03. Current memory use 24.5MB.
... used 0 dbqueries
... used 0.00056290626525879 seconds
Scheduled task complete: Background processing for plagiarism plugins
Execute scheduled task: Send calendar notifications
... started 18:46:03. Current memory use 24.6MB.
Updating calendar subscriptions:
... started 18:46:03. Current memory use 26MB.
Finished updating calendar subscriptions.
... used 1 dbqueries
... used 0.01689600944519 seconds
Scheduled task complete: Send calendar notifications
Execute scheduled task: Sync external blogs
... started 18:46:03. Current memory use 26MB.
... used 2 dbqueries
... used 0.0092079639434814 seconds
Scheduled task complete: Sync external blogs
Execute scheduled task: Background processing for question engine
... started 18:46:03. Current memory use 26.5MB.

  Cleaning up old question previews...done.

  Cleaning up old question statistics cache records...done.
... used 6 dbqueries
... used 6.0979928970337 seconds
Scheduled task complete: Background processing for question engine
Execute scheduled task: Forum mailings and maintenance jobs
... started 18:46:09. Current memory use 31.3MB.
Starting digest processing...
Cleaned old digest records
... used 6 dbqueries
... used 0.067135095596313 seconds
Scheduled task complete: Forum mailings and maintenance jobs
Execute scheduled task: Incoming email pickup
... started 18:46:09. Current memory use 31.9MB.
Inbound Message not fully configured - exiting early.
... used 0 dbqueries
... used 0.0032820701599121 seconds
Scheduled task complete: Incoming email pickup
Execute scheduled task: Removes any unnecessary event monitor events
... started 18:46:09. Current memory use 32.2MB.
... used 0 dbqueries
... used 0.00094795227050781 seconds
Scheduled task complete: Removes any unnecessary event monitor events
Cron script completed correctly
Cron completed at 18:46:09. Memory used 32.2MB.
Execution took 7.376598 seconds
