Server Time: Mon, 18 Apr 2016 19:27:02 +0000


Execute scheduled task: Cleanup old sessions
... started 19:27:02. Current memory use 16.8MB.
... used 105 dbqueries
... used 0.54412484169006 seconds
Scheduled task complete: Cleanup old sessions
Execute scheduled task: Send new user passwords
... started 19:27:02. Current memory use 18.2MB.
... used 1 dbqueries
... used 0.071506023406982 seconds
Scheduled task complete: Send new user passwords
Execute scheduled task: Send failed login notifications
... started 19:27:02. Current memory use 18.2MB.
... used 0 dbqueries
... used 5.3882598876953E-5 seconds
Scheduled task complete: Send failed login notifications
Execute scheduled task: Background processing for gradebook
... started 19:27:02. Current memory use 18.3MB.
... used 2 dbqueries
... used 0.018737077713013 seconds
Scheduled task complete: Background processing for gradebook
Execute scheduled task: Background processing for events
... started 19:27:02. Current memory use 19.5MB.
... used 2 dbqueries
... used 0.001317024230957 seconds
Scheduled task complete: Background processing for events
Execute scheduled task: Calculate completion data
... started 19:27:02. Current memory use 19.5MB.
... used 7 dbqueries
... used 0.091843843460083 seconds
Scheduled task complete: Calculate completion data
Execute scheduled task: Background processing for portfolio plugins
... started 19:27:03. Current memory use 24.5MB.
... used 0 dbqueries
... used 4.2915344238281E-5 seconds
Scheduled task complete: Background processing for portfolio plugins
Execute scheduled task: Background processing for plagiarism plugins
... started 19:27:03. Current memory use 24.5MB.
... used 0 dbqueries
... used 0.00057387351989746 seconds
Scheduled task complete: Background processing for plagiarism plugins
Execute scheduled task: Send calendar notifications
... started 19:27:03. Current memory use 24.6MB.
Updating calendar subscriptions:
... started 19:27:03. Current memory use 26MB.
Finished updating calendar subscriptions.
... used 1 dbqueries
... used 0.01670503616333 seconds
Scheduled task complete: Send calendar notifications
Execute scheduled task: Sync external blogs
... started 19:27:03. Current memory use 26MB.
... used 2 dbqueries
... used 0.0091731548309326 seconds
Scheduled task complete: Sync external blogs
Execute scheduled task: Background processing for question engine
... started 19:27:03. Current memory use 26.5MB.

  Cleaning up old question previews...done.

  Cleaning up old question statistics cache records...done.
... used 6 dbqueries
... used 3.2974770069122 seconds
Scheduled task complete: Background processing for question engine
Execute scheduled task: Forum mailings and maintenance jobs
... started 19:27:06. Current memory use 31.3MB.
Processing user 223639
Sending post 12669: Erreurs - Partie 3.1 (Test 10)
Processing user 238630
Processing user 221282
Processing user 234489
Processing user 218396
Processing user 223239
Processing user 223928
Processing user 237503
Processing user 173361
Sending post 12669: Erreurs - Partie 3.1 (Test 10)
Processing user 125101
Processing user 237827
Processing user 213154
Processing user 223488
Processing user 157801
Sending post 12669: Erreurs - Partie 3.1 (Test 10)
Processing user 223413
Processing user 223682
Processing user 203971
Sending post 12669: Erreurs - Partie 3.1 (Test 10)
Processing user 218815
Processing user 236767
Processing user 237853
Processing user 238006
Processing user 237524
Processing user 237651
Processing user 18231
Processing user 160031
Sending post 12669: Erreurs - Partie 3.1 (Test 10)
Processing user 223466
Processing user 223081
Processing user 237826
Processing user 223504
Processing user 212982
Processing user 223763
Processing user 236426
Processing user 2501
Sending post 12669: Erreurs - Partie 3.1 (Test 10)
Processing user 235891
Processing user 233765
Processing user 223718
Processing user 223562
Processing user 128011
Processing user 236143
Processing user 237581
Processing user 235071
Processing user 237649
Processing user 236301
Processing user 221910
Processing user 223847
Processing user 234528
Processing user 223532
Processing user 236443
Processing user 206131
Processing user 223751
Processing user 234961
Processing user 223648
Processing user 75951
Sending post 12669: Erreurs - Partie 3.1 (Test 10)
Processing user 234964
Processing user 237749
Processing user 223867
Processing user 223602
Processing user 217476
Processing user 223803
Processing user 238972
Processing user 236774
Processing user 220773
Sending post 12669: Erreurs - Partie 3.1 (Test 10)
Processing user 235676
Processing user 219282
Sending post 12669: Erreurs - Partie 3.1 (Test 10)
Processing user 234820
Processing user 223824
Processing user 237502
Processing user 223478
Sending post 12669: Erreurs - Partie 3.1 (Test 10)
Processing user 236464
Processing user 222505
Processing user 222124
Processing user 234556
Processing user 234327
Sending post 12669: Erreurs - Partie 3.1 (Test 10)
Processing user 223789
Processing user 221688
Processing user 219700
Processing user 235201
Processing user 232417
Processing user 237598
Processing user 223934
Processing user 219184
Processing user 216544
Sending post 12669: Erreurs - Partie 3.1 (Test 10)
Processing user 237910
Processing user 168281
Sending post 12669: Erreurs - Partie 3.1 (Test 10)
Processing user 237599
Processing user 235842
Processing user 214253
13 users were sent post 12669, 'Erreurs - Partie 3.1 (Test 10)'
Starting digest processing...
Cleaned old digest records
... used 213 dbqueries
... used 4.0977740287781 seconds
Scheduled task complete: Forum mailings and maintenance jobs
Execute scheduled task: Incoming email pickup
... started 19:27:10. Current memory use 40.4MB.
Inbound Message not fully configured - exiting early.
... used 0 dbqueries
... used 0.0038919448852539 seconds
Scheduled task complete: Incoming email pickup
Execute scheduled task: Removes any unnecessary event monitor events
... started 19:27:10. Current memory use 40.6MB.
... used 0 dbqueries
... used 8.6069107055664E-5 seconds
Scheduled task complete: Removes any unnecessary event monitor events
Cron script completed correctly
Cron completed at 19:27:10. Memory used 40.7MB.
Execution took 8.496926 seconds
