Server Time: Thu, 14 Apr 2016 10:26:02 +0000


Execute scheduled task: Cleanup old sessions
... started 10:26:02. Current memory use 16.8MB.
... used 89 dbqueries
... used 0.43726301193237 seconds
Scheduled task complete: Cleanup old sessions
Execute scheduled task: Send new user passwords
... started 10:26:02. Current memory use 18.2MB.
... used 1 dbqueries
... used 0.092205047607422 seconds
Scheduled task complete: Send new user passwords
Execute scheduled task: Send failed login notifications
... started 10:26:02. Current memory use 18.2MB.
... used 0 dbqueries
... used 0.00010800361633301 seconds
Scheduled task complete: Send failed login notifications
Execute scheduled task: Background processing for gradebook
... started 10:26:02. Current memory use 18.3MB.
... used 2 dbqueries
... used 0.025574922561646 seconds
Scheduled task complete: Background processing for gradebook
Execute scheduled task: Background processing for events
... started 10:26:02. Current memory use 19.5MB.
... used 2 dbqueries
... used 0.0014100074768066 seconds
Scheduled task complete: Background processing for events
Execute scheduled task: Calculate completion data
... started 10:26:02. Current memory use 19.5MB.
... used 7 dbqueries
... used 0.10345005989075 seconds
Scheduled task complete: Calculate completion data
Execute scheduled task: Background processing for portfolio plugins
... started 10:26:03. Current memory use 24.5MB.
... used 0 dbqueries
... used 4.1007995605469E-5 seconds
Scheduled task complete: Background processing for portfolio plugins
Execute scheduled task: Background processing for plagiarism plugins
... started 10:26:03. Current memory use 24.5MB.
... used 0 dbqueries
... used 0.00054812431335449 seconds
Scheduled task complete: Background processing for plagiarism plugins
Execute scheduled task: Send calendar notifications
... started 10:26:03. Current memory use 24.6MB.
Updating calendar subscriptions:
... started 10:26:03. Current memory use 26MB.
Finished updating calendar subscriptions.
... used 1 dbqueries
... used 0.017949819564819 seconds
Scheduled task complete: Send calendar notifications
Execute scheduled task: Sync external blogs
... started 10:26:03. Current memory use 26MB.
... used 2 dbqueries
... used 0.010156154632568 seconds
Scheduled task complete: Sync external blogs
Execute scheduled task: Background processing for question engine
... started 10:26:03. Current memory use 26.5MB.

  Cleaning up old question previews...done.

  Cleaning up old question statistics cache records...done.
... used 6 dbqueries
... used 2.8935480117798 seconds
Scheduled task complete: Background processing for question engine
Execute scheduled task: Forum mailings and maintenance jobs
... started 10:26:06. Current memory use 31.3MB.
Starting digest processing...
Cleaned old digest records
... used 6 dbqueries
... used 0.061599969863892 seconds
Scheduled task complete: Forum mailings and maintenance jobs
Execute scheduled task: Incoming email pickup
... started 10:26:06. Current memory use 31.9MB.
Inbound Message not fully configured - exiting early.
... used 0 dbqueries
... used 0.0025310516357422 seconds
Scheduled task complete: Incoming email pickup
Execute scheduled task: Removes any unnecessary event monitor events
... started 10:26:06. Current memory use 32.2MB.
... used 0 dbqueries
... used 0.00094485282897949 seconds
Scheduled task complete: Removes any unnecessary event monitor events
Cron script completed correctly
Cron completed at 10:26:06. Memory used 32.2MB.
Execution took 3.970771 seconds
