Server Time: Tue, 29 Mar 2016 05:10:01 +0000


Execute scheduled task: Cleanup old sessions
... started 05:10:01. Current memory use 16.8MB.
... used 92 dbqueries
... used 1.89830493927 seconds
Scheduled task complete: Cleanup old sessions
Execute scheduled task: Clean backup tables and logs
... started 05:10:03. Current memory use 18.2MB.
... used 2 dbqueries
... used 0.41051197052002 seconds
Scheduled task complete: Clean backup tables and logs
Execute scheduled task: Send new user passwords
... started 05:10:04. Current memory use 18.2MB.
... used 1 dbqueries
... used 0.26795506477356 seconds
Scheduled task complete: Send new user passwords
Execute scheduled task: Send failed login notifications
... started 05:10:04. Current memory use 18.3MB.
... used 0 dbqueries
... used 6.8187713623047E-5 seconds
Scheduled task complete: Send failed login notifications
Execute scheduled task: Background processing for gradebook
... started 05:10:04. Current memory use 18.3MB.
... used 2 dbqueries
... used 0.032185077667236 seconds
Scheduled task complete: Background processing for gradebook
Execute scheduled task: Background processing for events
... started 05:10:04. Current memory use 19.5MB.
... used 2 dbqueries
... used 0.031996965408325 seconds
Scheduled task complete: Background processing for events
Execute scheduled task: Calculate completion data
... started 05:10:04. Current memory use 19.5MB.
... used 7 dbqueries
... used 0.12349200248718 seconds
Scheduled task complete: Calculate completion data
Execute scheduled task: Background processing for portfolio plugins
... started 05:10:04. Current memory use 24.5MB.
... used 0 dbqueries
... used 4.0054321289062E-5 seconds
Scheduled task complete: Background processing for portfolio plugins
Execute scheduled task: Background processing for plagiarism plugins
... started 05:10:04. Current memory use 24.6MB.
... used 0 dbqueries
... used 0.00055503845214844 seconds
Scheduled task complete: Background processing for plagiarism plugins
Execute scheduled task: Send calendar notifications
... started 05:10:04. Current memory use 24.6MB.
Updating calendar subscriptions:
... started 05:10:04. Current memory use 26MB.
Finished updating calendar subscriptions.
... used 1 dbqueries
... used 0.024178028106689 seconds
Scheduled task complete: Send calendar notifications
Execute scheduled task: Sync external blogs
... started 05:10:05. Current memory use 26MB.
... used 2 dbqueries
... used 0.021397113800049 seconds
Scheduled task complete: Sync external blogs
Execute scheduled task: Background processing for question engine
... started 05:10:05. Current memory use 26.6MB.

  Cleaning up old question previews...done.

  Cleaning up old question statistics cache records...done.
... used 6 dbqueries
... used 7.9396669864655 seconds
Scheduled task complete: Background processing for question engine
Execute scheduled task: Forum mailings and maintenance jobs
... started 05:10:13. Current memory use 31.3MB.
Starting digest processing...
Cleaned old digest records
... used 6 dbqueries
... used 0.067863941192627 seconds
Scheduled task complete: Forum mailings and maintenance jobs
Execute scheduled task: Incoming email pickup
... started 05:10:13. Current memory use 32MB.
Inbound Message not fully configured - exiting early.
... used 0 dbqueries
... used 0.0025990009307861 seconds
Scheduled task complete: Incoming email pickup
Execute scheduled task: Removes any unnecessary event monitor events
... started 05:10:13. Current memory use 32.2MB.
... used 0 dbqueries
... used 0.001939058303833 seconds
Scheduled task complete: Removes any unnecessary event monitor events
Cron script completed correctly
Cron completed at 05:10:13. Memory used 32.3MB.
Execution took 11.868326 seconds
