Server Time: Sat, 16 Apr 2016 20:37:01 +0000


Execute scheduled task: Cleanup old sessions
... started 20:37:01. Current memory use 16.8MB.
... used 65 dbqueries
... used 0.33392810821533 seconds
Scheduled task complete: Cleanup old sessions
Execute scheduled task: Send new user passwords
... started 20:37:01. Current memory use 18.2MB.
... used 1 dbqueries
... used 0.066258907318115 seconds
Scheduled task complete: Send new user passwords
Execute scheduled task: Send failed login notifications
... started 20:37:01. Current memory use 18.2MB.
... used 0 dbqueries
... used 5.6982040405273E-5 seconds
Scheduled task complete: Send failed login notifications
Execute scheduled task: Background processing for gradebook
... started 20:37:01. Current memory use 18.3MB.
... used 2 dbqueries
... used 0.021645069122314 seconds
Scheduled task complete: Background processing for gradebook
Execute scheduled task: Background processing for events
... started 20:37:01. Current memory use 19.5MB.
... used 2 dbqueries
... used 0.0012660026550293 seconds
Scheduled task complete: Background processing for events
Execute scheduled task: Calculate completion data
... started 20:37:01. Current memory use 19.5MB.
... used 7 dbqueries
... used 0.09360408782959 seconds
Scheduled task complete: Calculate completion data
Execute scheduled task: Background processing for portfolio plugins
... started 20:37:02. Current memory use 24.5MB.
... used 0 dbqueries
... used 4.0054321289062E-5 seconds
Scheduled task complete: Background processing for portfolio plugins
Execute scheduled task: Background processing for plagiarism plugins
... started 20:37:02. Current memory use 24.5MB.
... used 0 dbqueries
... used 0.00071096420288086 seconds
Scheduled task complete: Background processing for plagiarism plugins
Execute scheduled task: Send calendar notifications
... started 20:37:02. Current memory use 24.6MB.
Updating calendar subscriptions:
... started 20:37:02. Current memory use 26MB.
Finished updating calendar subscriptions.
... used 1 dbqueries
... used 0.021249055862427 seconds
Scheduled task complete: Send calendar notifications
Execute scheduled task: Sync external blogs
... started 20:37:02. Current memory use 26MB.
... used 2 dbqueries
... used 0.011449813842773 seconds
Scheduled task complete: Sync external blogs
Execute scheduled task: Background processing for question engine
... started 20:37:02. Current memory use 26.5MB.

  Cleaning up old question previews...done.

  Cleaning up old question statistics cache records...done.
... used 6 dbqueries
... used 7.3430509567261 seconds
Scheduled task complete: Background processing for question engine
Execute scheduled task: Forum mailings and maintenance jobs
... started 20:37:09. Current memory use 31.3MB.
Starting digest processing...
Cleaned old digest records
... used 6 dbqueries
... used 0.057157039642334 seconds
Scheduled task complete: Forum mailings and maintenance jobs
Execute scheduled task: Incoming email pickup
... started 20:37:09. Current memory use 31.9MB.
Inbound Message not fully configured - exiting early.
... used 0 dbqueries
... used 0.0026299953460693 seconds
Scheduled task complete: Incoming email pickup
Execute scheduled task: Removes any unnecessary event monitor events
... started 20:37:09. Current memory use 32.2MB.
... used 0 dbqueries
... used 0.00099015235900879 seconds
Scheduled task complete: Removes any unnecessary event monitor events
Cron script completed correctly
Cron completed at 20:37:09. Memory used 32.2MB.
Execution took 8.294065 seconds
