Server Time: Fri, 18 Mar 2016 09:01:02 +0000


Execute scheduled task: Cleanup old sessions
... started 09:01:02. Current memory use 16.8MB.
... used 35 dbqueries
... used 0.28114318847656 seconds
Scheduled task complete: Cleanup old sessions
Execute scheduled task: Send new user passwords
... started 09:01:02. Current memory use 18.2MB.
... used 1 dbqueries
... used 0.073184013366699 seconds
Scheduled task complete: Send new user passwords
Execute scheduled task: Send failed login notifications
... started 09:01:02. Current memory use 18.2MB.
... used 0 dbqueries
... used 5.4836273193359E-5 seconds
Scheduled task complete: Send failed login notifications
Execute scheduled task: Background processing for gradebook
... started 09:01:02. Current memory use 18.3MB.
... used 2 dbqueries
... used 0.018583059310913 seconds
Scheduled task complete: Background processing for gradebook
Execute scheduled task: Background processing for events
... started 09:01:02. Current memory use 19.5MB.
... used 2 dbqueries
... used 0.0016679763793945 seconds
Scheduled task complete: Background processing for events
Execute scheduled task: Calculate completion data
... started 09:01:02. Current memory use 19.5MB.
... used 7 dbqueries
... used 0.095660924911499 seconds
Scheduled task complete: Calculate completion data
Execute scheduled task: Background processing for portfolio plugins
... started 09:01:02. Current memory use 24.5MB.
... used 0 dbqueries
... used 5.4836273193359E-5 seconds
Scheduled task complete: Background processing for portfolio plugins
Execute scheduled task: Background processing for plagiarism plugins
... started 09:01:02. Current memory use 24.5MB.
... used 0 dbqueries
... used 0.00073599815368652 seconds
Scheduled task complete: Background processing for plagiarism plugins
Execute scheduled task: Send calendar notifications
... started 09:01:02. Current memory use 24.6MB.
Updating calendar subscriptions:
... started 09:01:02. Current memory use 26MB.
Finished updating calendar subscriptions.
... used 1 dbqueries
... used 0.023591995239258 seconds
Scheduled task complete: Send calendar notifications
Execute scheduled task: Sync external blogs
... started 09:01:02. Current memory use 26MB.
... used 2 dbqueries
... used 0.013293981552124 seconds
Scheduled task complete: Sync external blogs
Execute scheduled task: Background processing for question engine
... started 09:01:02. Current memory use 26.5MB.

  Cleaning up old question previews...done.

  Cleaning up old question statistics cache records...done.
... used 6 dbqueries
... used 4.5866961479187 seconds
Scheduled task complete: Background processing for question engine
Execute scheduled task: Forum mailings and maintenance jobs
... started 09:01:07. Current memory use 31.3MB.
Starting digest processing...
Cleaned old digest records
... used 6 dbqueries
... used 0.069877862930298 seconds
Scheduled task complete: Forum mailings and maintenance jobs
Execute scheduled task: Incoming email pickup
... started 09:01:07. Current memory use 31.9MB.
Inbound Message not fully configured - exiting early.
... used 0 dbqueries
... used 0.0034060478210449 seconds
Scheduled task complete: Incoming email pickup
Execute scheduled task: Removes any unnecessary event monitor events
... started 09:01:07. Current memory use 32.2MB.
... used 0 dbqueries
... used 0.00091195106506348 seconds
Scheduled task complete: Removes any unnecessary event monitor events
Cron script completed correctly
Cron completed at 09:01:07. Memory used 32.2MB.
Execution took 5.549384 seconds
