Server Time: Thu, 21 Apr 2016 15:01:01 +0000


Execute scheduled task: Cleanup old sessions
... started 15:01:01. Current memory use 16.8MB.
... used 62 dbqueries
... used 0.39980006217957 seconds
Scheduled task complete: Cleanup old sessions
Execute scheduled task: Send new user passwords
... started 15:01:02. Current memory use 18.2MB.
... used 1 dbqueries
... used 0.069792032241821 seconds
Scheduled task complete: Send new user passwords
Execute scheduled task: Send failed login notifications
... started 15:01:02. Current memory use 18.2MB.
... used 0 dbqueries
... used 0.00011014938354492 seconds
Scheduled task complete: Send failed login notifications
Execute scheduled task: Background processing for gradebook
... started 15:01:02. Current memory use 18.3MB.
... used 2 dbqueries
... used 0.022489070892334 seconds
Scheduled task complete: Background processing for gradebook
Execute scheduled task: Background processing for events
... started 15:01:02. Current memory use 19.5MB.
... used 2 dbqueries
... used 0.0017859935760498 seconds
Scheduled task complete: Background processing for events
Execute scheduled task: Calculate completion data
... started 15:01:02. Current memory use 19.5MB.
... used 7 dbqueries
... used 0.098239898681641 seconds
Scheduled task complete: Calculate completion data
Execute scheduled task: Background processing for portfolio plugins
... started 15:01:02. Current memory use 24.5MB.
... used 0 dbqueries
... used 4.0054321289062E-5 seconds
Scheduled task complete: Background processing for portfolio plugins
Execute scheduled task: Background processing for plagiarism plugins
... started 15:01:02. Current memory use 24.5MB.
... used 0 dbqueries
... used 0.00065708160400391 seconds
Scheduled task complete: Background processing for plagiarism plugins
Execute scheduled task: Send calendar notifications
... started 15:01:02. Current memory use 24.6MB.
Updating calendar subscriptions:
... started 15:01:02. Current memory use 26MB.
Finished updating calendar subscriptions.
... used 1 dbqueries
... used 0.017468929290771 seconds
Scheduled task complete: Send calendar notifications
Execute scheduled task: Sync external blogs
... started 15:01:02. Current memory use 26MB.
... used 2 dbqueries
... used 0.0097980499267578 seconds
Scheduled task complete: Sync external blogs
Execute scheduled task: Background processing for question engine
... started 15:01:02. Current memory use 26.5MB.

  Cleaning up old question previews...done.

  Cleaning up old question statistics cache records...done.
... used 6 dbqueries
... used 4.0554800033569 seconds
Scheduled task complete: Background processing for question engine
Execute scheduled task: Forum mailings and maintenance jobs
... started 15:01:06. Current memory use 31.3MB.
Starting digest processing...
Cleaned old digest records
... used 6 dbqueries
... used 0.054573774337769 seconds
Scheduled task complete: Forum mailings and maintenance jobs
Execute scheduled task: Incoming email pickup
... started 15:01:06. Current memory use 31.9MB.
Inbound Message not fully configured - exiting early.
... used 0 dbqueries
... used 0.0026001930236816 seconds
Scheduled task complete: Incoming email pickup
Execute scheduled task: Removes any unnecessary event monitor events
... started 15:01:06. Current memory use 32.2MB.
... used 0 dbqueries
... used 0.00096702575683594 seconds
Scheduled task complete: Removes any unnecessary event monitor events
Cron script completed correctly
Cron completed at 15:01:06. Memory used 32.2MB.
Execution took 5.080575 seconds
