Server Time: Thu, 31 Mar 2016 17:56:01 +0000


Execute scheduled task: Cleanup old sessions
... started 17:56:01. Current memory use 16.8MB.
... used 36 dbqueries
... used 0.20594000816345 seconds
Scheduled task complete: Cleanup old sessions
Execute scheduled task: Send new user passwords
... started 17:56:01. Current memory use 18.2MB.
... used 1 dbqueries
... used 0.071330070495605 seconds
Scheduled task complete: Send new user passwords
Execute scheduled task: Send failed login notifications
... started 17:56:01. Current memory use 18.2MB.
... used 0 dbqueries
... used 5.2928924560547E-5 seconds
Scheduled task complete: Send failed login notifications
Execute scheduled task: Background processing for gradebook
... started 17:56:01. Current memory use 18.3MB.
... used 2 dbqueries
... used 0.020895957946777 seconds
Scheduled task complete: Background processing for gradebook
Execute scheduled task: Background processing for events
... started 17:56:01. Current memory use 19.5MB.
... used 2 dbqueries
... used 0.00130295753479 seconds
Scheduled task complete: Background processing for events
Execute scheduled task: Calculate completion data
... started 17:56:01. Current memory use 19.5MB.
... used 7 dbqueries
... used 0.13286709785461 seconds
Scheduled task complete: Calculate completion data
Execute scheduled task: Background processing for portfolio plugins
... started 17:56:02. Current memory use 24.5MB.
... used 0 dbqueries
... used 9.2029571533203E-5 seconds
Scheduled task complete: Background processing for portfolio plugins
Execute scheduled task: Background processing for plagiarism plugins
... started 17:56:02. Current memory use 24.5MB.
... used 0 dbqueries
... used 0.00060701370239258 seconds
Scheduled task complete: Background processing for plagiarism plugins
Execute scheduled task: Send calendar notifications
... started 17:56:02. Current memory use 24.6MB.
Updating calendar subscriptions:
... started 17:56:02. Current memory use 26MB.
Finished updating calendar subscriptions.
... used 1 dbqueries
... used 0.019229888916016 seconds
Scheduled task complete: Send calendar notifications
Execute scheduled task: Sync external blogs
... started 17:56:02. Current memory use 26MB.
... used 2 dbqueries
... used 0.011959075927734 seconds
Scheduled task complete: Sync external blogs
Execute scheduled task: Background processing for question engine
... started 17:56:02. Current memory use 26.5MB.

  Cleaning up old question previews...done.

  Cleaning up old question statistics cache records...done.
... used 6 dbqueries
... used 2.3714869022369 seconds
Scheduled task complete: Background processing for question engine
Execute scheduled task: Forum mailings and maintenance jobs
... started 17:56:04. Current memory use 31.3MB.
Starting digest processing...
Cleaned old digest records
... used 6 dbqueries
... used 0.053032875061035 seconds
Scheduled task complete: Forum mailings and maintenance jobs
Execute scheduled task: Incoming email pickup
... started 17:56:04. Current memory use 31.9MB.
Inbound Message not fully configured - exiting early.
... used 0 dbqueries
... used 0.0025010108947754 seconds
Scheduled task complete: Incoming email pickup
Execute scheduled task: Removes any unnecessary event monitor events
... started 17:56:04. Current memory use 32.2MB.
... used 0 dbqueries
... used 0.00089812278747559 seconds
Scheduled task complete: Removes any unnecessary event monitor events
Cron script completed correctly
Cron completed at 17:56:04. Memory used 32.2MB.
Execution took 3.272537 seconds
