Server Time: Fri, 01 Apr 2016 05:12:01 +0000


Execute scheduled task: Cleanup old sessions
... started 05:12:02. Current memory use 16.8MB.
... used 73 dbqueries
... used 1.9944000244141 seconds
Scheduled task complete: Cleanup old sessions
Execute scheduled task: Send new user passwords
... started 05:12:04. Current memory use 18.2MB.
... used 1 dbqueries
... used 0.071476936340332 seconds
Scheduled task complete: Send new user passwords
Execute scheduled task: Send failed login notifications
... started 05:12:04. Current memory use 18.2MB.
... used 0 dbqueries
... used 5.1975250244141E-5 seconds
Scheduled task complete: Send failed login notifications
Execute scheduled task: Background processing for gradebook
... started 05:12:04. Current memory use 18.3MB.
... used 2 dbqueries
... used 0.036190032958984 seconds
Scheduled task complete: Background processing for gradebook
Execute scheduled task: Background processing for events
... started 05:12:04. Current memory use 19.5MB.
... used 2 dbqueries
... used 0.019752979278564 seconds
Scheduled task complete: Background processing for events
Execute scheduled task: Calculate completion data
... started 05:12:04. Current memory use 19.5MB.
... used 7 dbqueries
... used 0.093824863433838 seconds
Scheduled task complete: Calculate completion data
Execute scheduled task: Background processing for portfolio plugins
... started 05:12:04. Current memory use 24.5MB.
... used 0 dbqueries
... used 4.1961669921875E-5 seconds
Scheduled task complete: Background processing for portfolio plugins
Execute scheduled task: Background processing for plagiarism plugins
... started 05:12:04. Current memory use 24.5MB.
... used 0 dbqueries
... used 0.00059199333190918 seconds
Scheduled task complete: Background processing for plagiarism plugins
Execute scheduled task: Send calendar notifications
... started 05:12:04. Current memory use 24.6MB.
Updating calendar subscriptions:
... started 05:12:04. Current memory use 26MB.
Finished updating calendar subscriptions.
... used 1 dbqueries
... used 0.016915082931519 seconds
Scheduled task complete: Send calendar notifications
Execute scheduled task: Sync external blogs
... started 05:12:04. Current memory use 26MB.
... used 2 dbqueries
... used 0.0093278884887695 seconds
Scheduled task complete: Sync external blogs
Execute scheduled task: Background processing for question engine
... started 05:12:04. Current memory use 26.5MB.

  Cleaning up old question previews...done.

  Cleaning up old question statistics cache records...done.
... used 6 dbqueries
... used 2.8142478466034 seconds
Scheduled task complete: Background processing for question engine
Execute scheduled task: Forum mailings and maintenance jobs
... started 05:12:07. Current memory use 31.3MB.
Starting digest processing...
Cleaned old digest records
... used 6 dbqueries
... used 0.053622961044312 seconds
Scheduled task complete: Forum mailings and maintenance jobs
Execute scheduled task: Incoming email pickup
... started 05:12:07. Current memory use 31.9MB.
Inbound Message not fully configured - exiting early.
... used 0 dbqueries
... used 0.0025801658630371 seconds
Scheduled task complete: Incoming email pickup
Execute scheduled task: Removes any unnecessary event monitor events
... started 05:12:07. Current memory use 32.2MB.
... used 0 dbqueries
... used 0.00093197822570801 seconds
Scheduled task complete: Removes any unnecessary event monitor events
Cron script completed correctly
Cron completed at 05:12:07. Memory used 32.2MB.
Execution took 5.731043 seconds
