Server Time: Sun, 10 Apr 2016 18:30:01 +0000


Execute scheduled task: Cleanup old sessions
... started 18:30:01. Current memory use 16.8MB.
... used 81 dbqueries
... used 0.46141004562378 seconds
Scheduled task complete: Cleanup old sessions
Execute scheduled task: Remove expired cache entries
... started 18:30:02. Current memory use 18.2MB.
... used 1 dbqueries
... used 0.011808156967163 seconds
Scheduled task complete: Remove expired cache entries
Execute scheduled task: Send new user passwords
... started 18:30:02. Current memory use 18.2MB.
... used 1 dbqueries
... used 0.075362920761108 seconds
Scheduled task complete: Send new user passwords
Execute scheduled task: Send failed login notifications
... started 18:30:02. Current memory use 18.3MB.
... used 0 dbqueries
... used 5.8889389038086E-5 seconds
Scheduled task complete: Send failed login notifications
Execute scheduled task: Background processing for gradebook
... started 18:30:02. Current memory use 18.3MB.
... used 2 dbqueries
... used 0.019173145294189 seconds
Scheduled task complete: Background processing for gradebook
Execute scheduled task: Background processing for events
... started 18:30:02. Current memory use 19.5MB.
... used 2 dbqueries
... used 0.0013189315795898 seconds
Scheduled task complete: Background processing for events
Execute scheduled task: Calculate completion data
... started 18:30:02. Current memory use 19.5MB.
... used 7 dbqueries
... used 0.094202041625977 seconds
Scheduled task complete: Calculate completion data
Execute scheduled task: Background processing for portfolio plugins
... started 18:30:02. Current memory use 24.5MB.
... used 0 dbqueries
... used 4.1007995605469E-5 seconds
Scheduled task complete: Background processing for portfolio plugins
Execute scheduled task: Background processing for plagiarism plugins
... started 18:30:02. Current memory use 24.6MB.
... used 0 dbqueries
... used 0.00062918663024902 seconds
Scheduled task complete: Background processing for plagiarism plugins
Execute scheduled task: Send calendar notifications
... started 18:30:02. Current memory use 24.6MB.
Updating calendar subscriptions:
... started 18:30:02. Current memory use 26MB.
Finished updating calendar subscriptions.
... used 1 dbqueries
... used 0.017426013946533 seconds
Scheduled task complete: Send calendar notifications
Execute scheduled task: Sync external blogs
... started 18:30:02. Current memory use 26MB.
... used 2 dbqueries
... used 0.0099871158599854 seconds
Scheduled task complete: Sync external blogs
Execute scheduled task: Background processing for question engine
... started 18:30:02. Current memory use 26.5MB.

  Cleaning up old question previews...done.

  Cleaning up old question statistics cache records...done.
... used 6 dbqueries
... used 3.6324019432068 seconds
Scheduled task complete: Background processing for question engine
Execute scheduled task: Forum mailings and maintenance jobs
... started 18:30:06. Current memory use 31.3MB.
Starting digest processing...
Cleaned old digest records
... used 6 dbqueries
... used 0.052722930908203 seconds
Scheduled task complete: Forum mailings and maintenance jobs
Execute scheduled task: Incoming email pickup
... started 18:30:06. Current memory use 32MB.
Inbound Message not fully configured - exiting early.
... used 0 dbqueries
... used 0.0025248527526855 seconds
Scheduled task complete: Incoming email pickup
Execute scheduled task: Removes any unnecessary event monitor events
... started 18:30:06. Current memory use 32.2MB.
... used 0 dbqueries
... used 0.00086188316345215 seconds
Scheduled task complete: Removes any unnecessary event monitor events
Cron script completed correctly
Cron completed at 18:30:06. Memory used 32.2MB.
Execution took 4.874906 seconds
