Server Time: Mon, 16 May 2016 13:55:01 +0000


Execute scheduled task: Cleanup old sessions
... started 13:55:01. Current memory use 16.8MB.
... used 212 dbqueries
... used 1.1843049526215 seconds
Scheduled task complete: Cleanup old sessions
Execute scheduled task: Send new user passwords
... started 13:55:02. Current memory use 18.2MB.
... used 1 dbqueries
... used 0.078298091888428 seconds
Scheduled task complete: Send new user passwords
Execute scheduled task: Send failed login notifications
... started 13:55:03. Current memory use 18.2MB.
... used 0 dbqueries
... used 5.6982040405273E-5 seconds
Scheduled task complete: Send failed login notifications
Execute scheduled task: Background processing for gradebook
... started 13:55:03. Current memory use 18.3MB.
... used 2 dbqueries
... used 0.019588947296143 seconds
Scheduled task complete: Background processing for gradebook
Execute scheduled task: Background processing for events
... started 13:55:03. Current memory use 19.5MB.
... used 2 dbqueries
... used 0.022660970687866 seconds
Scheduled task complete: Background processing for events
Execute scheduled task: Calculate completion data
... started 13:55:03. Current memory use 19.5MB.
... used 7 dbqueries
... used 0.093958854675293 seconds
Scheduled task complete: Calculate completion data
Execute scheduled task: Background processing for portfolio plugins
... started 13:55:03. Current memory use 24.5MB.
... used 0 dbqueries
... used 4.1961669921875E-5 seconds
Scheduled task complete: Background processing for portfolio plugins
Execute scheduled task: Background processing for plagiarism plugins
... started 13:55:03. Current memory use 24.5MB.
... used 0 dbqueries
... used 0.00063085556030273 seconds
Scheduled task complete: Background processing for plagiarism plugins
Execute scheduled task: Send calendar notifications
... started 13:55:03. Current memory use 24.6MB.
Updating calendar subscriptions:
... started 13:55:03. Current memory use 26MB.
Finished updating calendar subscriptions.
... used 1 dbqueries
... used 0.016845941543579 seconds
Scheduled task complete: Send calendar notifications
Execute scheduled task: Sync external blogs
... started 13:55:03. Current memory use 26MB.
... used 2 dbqueries
... used 0.0094339847564697 seconds
Scheduled task complete: Sync external blogs
Execute scheduled task: Background processing for question engine
... started 13:55:03. Current memory use 26.5MB.

  Cleaning up old question previews...done.

  Cleaning up old question statistics cache records...done.
... used 6 dbqueries
... used 6.8711879253387 seconds
Scheduled task complete: Background processing for question engine
Execute scheduled task: Forum mailings and maintenance jobs
... started 13:55:10. Current memory use 31.3MB.
Starting digest processing...
Cleaned old digest records
... used 6 dbqueries
... used 0.060028076171875 seconds
Scheduled task complete: Forum mailings and maintenance jobs
Execute scheduled task: Incoming email pickup
... started 13:55:10. Current memory use 31.9MB.
Inbound Message not fully configured - exiting early.
... used 0 dbqueries
... used 0.0032839775085449 seconds
Scheduled task complete: Incoming email pickup
Execute scheduled task: Removes any unnecessary event monitor events
... started 13:55:10. Current memory use 32.2MB.
... used 0 dbqueries
... used 0.0011279582977295 seconds
Scheduled task complete: Removes any unnecessary event monitor events
Cron script completed correctly
Cron completed at 13:55:10. Memory used 32.2MB.
Execution took 8.948178 seconds
