Server Time: Tue, 22 Mar 2016 18:27:02 +0000


Execute scheduled task: Cleanup old sessions
... started 18:27:02. Current memory use 16.8MB.
... used 87 dbqueries
... used 0.39511704444885 seconds
Scheduled task complete: Cleanup old sessions
Execute scheduled task: Send new user passwords
... started 18:27:02. Current memory use 18.2MB.
... used 1 dbqueries
... used 0.066939115524292 seconds
Scheduled task complete: Send new user passwords
Execute scheduled task: Send failed login notifications
... started 18:27:02. Current memory use 18.2MB.
... used 0 dbqueries
... used 4.8160552978516E-5 seconds
Scheduled task complete: Send failed login notifications
Execute scheduled task: Background processing for gradebook
... started 18:27:02. Current memory use 18.3MB.
... used 2 dbqueries
... used 0.018589019775391 seconds
Scheduled task complete: Background processing for gradebook
Execute scheduled task: Background processing for events
... started 18:27:02. Current memory use 19.5MB.
... used 2 dbqueries
... used 0.0013008117675781 seconds
Scheduled task complete: Background processing for events
Execute scheduled task: Calculate completion data
... started 18:27:02. Current memory use 19.5MB.
... used 7 dbqueries
... used 0.085707187652588 seconds
Scheduled task complete: Calculate completion data
Execute scheduled task: Background processing for portfolio plugins
... started 18:27:02. Current memory use 24.5MB.
... used 0 dbqueries
... used 3.8862228393555E-5 seconds
Scheduled task complete: Background processing for portfolio plugins
Execute scheduled task: Background processing for plagiarism plugins
... started 18:27:02. Current memory use 24.5MB.
... used 0 dbqueries
... used 0.00052213668823242 seconds
Scheduled task complete: Background processing for plagiarism plugins
Execute scheduled task: Send calendar notifications
... started 18:27:02. Current memory use 24.6MB.
Updating calendar subscriptions:
... started 18:27:02. Current memory use 26MB.
Finished updating calendar subscriptions.
... used 1 dbqueries
... used 0.017116069793701 seconds
Scheduled task complete: Send calendar notifications
Execute scheduled task: Sync external blogs
... started 18:27:02. Current memory use 26MB.
... used 2 dbqueries
... used 0.009915828704834 seconds
Scheduled task complete: Sync external blogs
Execute scheduled task: Background processing for question engine
... started 18:27:02. Current memory use 26.5MB.

  Cleaning up old question previews...done.

  Cleaning up old question statistics cache records...done.
... used 6 dbqueries
... used 2.8005471229553 seconds
Scheduled task complete: Background processing for question engine
Execute scheduled task: Forum mailings and maintenance jobs
... started 18:27:05. Current memory use 31.3MB.
Starting digest processing...
Cleaned old digest records
... used 6 dbqueries
... used 0.052536010742188 seconds
Scheduled task complete: Forum mailings and maintenance jobs
Execute scheduled task: Incoming email pickup
... started 18:27:05. Current memory use 31.9MB.
Inbound Message not fully configured - exiting early.
... used 0 dbqueries
... used 0.0024840831756592 seconds
Scheduled task complete: Incoming email pickup
Execute scheduled task: Removes any unnecessary event monitor events
... started 18:27:05. Current memory use 32.2MB.
... used 0 dbqueries
... used 0.00091409683227539 seconds
Scheduled task complete: Removes any unnecessary event monitor events
Cron script completed correctly
Cron completed at 18:27:05. Memory used 32.2MB.
Execution took 3.756035 seconds
