Server Time: Thu, 07 Apr 2016 01:14:02 +0000


Execute scheduled task: Cleanup old sessions
... started 01:14:02. Current memory use 16.8MB.
... used 52 dbqueries
... used 0.24625897407532 seconds
Scheduled task complete: Cleanup old sessions
Execute scheduled task: Send new user passwords
... started 01:14:02. Current memory use 18.2MB.
... used 1 dbqueries
... used 0.05771803855896 seconds
Scheduled task complete: Send new user passwords
Execute scheduled task: Send failed login notifications
... started 01:14:02. Current memory use 18.2MB.
... used 0 dbqueries
... used 5.1021575927734E-5 seconds
Scheduled task complete: Send failed login notifications
Execute scheduled task: Background processing for gradebook
... started 01:14:02. Current memory use 18.3MB.
... used 2 dbqueries
... used 0.019004106521606 seconds
Scheduled task complete: Background processing for gradebook
Execute scheduled task: Background processing for events
... started 01:14:02. Current memory use 19.5MB.
... used 2 dbqueries
... used 0.0011579990386963 seconds
Scheduled task complete: Background processing for events
Execute scheduled task: Calculate completion data
... started 01:14:02. Current memory use 19.5MB.
... used 7 dbqueries
... used 0.085989952087402 seconds
Scheduled task complete: Calculate completion data
Execute scheduled task: Background processing for portfolio plugins
... started 01:14:02. Current memory use 24.5MB.
... used 0 dbqueries
... used 5.2928924560547E-5 seconds
Scheduled task complete: Background processing for portfolio plugins
Execute scheduled task: Background processing for plagiarism plugins
... started 01:14:02. Current memory use 24.5MB.
... used 0 dbqueries
... used 0.00055408477783203 seconds
Scheduled task complete: Background processing for plagiarism plugins
Execute scheduled task: Send calendar notifications
... started 01:14:02. Current memory use 24.6MB.
Updating calendar subscriptions:
... started 01:14:02. Current memory use 26MB.
Finished updating calendar subscriptions.
... used 1 dbqueries
... used 0.016848087310791 seconds
Scheduled task complete: Send calendar notifications
Execute scheduled task: Sync external blogs
... started 01:14:02. Current memory use 26MB.
... used 2 dbqueries
... used 0.0088620185852051 seconds
Scheduled task complete: Sync external blogs
Execute scheduled task: Background processing for question engine
... started 01:14:02. Current memory use 26.5MB.

  Cleaning up old question previews...done.

  Cleaning up old question statistics cache records...done.
... used 6 dbqueries
... used 5.630805015564 seconds
Scheduled task complete: Background processing for question engine
Execute scheduled task: Forum mailings and maintenance jobs
... started 01:14:08. Current memory use 31.3MB.
Starting digest processing...
Cleaned old digest records
... used 6 dbqueries
... used 0.054183959960938 seconds
Scheduled task complete: Forum mailings and maintenance jobs
Execute scheduled task: Incoming email pickup
... started 01:14:08. Current memory use 31.9MB.
Inbound Message not fully configured - exiting early.
... used 0 dbqueries
... used 0.0025777816772461 seconds
Scheduled task complete: Incoming email pickup
Execute scheduled task: Removes any unnecessary event monitor events
... started 01:14:08. Current memory use 32.2MB.
... used 0 dbqueries
... used 0.00095486640930176 seconds
Scheduled task complete: Removes any unnecessary event monitor events
Cron script completed correctly
Cron completed at 01:14:08. Memory used 32.2MB.
Execution took 6.436291 seconds
