Server Time: Sat, 07 May 2016 11:38:01 +0000


Execute scheduled task: Cleanup old sessions
... started 11:38:01. Current memory use 16.8MB.
... used 88 dbqueries
... used 0.42586398124695 seconds
Scheduled task complete: Cleanup old sessions
Execute scheduled task: Send new user passwords
... started 11:38:02. Current memory use 18.2MB.
... used 1 dbqueries
... used 0.077463150024414 seconds
Scheduled task complete: Send new user passwords
Execute scheduled task: Send failed login notifications
... started 11:38:02. Current memory use 18.2MB.
... used 0 dbqueries
... used 5.5074691772461E-5 seconds
Scheduled task complete: Send failed login notifications
Execute scheduled task: Background processing for gradebook
... started 11:38:02. Current memory use 18.3MB.
... used 2 dbqueries
... used 0.02020001411438 seconds
Scheduled task complete: Background processing for gradebook
Execute scheduled task: Background processing for events
... started 11:38:02. Current memory use 19.5MB.
... used 2 dbqueries
... used 0.0013608932495117 seconds
Scheduled task complete: Background processing for events
Execute scheduled task: Calculate completion data
... started 11:38:02. Current memory use 19.5MB.
... used 7 dbqueries
... used 0.090667963027954 seconds
Scheduled task complete: Calculate completion data
Execute scheduled task: Background processing for portfolio plugins
... started 11:38:02. Current memory use 24.5MB.
... used 0 dbqueries
... used 4.2915344238281E-5 seconds
Scheduled task complete: Background processing for portfolio plugins
Execute scheduled task: Background processing for plagiarism plugins
... started 11:38:02. Current memory use 24.5MB.
... used 0 dbqueries
... used 0.00088882446289062 seconds
Scheduled task complete: Background processing for plagiarism plugins
Execute scheduled task: Send calendar notifications
... started 11:38:02. Current memory use 24.6MB.
Updating calendar subscriptions:
... started 11:38:02. Current memory use 26MB.
Finished updating calendar subscriptions.
... used 1 dbqueries
... used 0.017107963562012 seconds
Scheduled task complete: Send calendar notifications
Execute scheduled task: Sync external blogs
... started 11:38:02. Current memory use 26MB.
... used 2 dbqueries
... used 0.0094199180603027 seconds
Scheduled task complete: Sync external blogs
Execute scheduled task: Background processing for question engine
... started 11:38:02. Current memory use 26.5MB.

  Cleaning up old question previews...done.

  Cleaning up old question statistics cache records...done.
... used 6 dbqueries
... used 6.7294580936432 seconds
Scheduled task complete: Background processing for question engine
Execute scheduled task: Forum mailings and maintenance jobs
... started 11:38:09. Current memory use 31.3MB.
Starting digest processing...
Cleaned old digest records
... used 6 dbqueries
... used 0.053060054779053 seconds
Scheduled task complete: Forum mailings and maintenance jobs
Execute scheduled task: Incoming email pickup
... started 11:38:09. Current memory use 31.9MB.
Inbound Message not fully configured - exiting early.
... used 0 dbqueries
... used 0.0025529861450195 seconds
Scheduled task complete: Incoming email pickup
Execute scheduled task: Removes any unnecessary event monitor events
... started 11:38:09. Current memory use 32.2MB.
... used 0 dbqueries
... used 0.00088810920715332 seconds
Scheduled task complete: Removes any unnecessary event monitor events
Cron script completed correctly
Cron completed at 11:38:09. Memory used 32.2MB.
Execution took 7.72552 seconds
