Server Time: Mon, 02 May 2016 07:51:02 +0000


Execute scheduled task: Cleanup old sessions
... started 07:51:02. Current memory use 16.8MB.
... used 79 dbqueries
... used 0.40031480789185 seconds
Scheduled task complete: Cleanup old sessions
Execute scheduled task: Send new user passwords
... started 07:51:02. Current memory use 18.2MB.
... used 1 dbqueries
... used 0.091539859771729 seconds
Scheduled task complete: Send new user passwords
Execute scheduled task: Send failed login notifications
... started 07:51:02. Current memory use 18.2MB.
... used 0 dbqueries
... used 5.793571472168E-5 seconds
Scheduled task complete: Send failed login notifications
Execute scheduled task: Background processing for gradebook
... started 07:51:02. Current memory use 18.3MB.
... used 2 dbqueries
... used 0.019457101821899 seconds
Scheduled task complete: Background processing for gradebook
Execute scheduled task: Background processing for events
... started 07:51:02. Current memory use 19.5MB.
... used 2 dbqueries
... used 0.0013589859008789 seconds
Scheduled task complete: Background processing for events
Execute scheduled task: Calculate completion data
... started 07:51:02. Current memory use 19.5MB.
... used 7 dbqueries
... used 0.093332052230835 seconds
Scheduled task complete: Calculate completion data
Execute scheduled task: Background processing for portfolio plugins
... started 07:51:02. Current memory use 24.5MB.
... used 0 dbqueries
... used 4.0054321289062E-5 seconds
Scheduled task complete: Background processing for portfolio plugins
Execute scheduled task: Background processing for plagiarism plugins
... started 07:51:02. Current memory use 24.5MB.
... used 0 dbqueries
... used 0.00051403045654297 seconds
Scheduled task complete: Background processing for plagiarism plugins
Execute scheduled task: Send calendar notifications
... started 07:51:02. Current memory use 24.6MB.
Updating calendar subscriptions:
... started 07:51:02. Current memory use 26MB.
Finished updating calendar subscriptions.
... used 1 dbqueries
... used 0.017101049423218 seconds
Scheduled task complete: Send calendar notifications
Execute scheduled task: Sync external blogs
... started 07:51:02. Current memory use 26MB.
... used 2 dbqueries
... used 0.0094189643859863 seconds
Scheduled task complete: Sync external blogs
Execute scheduled task: Background processing for question engine
... started 07:51:02. Current memory use 26.5MB.

  Cleaning up old question previews...done.

  Cleaning up old question statistics cache records...done.
... used 6 dbqueries
... used 7.7052891254425 seconds
Scheduled task complete: Background processing for question engine
Execute scheduled task: Forum mailings and maintenance jobs
... started 07:51:10. Current memory use 31.3MB.
Starting digest processing...
Cleaned old digest records
... used 6 dbqueries
... used 0.054548978805542 seconds
Scheduled task complete: Forum mailings and maintenance jobs
Execute scheduled task: Incoming email pickup
... started 07:51:10. Current memory use 31.9MB.
Inbound Message not fully configured - exiting early.
... used 0 dbqueries
... used 0.0025279521942139 seconds
Scheduled task complete: Incoming email pickup
Execute scheduled task: Removes any unnecessary event monitor events
... started 07:51:10. Current memory use 32.2MB.
... used 0 dbqueries
... used 0.0009770393371582 seconds
Scheduled task complete: Removes any unnecessary event monitor events
Cron script completed correctly
Cron completed at 07:51:10. Memory used 32.2MB.
Execution took 8.707184 seconds
