Server Time: Sat, 07 May 2016 08:36:01 +0000


Execute scheduled task: Cleanup old sessions
... started 08:36:01. Current memory use 16.8MB.
... used 71 dbqueries
... used 0.36792588233948 seconds
Scheduled task complete: Cleanup old sessions
Execute scheduled task: Send new user passwords
... started 08:36:02. Current memory use 18.2MB.
... used 1 dbqueries
... used 0.069864988327026 seconds
Scheduled task complete: Send new user passwords
Execute scheduled task: Send failed login notifications
... started 08:36:02. Current memory use 18.2MB.
... used 0 dbqueries
... used 5.1975250244141E-5 seconds
Scheduled task complete: Send failed login notifications
Execute scheduled task: Background processing for gradebook
... started 08:36:02. Current memory use 18.3MB.
... used 2 dbqueries
... used 0.018996953964233 seconds
Scheduled task complete: Background processing for gradebook
Execute scheduled task: Background processing for events
... started 08:36:02. Current memory use 19.5MB.
... used 2 dbqueries
... used 0.0013449192047119 seconds
Scheduled task complete: Background processing for events
Execute scheduled task: Calculate completion data
... started 08:36:02. Current memory use 19.5MB.
... used 7 dbqueries
... used 0.089609146118164 seconds
Scheduled task complete: Calculate completion data
Execute scheduled task: Background processing for portfolio plugins
... started 08:36:02. Current memory use 24.5MB.
... used 0 dbqueries
... used 4.0054321289062E-5 seconds
Scheduled task complete: Background processing for portfolio plugins
Execute scheduled task: Background processing for plagiarism plugins
... started 08:36:02. Current memory use 24.5MB.
... used 0 dbqueries
... used 0.00059008598327637 seconds
Scheduled task complete: Background processing for plagiarism plugins
Execute scheduled task: Send calendar notifications
... started 08:36:02. Current memory use 24.6MB.
Updating calendar subscriptions:
... started 08:36:02. Current memory use 26MB.
Finished updating calendar subscriptions.
... used 1 dbqueries
... used 0.016886949539185 seconds
Scheduled task complete: Send calendar notifications
Execute scheduled task: Sync external blogs
... started 08:36:02. Current memory use 26MB.
... used 2 dbqueries
... used 0.0090980529785156 seconds
Scheduled task complete: Sync external blogs
Execute scheduled task: Background processing for question engine
... started 08:36:02. Current memory use 26.5MB.

  Cleaning up old question previews...done.

  Cleaning up old question statistics cache records...done.
... used 6 dbqueries
... used 3.0512788295746 seconds
Scheduled task complete: Background processing for question engine
Execute scheduled task: Forum mailings and maintenance jobs
... started 08:36:05. Current memory use 31.3MB.
Starting digest processing...
Cleaned old digest records
... used 6 dbqueries
... used 0.053709983825684 seconds
Scheduled task complete: Forum mailings and maintenance jobs
Execute scheduled task: Incoming email pickup
... started 08:36:05. Current memory use 31.9MB.
Inbound Message not fully configured - exiting early.
... used 0 dbqueries
... used 0.0025820732116699 seconds
Scheduled task complete: Incoming email pickup
Execute scheduled task: Removes any unnecessary event monitor events
... started 08:36:05. Current memory use 32.2MB.
... used 0 dbqueries
... used 0.00092196464538574 seconds
Scheduled task complete: Removes any unnecessary event monitor events
Cron script completed correctly
Cron completed at 08:36:05. Memory used 32.2MB.
Execution took 3.964229 seconds
