Server Time: Wed, 16 Mar 2016 08:59:02 +0000


Execute scheduled task: Cleanup old sessions
... started 08:59:02. Current memory use 16.8MB.
... used 45 dbqueries
... used 0.35747909545898 seconds
Scheduled task complete: Cleanup old sessions
Execute scheduled task: Send new user passwords
... started 08:59:02. Current memory use 18.2MB.
... used 1 dbqueries
... used 0.067999839782715 seconds
Scheduled task complete: Send new user passwords
Execute scheduled task: Send failed login notifications
... started 08:59:02. Current memory use 18.2MB.
... used 0 dbqueries
... used 5.1021575927734E-5 seconds
Scheduled task complete: Send failed login notifications
Execute scheduled task: Background processing for gradebook
... started 08:59:02. Current memory use 18.3MB.
... used 2 dbqueries
... used 0.018736124038696 seconds
Scheduled task complete: Background processing for gradebook
Execute scheduled task: Background processing for events
... started 08:59:02. Current memory use 19.5MB.
... used 2 dbqueries
... used 0.0013511180877686 seconds
Scheduled task complete: Background processing for events
Execute scheduled task: Calculate completion data
... started 08:59:02. Current memory use 19.5MB.
... used 7 dbqueries
... used 0.09133505821228 seconds
Scheduled task complete: Calculate completion data
Execute scheduled task: Background processing for portfolio plugins
... started 08:59:02. Current memory use 24.5MB.
... used 0 dbqueries
... used 3.9815902709961E-5 seconds
Scheduled task complete: Background processing for portfolio plugins
Execute scheduled task: Background processing for plagiarism plugins
... started 08:59:02. Current memory use 24.5MB.
... used 0 dbqueries
... used 0.0006868839263916 seconds
Scheduled task complete: Background processing for plagiarism plugins
Execute scheduled task: Send calendar notifications
... started 08:59:02. Current memory use 24.6MB.
Updating calendar subscriptions:
... started 08:59:02. Current memory use 26MB.
Finished updating calendar subscriptions.
... used 1 dbqueries
... used 0.020197868347168 seconds
Scheduled task complete: Send calendar notifications
Execute scheduled task: Sync external blogs
... started 08:59:02. Current memory use 26MB.
... used 2 dbqueries
... used 0.011207103729248 seconds
Scheduled task complete: Sync external blogs
Execute scheduled task: Background processing for question engine
... started 08:59:02. Current memory use 26.5MB.

  Cleaning up old question previews...done.

  Cleaning up old question statistics cache records...done.
... used 6 dbqueries
... used 2.755352973938 seconds
Scheduled task complete: Background processing for question engine
Execute scheduled task: Forum mailings and maintenance jobs
... started 08:59:05. Current memory use 31.3MB.
Processing user 212140
Sending post 10188: Re: Serie 3, problem 3b
Processing user 154311
Sending post 10188: Re: Serie 3, problem 3b
Processing user 223327
Sending post 10188: Re: Serie 3, problem 3b
Processing user 218221
Processing user 219511
Sending post 10188: Re: Serie 3, problem 3b
4 users were sent post 10188, 'Re: Serie 3, problem 3b'
Starting digest processing...
Cleaned old digest records
... used 75 dbqueries
... used 1.1746051311493 seconds
Scheduled task complete: Forum mailings and maintenance jobs
Execute scheduled task: Incoming email pickup
... started 08:59:07. Current memory use 39.6MB.
Inbound Message not fully configured - exiting early.
... used 0 dbqueries
... used 0.0031509399414062 seconds
Scheduled task complete: Incoming email pickup
Execute scheduled task: Removes any unnecessary event monitor events
... started 08:59:07. Current memory use 39.8MB.
... used 0 dbqueries
... used 0.00010108947753906 seconds
Scheduled task complete: Removes any unnecessary event monitor events
Cron script completed correctly
Cron completed at 08:59:07. Memory used 39.9MB.
Execution took 4.831994 seconds
