Server Time: Tue, 17 May 2016 04:09:02 +0000


Execute scheduled task: Cleanup old sessions
... started 04:09:02. Current memory use 16.8MB.
... used 203 dbqueries
... used 0.80530095100403 seconds
Scheduled task complete: Cleanup old sessions
Execute scheduled task: Send new user passwords
... started 04:09:02. Current memory use 18.2MB.
... used 1 dbqueries
... used 0.06233286857605 seconds
Scheduled task complete: Send new user passwords
Execute scheduled task: Send failed login notifications
... started 04:09:02. Current memory use 18.2MB.
... used 0 dbqueries
... used 5.3167343139648E-5 seconds
Scheduled task complete: Send failed login notifications
Execute scheduled task: Background processing for gradebook
... started 04:09:02. Current memory use 18.3MB.
... used 2 dbqueries
... used 0.018872976303101 seconds
Scheduled task complete: Background processing for gradebook
Execute scheduled task: Background processing for events
... started 04:09:03. Current memory use 19.5MB.
... used 2 dbqueries
... used 0.0014159679412842 seconds
Scheduled task complete: Background processing for events
Execute scheduled task: Calculate completion data
... started 04:09:03. Current memory use 19.5MB.
... used 7 dbqueries
... used 0.08791184425354 seconds
Scheduled task complete: Calculate completion data
Execute scheduled task: Background processing for portfolio plugins
... started 04:09:03. Current memory use 24.5MB.
... used 0 dbqueries
... used 6.103515625E-5 seconds
Scheduled task complete: Background processing for portfolio plugins
Execute scheduled task: Background processing for plagiarism plugins
... started 04:09:03. Current memory use 24.5MB.
... used 0 dbqueries
... used 0.0005190372467041 seconds
Scheduled task complete: Background processing for plagiarism plugins
Execute scheduled task: Send calendar notifications
... started 04:09:03. Current memory use 24.6MB.
Updating calendar subscriptions:
... started 04:09:03. Current memory use 26MB.
Finished updating calendar subscriptions.
... used 1 dbqueries
... used 0.01886510848999 seconds
Scheduled task complete: Send calendar notifications
Execute scheduled task: Sync external blogs
... started 04:09:03. Current memory use 26MB.
... used 2 dbqueries
... used 0.0094020366668701 seconds
Scheduled task complete: Sync external blogs
Execute scheduled task: Background processing for question engine
... started 04:09:03. Current memory use 26.5MB.

  Cleaning up old question previews...done.

  Cleaning up old question statistics cache records...done.
... used 6 dbqueries
... used 2.8167338371277 seconds
Scheduled task complete: Background processing for question engine
Execute scheduled task: Forum mailings and maintenance jobs
... started 04:09:06. Current memory use 31.3MB.
Starting digest processing...
Cleaned old digest records
... used 6 dbqueries
... used 0.053789854049683 seconds
Scheduled task complete: Forum mailings and maintenance jobs
Execute scheduled task: Incoming email pickup
... started 04:09:06. Current memory use 31.9MB.
Inbound Message not fully configured - exiting early.
... used 0 dbqueries
... used 0.002485990524292 seconds
Scheduled task complete: Incoming email pickup
Execute scheduled task: Removes any unnecessary event monitor events
... started 04:09:06. Current memory use 32.2MB.
... used 0 dbqueries
... used 0.00091910362243652 seconds
Scheduled task complete: Removes any unnecessary event monitor events
Execute scheduled task: Log table cleanup
... started 04:09:06. Current memory use 32.2MB.
... used 0 dbqueries
... used 0.001788854598999 seconds
Scheduled task complete: Log table cleanup
Cron script completed correctly
Cron completed at 04:09:06. Memory used 32.2MB.
Execution took 4.173322 seconds
