Server Time: Wed, 11 May 2016 04:02:01 +0000


Execute scheduled task: Cleanup old sessions
... started 04:02:01. Current memory use 16.8MB.
... used 61 dbqueries
... used 0.49381303787231 seconds
Scheduled task complete: Cleanup old sessions
Execute scheduled task: Send new user passwords
... started 04:02:01. Current memory use 18.2MB.
... used 1 dbqueries
... used 0.061651945114136 seconds
Scheduled task complete: Send new user passwords
Execute scheduled task: Send failed login notifications
... started 04:02:02. Current memory use 18.2MB.
... used 0 dbqueries
... used 5.1975250244141E-5 seconds
Scheduled task complete: Send failed login notifications
Execute scheduled task: Background processing for gradebook
... started 04:02:02. Current memory use 18.3MB.
... used 2 dbqueries
... used 0.018588066101074 seconds
Scheduled task complete: Background processing for gradebook
Execute scheduled task: Background processing for events
... started 04:02:02. Current memory use 19.5MB.
... used 2 dbqueries
... used 0.0011849403381348 seconds
Scheduled task complete: Background processing for events
Execute scheduled task: Calculate completion data
... started 04:02:02. Current memory use 19.5MB.
... used 7 dbqueries
... used 0.084622144699097 seconds
Scheduled task complete: Calculate completion data
Execute scheduled task: Background processing for portfolio plugins
... started 04:02:02. Current memory use 24.5MB.
... used 0 dbqueries
... used 4.3869018554688E-5 seconds
Scheduled task complete: Background processing for portfolio plugins
Execute scheduled task: Background processing for plagiarism plugins
... started 04:02:02. Current memory use 24.5MB.
... used 0 dbqueries
... used 0.00053596496582031 seconds
Scheduled task complete: Background processing for plagiarism plugins
Execute scheduled task: Send calendar notifications
... started 04:02:02. Current memory use 24.6MB.
Updating calendar subscriptions:
... started 04:02:02. Current memory use 26MB.
Finished updating calendar subscriptions.
... used 1 dbqueries
... used 0.017418146133423 seconds
Scheduled task complete: Send calendar notifications
Execute scheduled task: Sync external blogs
... started 04:02:02. Current memory use 26MB.
... used 2 dbqueries
... used 0.0096819400787354 seconds
Scheduled task complete: Sync external blogs
Execute scheduled task: Background processing for question engine
... started 04:02:02. Current memory use 26.5MB.

  Cleaning up old question previews...done.

  Cleaning up old question statistics cache records...done.
... used 6 dbqueries
... used 5.4264209270477 seconds
Scheduled task complete: Background processing for question engine
Execute scheduled task: Forum mailings and maintenance jobs
... started 04:02:07. Current memory use 31.3MB.
Starting digest processing...
Cleaned old digest records
... used 6 dbqueries
... used 0.072144985198975 seconds
Scheduled task complete: Forum mailings and maintenance jobs
Execute scheduled task: Incoming email pickup
... started 04:02:07. Current memory use 31.9MB.
Inbound Message not fully configured - exiting early.
... used 0 dbqueries
... used 0.0033211708068848 seconds
Scheduled task complete: Incoming email pickup
Execute scheduled task: Removes any unnecessary event monitor events
... started 04:02:07. Current memory use 32.2MB.
... used 0 dbqueries
... used 0.001054048538208 seconds
Scheduled task complete: Removes any unnecessary event monitor events
Execute scheduled task: Log table cleanup
... started 04:02:07. Current memory use 32.2MB.
... used 0 dbqueries
... used 0.0010149478912354 seconds
Scheduled task complete: Log table cleanup
Cron script completed correctly
Cron completed at 04:02:08. Memory used 32.2MB.
Execution took 6.583084 seconds
