Server Time: Tue, 15 Mar 2016 12:09:02 +0000


Execute scheduled task: Cleanup old sessions
... started 12:09:02. Current memory use 16.8MB.
... used 80 dbqueries
... used 1.4617321491241 seconds
Scheduled task complete: Cleanup old sessions
Execute scheduled task: Send new user passwords
... started 12:09:03. Current memory use 18.2MB.
... used 1 dbqueries
... used 0.3531768321991 seconds
Scheduled task complete: Send new user passwords
Execute scheduled task: Send failed login notifications
... started 12:09:04. Current memory use 18.2MB.
... used 0 dbqueries
... used 9.7990036010742E-5 seconds
Scheduled task complete: Send failed login notifications
Execute scheduled task: Background processing for gradebook
... started 12:09:04. Current memory use 18.3MB.
... used 2 dbqueries
... used 0.027509212493896 seconds
Scheduled task complete: Background processing for gradebook
Execute scheduled task: Background processing for events
... started 12:09:04. Current memory use 19.5MB.
... used 2 dbqueries
... used 0.011454105377197 seconds
Scheduled task complete: Background processing for events
Execute scheduled task: Calculate completion data
... started 12:09:04. Current memory use 19.5MB.
... used 7 dbqueries
... used 0.19386601448059 seconds
Scheduled task complete: Calculate completion data
Execute scheduled task: Background processing for portfolio plugins
... started 12:09:04. Current memory use 24.5MB.
... used 0 dbqueries
... used 4.1007995605469E-5 seconds
Scheduled task complete: Background processing for portfolio plugins
Execute scheduled task: Background processing for plagiarism plugins
... started 12:09:04. Current memory use 24.5MB.
... used 0 dbqueries
... used 0.00065302848815918 seconds
Scheduled task complete: Background processing for plagiarism plugins
Execute scheduled task: Send calendar notifications
... started 12:09:04. Current memory use 24.6MB.
Updating calendar subscriptions:
... started 12:09:04. Current memory use 26MB.
Finished updating calendar subscriptions.
... used 1 dbqueries
... used 0.020219802856445 seconds
Scheduled task complete: Send calendar notifications
Execute scheduled task: Sync external blogs
... started 12:09:04. Current memory use 26MB.
... used 2 dbqueries
... used 0.022953033447266 seconds
Scheduled task complete: Sync external blogs
Execute scheduled task: Background processing for question engine
... started 12:09:04. Current memory use 26.5MB.

  Cleaning up old question previews...done.

  Cleaning up old question statistics cache records...done.
... used 6 dbqueries
... used 6.4657590389252 seconds
Scheduled task complete: Background processing for question engine
Execute scheduled task: Forum mailings and maintenance jobs
... started 12:09:11. Current memory use 31.3MB.
Starting digest processing...
Cleaned old digest records
... used 6 dbqueries
... used 0.091264009475708 seconds
Scheduled task complete: Forum mailings and maintenance jobs
Execute scheduled task: Incoming email pickup
... started 12:09:11. Current memory use 31.9MB.
Inbound Message not fully configured - exiting early.
... used 0 dbqueries
... used 0.0030150413513184 seconds
Scheduled task complete: Incoming email pickup
Execute scheduled task: Removes any unnecessary event monitor events
... started 12:09:11. Current memory use 32.2MB.
... used 0 dbqueries
... used 0.00092005729675293 seconds
Scheduled task complete: Removes any unnecessary event monitor events
Cron script completed correctly
Cron completed at 12:09:11. Memory used 32.2MB.
Execution took 9.762311 seconds
