Server Time: Wed, 09 Mar 2016 04:10:02 +0000


Execute scheduled task: Cleanup old sessions
... started 04:10:02. Current memory use 16.8MB.
... used 34 dbqueries
... used 0.21083903312683 seconds
Scheduled task complete: Cleanup old sessions
Execute scheduled task: Clean backup tables and logs
... started 04:10:02. Current memory use 18.2MB.
... used 2 dbqueries
... used 0.024333953857422 seconds
Scheduled task complete: Clean backup tables and logs
Execute scheduled task: Send new user passwords
... started 04:10:02. Current memory use 18.2MB.
... used 1 dbqueries
... used 0.059103965759277 seconds
Scheduled task complete: Send new user passwords
Execute scheduled task: Send failed login notifications
... started 04:10:02. Current memory use 18.3MB.
... used 0 dbqueries
... used 5.2928924560547E-5 seconds
Scheduled task complete: Send failed login notifications
Execute scheduled task: Background processing for gradebook
... started 04:10:02. Current memory use 18.3MB.
... used 2 dbqueries
... used 0.01868200302124 seconds
Scheduled task complete: Background processing for gradebook
Execute scheduled task: Background processing for events
... started 04:10:02. Current memory use 19.5MB.
... used 2 dbqueries
... used 0.0010480880737305 seconds
Scheduled task complete: Background processing for events
Execute scheduled task: Calculate completion data
... started 04:10:02. Current memory use 19.5MB.
... used 7 dbqueries
... used 0.084305047988892 seconds
Scheduled task complete: Calculate completion data
Execute scheduled task: Background processing for portfolio plugins
... started 04:10:02. Current memory use 24.5MB.
... used 0 dbqueries
... used 4.1007995605469E-5 seconds
Scheduled task complete: Background processing for portfolio plugins
Execute scheduled task: Background processing for plagiarism plugins
... started 04:10:02. Current memory use 24.6MB.
... used 0 dbqueries
... used 0.00057578086853027 seconds
Scheduled task complete: Background processing for plagiarism plugins
Execute scheduled task: Send calendar notifications
... started 04:10:02. Current memory use 24.6MB.
Updating calendar subscriptions:
... started 04:10:02. Current memory use 26MB.
Finished updating calendar subscriptions.
... used 1 dbqueries
... used 0.017267942428589 seconds
Scheduled task complete: Send calendar notifications
Execute scheduled task: Sync external blogs
... started 04:10:02. Current memory use 26MB.
... used 2 dbqueries
... used 0.0092248916625977 seconds
Scheduled task complete: Sync external blogs
Execute scheduled task: Background processing for question engine
... started 04:10:02. Current memory use 26.6MB.

  Cleaning up old question previews...done.

  Cleaning up old question statistics cache records...done.
... used 6 dbqueries
... used 2.8995018005371 seconds
Scheduled task complete: Background processing for question engine
Execute scheduled task: Forum mailings and maintenance jobs
... started 04:10:05. Current memory use 31.3MB.
Starting digest processing...
Cleaned old digest records
... used 6 dbqueries
... used 0.054669141769409 seconds
Scheduled task complete: Forum mailings and maintenance jobs
Execute scheduled task: Incoming email pickup
... started 04:10:06. Current memory use 32MB.
Inbound Message not fully configured - exiting early.
... used 0 dbqueries
... used 0.0026659965515137 seconds
Scheduled task complete: Incoming email pickup
Execute scheduled task: Removes any unnecessary event monitor events
... started 04:10:06. Current memory use 32.2MB.
... used 0 dbqueries
... used 0.0010120868682861 seconds
Scheduled task complete: Removes any unnecessary event monitor events
Execute scheduled task: Log table cleanup
... started 04:10:06. Current memory use 32.3MB.
... used 0 dbqueries
... used 0.014527082443237 seconds
Scheduled task complete: Log table cleanup
Cron script completed correctly
Cron completed at 04:10:06. Memory used 32.3MB.
Execution took 3.776403 seconds
