Server Time: Wed, 30 Mar 2016 16:49:01 +0000


Execute scheduled task: Cleanup old sessions
... started 16:49:01. Current memory use 16.8MB.
... used 68 dbqueries
... used 0.35224914550781 seconds
Scheduled task complete: Cleanup old sessions
Execute scheduled task: Send new user passwords
... started 16:49:01. Current memory use 18.2MB.
... used 1 dbqueries
... used 0.062798976898193 seconds
Scheduled task complete: Send new user passwords
Execute scheduled task: Send failed login notifications
... started 16:49:01. Current memory use 18.2MB.
... used 0 dbqueries
... used 4.887580871582E-5 seconds
Scheduled task complete: Send failed login notifications
Execute scheduled task: Background processing for gradebook
... started 16:49:01. Current memory use 18.3MB.
... used 2 dbqueries
... used 0.018783092498779 seconds
Scheduled task complete: Background processing for gradebook
Execute scheduled task: Background processing for events
... started 16:49:01. Current memory use 19.5MB.
... used 2 dbqueries
... used 0.0012919902801514 seconds
Scheduled task complete: Background processing for events
Execute scheduled task: Calculate completion data
... started 16:49:01. Current memory use 19.5MB.
... used 7 dbqueries
... used 0.090479850769043 seconds
Scheduled task complete: Calculate completion data
Execute scheduled task: Background processing for portfolio plugins
... started 16:49:02. Current memory use 24.5MB.
... used 0 dbqueries
... used 3.7908554077148E-5 seconds
Scheduled task complete: Background processing for portfolio plugins
Execute scheduled task: Background processing for plagiarism plugins
... started 16:49:02. Current memory use 24.5MB.
... used 0 dbqueries
... used 0.00051498413085938 seconds
Scheduled task complete: Background processing for plagiarism plugins
Execute scheduled task: Send calendar notifications
... started 16:49:02. Current memory use 24.6MB.
Updating calendar subscriptions:
... started 16:49:02. Current memory use 26MB.
Finished updating calendar subscriptions.
... used 1 dbqueries
... used 0.017164945602417 seconds
Scheduled task complete: Send calendar notifications
Execute scheduled task: Sync external blogs
... started 16:49:02. Current memory use 26MB.
... used 2 dbqueries
... used 0.0097270011901855 seconds
Scheduled task complete: Sync external blogs
Execute scheduled task: Background processing for question engine
... started 16:49:02. Current memory use 26.5MB.

  Cleaning up old question previews...done.

  Cleaning up old question statistics cache records...done.
... used 6 dbqueries
... used 2.7509200572968 seconds
Scheduled task complete: Background processing for question engine
Execute scheduled task: Forum mailings and maintenance jobs
... started 16:49:04. Current memory use 31.3MB.
Starting digest processing...
Cleaned old digest records
... used 6 dbqueries
... used 0.055734157562256 seconds
Scheduled task complete: Forum mailings and maintenance jobs
Execute scheduled task: Incoming email pickup
... started 16:49:05. Current memory use 31.9MB.
Inbound Message not fully configured - exiting early.
... used 0 dbqueries
... used 0.0024809837341309 seconds
Scheduled task complete: Incoming email pickup
Execute scheduled task: Removes any unnecessary event monitor events
... started 16:49:05. Current memory use 32.2MB.
... used 0 dbqueries
... used 0.00086498260498047 seconds
Scheduled task complete: Removes any unnecessary event monitor events
Cron script completed correctly
Cron completed at 16:49:05. Memory used 32.2MB.
Execution took 3.668597 seconds
