Server Time: Tue, 03 May 2016 22:40:02 +0000


Execute scheduled task: Cleanup old sessions
... started 22:40:02. Current memory use 16.8MB.
... used 54 dbqueries
... used 0.23132801055908 seconds
Scheduled task complete: Cleanup old sessions
Execute scheduled task: Send new user passwords
... started 22:40:02. Current memory use 18.2MB.
... used 1 dbqueries
... used 0.063212156295776 seconds
Scheduled task complete: Send new user passwords
Execute scheduled task: Send failed login notifications
... started 22:40:02. Current memory use 18.2MB.
... used 0 dbqueries
... used 5.3167343139648E-5 seconds
Scheduled task complete: Send failed login notifications
Execute scheduled task: Background processing for gradebook
... started 22:40:02. Current memory use 18.3MB.
... used 2 dbqueries
... used 0.018717050552368 seconds
Scheduled task complete: Background processing for gradebook
Execute scheduled task: Background processing for events
... started 22:40:02. Current memory use 19.5MB.
... used 2 dbqueries
... used 0.0012791156768799 seconds
Scheduled task complete: Background processing for events
Execute scheduled task: Calculate completion data
... started 22:40:02. Current memory use 19.5MB.
... used 7 dbqueries
... used 0.087340831756592 seconds
Scheduled task complete: Calculate completion data
Execute scheduled task: Background processing for portfolio plugins
... started 22:40:02. Current memory use 24.5MB.
... used 0 dbqueries
... used 4.3153762817383E-5 seconds
Scheduled task complete: Background processing for portfolio plugins
Execute scheduled task: Background processing for plagiarism plugins
... started 22:40:02. Current memory use 24.5MB.
... used 0 dbqueries
... used 0.00054502487182617 seconds
Scheduled task complete: Background processing for plagiarism plugins
Execute scheduled task: Send calendar notifications
... started 22:40:02. Current memory use 24.6MB.
Updating calendar subscriptions:
... started 22:40:02. Current memory use 26MB.
Finished updating calendar subscriptions.
... used 1 dbqueries
... used 0.016610860824585 seconds
Scheduled task complete: Send calendar notifications
Execute scheduled task: Sync external blogs
... started 22:40:02. Current memory use 26MB.
... used 2 dbqueries
... used 0.0091609954833984 seconds
Scheduled task complete: Sync external blogs
Execute scheduled task: Background processing for question engine
... started 22:40:02. Current memory use 26.5MB.

  Cleaning up old question previews...done.

  Cleaning up old question statistics cache records...done.
... used 6 dbqueries
... used 2.4567899703979 seconds
Scheduled task complete: Background processing for question engine
Execute scheduled task: Forum mailings and maintenance jobs
... started 22:40:05. Current memory use 31.3MB.
Starting digest processing...
Cleaned old digest records
... used 6 dbqueries
... used 0.05970287322998 seconds
Scheduled task complete: Forum mailings and maintenance jobs
Execute scheduled task: Incoming email pickup
... started 22:40:05. Current memory use 31.9MB.
Inbound Message not fully configured - exiting early.
... used 0 dbqueries
... used 0.0024929046630859 seconds
Scheduled task complete: Incoming email pickup
Execute scheduled task: Removes any unnecessary event monitor events
... started 22:40:05. Current memory use 32.2MB.
... used 0 dbqueries
... used 0.00091409683227539 seconds
Scheduled task complete: Removes any unnecessary event monitor events
Cron script completed correctly
Cron completed at 22:40:05. Memory used 32.2MB.
Execution took 3.240874 seconds
