Server Time: Fri, 11 Mar 2016 15:20:01 +0000


Execute scheduled task: Cleanup old sessions
... started 15:20:01. Current memory use 16.8MB.
... used 82 dbqueries
... used 0.43701195716858 seconds
Scheduled task complete: Cleanup old sessions
Execute scheduled task: Background processing for tags
... started 15:20:01. Current memory use 18.2MB.
... used 14 dbqueries
... used 0.063766956329346 seconds
Scheduled task complete: Background processing for tags
Execute scheduled task: Send new user passwords
... started 15:20:01. Current memory use 18.4MB.
... used 1 dbqueries
... used 0.070787906646729 seconds
Scheduled task complete: Send new user passwords
Execute scheduled task: Send failed login notifications
... started 15:20:02. Current memory use 18.4MB.
... used 0 dbqueries
... used 9.7036361694336E-5 seconds
Scheduled task complete: Send failed login notifications
Execute scheduled task: Background processing for gradebook
... started 15:20:02. Current memory use 18.5MB.
... used 2 dbqueries
... used 0.02289605140686 seconds
Scheduled task complete: Background processing for gradebook
Execute scheduled task: Background processing for events
... started 15:20:02. Current memory use 19.7MB.
... used 2 dbqueries
... used 0.001384973526001 seconds
Scheduled task complete: Background processing for events
Execute scheduled task: Calculate completion data
... started 15:20:02. Current memory use 19.7MB.
... used 7 dbqueries
... used 0.11210203170776 seconds
Scheduled task complete: Calculate completion data
Execute scheduled task: Background processing for portfolio plugins
... started 15:20:02. Current memory use 24.7MB.
... used 0 dbqueries
... used 5.6982040405273E-5 seconds
Scheduled task complete: Background processing for portfolio plugins
Execute scheduled task: Background processing for plagiarism plugins
... started 15:20:02. Current memory use 24.7MB.
... used 0 dbqueries
... used 0.00072598457336426 seconds
Scheduled task complete: Background processing for plagiarism plugins
Execute scheduled task: Send calendar notifications
... started 15:20:02. Current memory use 24.8MB.
Updating calendar subscriptions:
... started 15:20:02. Current memory use 26.2MB.
Finished updating calendar subscriptions.
... used 1 dbqueries
... used 0.021558046340942 seconds
Scheduled task complete: Send calendar notifications
Execute scheduled task: Sync external blogs
... started 15:20:02. Current memory use 26.2MB.
... used 2 dbqueries
... used 0.0078229904174805 seconds
Scheduled task complete: Sync external blogs
Execute scheduled task: Background processing for question engine
... started 15:20:02. Current memory use 26.6MB.

  Cleaning up old question previews...done.

  Cleaning up old question statistics cache records...done.
... used 6 dbqueries
... used 4.6070721149445 seconds
Scheduled task complete: Background processing for question engine
Execute scheduled task: Forum mailings and maintenance jobs
... started 15:20:07. Current memory use 31.3MB.
Starting digest processing...
Cleaned old digest records
... used 6 dbqueries
... used 0.072614908218384 seconds
Scheduled task complete: Forum mailings and maintenance jobs
Execute scheduled task: Incoming email pickup
... started 15:20:07. Current memory use 32MB.
Inbound Message not fully configured - exiting early.
... used 0 dbqueries
... used 0.0025839805603027 seconds
Scheduled task complete: Incoming email pickup
Execute scheduled task: Removes any unnecessary event monitor events
... started 15:20:07. Current memory use 32.2MB.
... used 0 dbqueries
... used 0.0047740936279297 seconds
Scheduled task complete: Removes any unnecessary event monitor events
Cron script completed correctly
Cron completed at 15:20:07. Memory used 32.3MB.
Execution took 6.014166 seconds
