Not Valid Course: Cours UNIL - Faculté des sciences sociales et politiques SSP I (automne)
Not Valid Course: Suivi de MOOC externe
Not Valid Course: Cours Politecnico di Torino
Not Valid Course: Cours UNIL - Faculté des sciences sociales et politiques SSP II (automne)
Not Valid Course: Autre contribution à l'enseignement
Not Valid Course: Stage supplémentaire 5
Not Valid Course: Cours UNIL - Faculté des hautes études commerciales HEC II (automne)
Not Valid Course: Stage supplémentaire 3
Not Valid Course: Physique générale II (pour BIO)
Not Valid Course: Stage d'ingénieur crédité avec le PDM (master en Informatique)
Not Valid Course: Cours UNIL - Faculté des géosciences et de l'environnement GSE I (automne)
Not Valid Course: Cours UNIL - Faculté de biologie et de médecine II (automne)
Not Valid Course: Stage d'ingénieur crédité avec le PDM (master en Sciences et ingénierie de l'environnement)
Not Valid Course: Physique générale II (TP pour BIO)
Not Valid Course: Cours UNI Fribourg
Not Valid Course: Cours Euler, Algèbre linéaire II
Not Valid Course: Stage d'ingénieur crédité avec le PDM (master en Systèmes de communication)
Not Valid Course: SHS : Introduction au projet
Not Valid Course: SHS : Projet
Not Valid Course: Cours UNIL - Faculté de droit et des sciences criminelles II (automne)
Not Valid Course: Semester project in life sciences & technology
Not Valid Course: Cours UNI Neuchâtel
Not Valid Course: Engineering internship credited with master project (master in Management of Technology and Entrepreneurship)
Not Valid Course: Cours ETHZ
Not Valid Course: Cours Euler, Physique générale I
Not Valid Course: SHS : Cycle Bachelor BA3
Not Valid Course: Stage d'ingénieur crédité avec le PDM (master en  Génie civil)
Not Valid Course: Stage d'ingénieur crédité avec le PDM (master en Génie électrique et électronique)
Not Valid Course: Cours UNIL - Faculté de biologie et de médecine I (automne)
Not Valid Course: Cours UNIL - Faculté de droit et des sciences criminelles I (automne)
Not Valid Course: Stage supplémentaire 1
Not Valid Course: Cours Euler, Mathématiques II
Not Valid Course: Physique générale II (pour GEU)
Not Valid Course: Travail pratique de laboratoire (30 crédits)
Not Valid Course: SHS : Cycle Bachelor BA5
Not Valid Course: Promotion des études
Not Valid Course: Préparation de MOOC
Not Valid Course: Cours UNIL - Faculté des lettres I (automne)
Not Valid Course: Cours UNI Genève
Not Valid Course: Cours UNIL - Faculté des hautes études commerciales HEC I (automne)
Not Valid Course: Equivalence cycle master
Not Valid Course: Cours Euler, Analyse Gymnase
Not Valid Course: Cours Euler, Mathématiques I
Not Valid Course: Cours Euler, Mathématiques III
Not Valid Course: Cours UNIL - Faculté des géosciences et de l'environnement GSE II (automne)
Not Valid Course: Stage d'ingénieur (master en Bioingénierie)
Not Valid Course: Stage supplémentaire 2
Not Valid Course: Stage supplémentaire 4
Not Valid Course: Stage d'ingénieur (master en Sciences et technologie du vivant)
Not Valid Course: Chimie TP II (pour SFU)
Not Valid Course: Cours Euler, Analyse II
