Not creating or enrolling for ETH-530
Course shortcode PHYS-200 applies to PHYS-200$PHYS-206
Course shortcode BIO-212 applies to BIO-212 
Not Valid Course: Cours Politecnico di Torino
Not creating or enrolling for Cours Politecnico di Torino
Not Valid Course: Cours UNIL - Faculté des géosciences et de l'environnement GSE I (automne)
Not creating or enrolling for Cours UNIL - Faculté des géosciences et de l'environnement GSE I (automne)
Course shortcode ChE-451 applies to ChE-451$ChE-452
Not Valid Course: Physique générale II (pour BIO+GEU)
Not creating or enrolling for Physique générale II (pour BIO+GEU)
Not creating or enrolling for ETH-533
Not Valid Course: Cours UNI Fribourg
Not creating or enrolling for Cours UNI Fribourg
Course shortcode COM-502 applies to  COM-502
Not creating or enrolling for ETH-532
Course shortcode MSE-300 applies to MSE-300(b)
Not Valid Course: Autre contribution à l'enseignement
Not creating or enrolling for Autre contribution à l'enseignement
Course shortcode PHYS-311 applies to PHYS-311$PHYS-312
Not Valid Course: Cours UNI Genève
Not creating or enrolling for Cours UNI Genève
Course shortcode PHYS-115 applies to PHYS-115$PHYS-116
Course shortcode HUM-256 applies to HUM-256(2014)
Not Valid Course: Cours UNIL - Faculté des hautes études commerciales HEC II (automne)
Not creating or enrolling for Cours UNIL - Faculté des hautes études commerciales HEC II (automne)
Course shortcode AR-121 applies to AR-121$AR-122
Course shortcode AR-331 applies to AR-331$AR-332
Course shortcode ENG-383 applies to ENG-383$ENG-484
Course shortcode ENG-433 applies to BIOENG-433
Course shortcode CS-111(c) applies to CS-111(c)$CS-112(c)
Not Valid Course: Préparation de MOOC
Not creating or enrolling for Préparation de MOOC
Not Valid Course: Cours UNIL - Faculté de biologie et de médecine II (automne)
Not creating or enrolling for Cours UNIL - Faculté de biologie et de médecine II (automne)
Course shortcode AR-365 applies to AR-365$AR-366
