INFO:urllib3.connectionpool:Starting new HTTP connection (1): isa.epfl.ch
INFO:urllib3.connectionpool:Starting new HTTPS connection (1): isa.epfl.ch
INFO:root:Course Creation for 2014-2015 ETE made on 23/04/2015

Already Existing and Visible Courses


INFO:root:AR-102 Théorie et critique du projet BA2 format: topics
INFO:root:AR-112 Figuration graphique II format: weeks
INFO:root:AR-122 Théorie de l'architecture I et II format: topics
INFO:root:AR-124 Histoire de l'architecture II format: topics
INFO:root:AR-132 Construction et durabilité I et II format: topics
INFO:root:AR-152 Eléments d'analyses urbaines et territoriales II format: weeks
INFO:root:AR-202(a) MANSLAB: Théorie et critique du projet BA4 (Bakker & Blanc A.) format: weeks
INFO:root:AR-202(b) LAURE: Théorie et critique du projet BA4 (Bassi) format: weeks
INFO:root:AR-202(c) Théorie et critique du projet BA4 (De Vylder & Taillieu) format: weeks
INFO:root:AR-202(g) LAST_Atelier REY: Théorie et critique du projet BA4 (Rey) format: weeks
INFO:root:AR-222 Théorie de l'architecture IV format: topics
INFO:root:AR-224 Histoire de l'architecture IV format: topics
INFO:root:AR-232 Construction et durabilité III et IV format: topics
INFO:root:AR-240 Structures et matériaux II format: weeks
INFO:root:AR-262 Théories de l'urbanisme II format: weeks
INFO:root:AR-268 Les lotissements dans les villes africaines format: topics
INFO:root:AR-272 Piéton vecteur d'urbanité format: weeks
INFO:root:AR-280 Cours de droit de la semaine ENAC: La maîtrise du sol en droit suisse format: topics
INFO:root:AR-286 Le montage de projets de construction format: topics
INFO:root:AR-302(a) Théorie et critique du projet BA6 (Viganò) format: weeks
INFO:root:AR-302(b) Théorie et critique du projet BA6 (Graf F.) format: topics
INFO:root:AR-302(c) Théorie et critique du projet BA5 et BA6 (Ortelli L.) format: weeks
INFO:root:AR-322 Theorie de l'Architecture VI format: topics
INFO:root:AR-324 Histoire de l'architecture VI format: topics
INFO:root:AR-332 Construction et durabilité V et VI format: topics
INFO:root:AR-350 L'entre-deux des villes et l'urbanité format: weeks
INFO:root:AR-364 Planification urbaine dans le Sud format: weeks
INFO:root:AR-366 Arts et histoires de l'environnement I et II format: topics
INFO:root:AR-368 Mapping urban history: Paris, Geneva, Venice format: weeks
INFO:root:AR-402(a) Théorie et critique du projet MA2 (Eliet et Lehmann) format: topics
INFO:root:AR-402(f) Théorie et critique du projet MA2 (Kempe & Thill) format: topics
INFO:root:AR-402(i) Théorie et critique du projet MA2 (Devanthéry-Lamunière) format: weeks
INFO:root:AR-423 Histoire de l'architecture VII format: topics
INFO:root:AR-424 Histoire de l'architecture VIII format: topics
INFO:root:AR-430 Magma et Principes  (Bakker & Blanc A.) format: weeks
INFO:root:AR-441 UE M: Espace et lumière: le projet d'éclairage format: weeks
INFO:root:AR-446 UE Q: Composants et assemblages format: weeks
INFO:root:AR-448 UE P : Béton. Construction et préfabrication format: weeks
INFO:root:AR-452 Architecture et construction de la ville II format: weeks
INFO:root:AR-456 Urbanisme en Asie format: weeks
INFO:root:AR-458 Ville et Mobilité format: weeks
INFO:root:AR-462 Ville africaine: introduction à la planification format: weeks
INFO:root:AR-491 Foncier, immobilier, logement format: weeks
INFO:root:AR-492 Economie spatiale et régionale format: weeks
INFO:root:AR-512 UE T: Techniques tridimensionnelles format: weeks
INFO:root:AR-526 Architecture autonome format: topics
INFO:root:AR-528 Passer à l'acte format: weeks
INFO:root:AR-535 Structures complexes format: weeks
INFO:root:BIO-104 Biologie II format: weeks
INFO:root:BIO-107 Introduction to cell biology and biochemistry for Information Sciences format: weeks
INFO:root:BIO-111 Chimie biologique I (pour SV) format: weeks
INFO:root:BIO-204 Laboratoire intégré en science de la vie II  format: weeks
INFO:root:BIO-207 Biologie cellulaire et moléculaire II format: weeks
INFO:root:BIO-213 Biological Chemistry III format: weeks
INFO:root:BIO-221 Biologie du développement format: weeks
INFO:root:BIO-244 Physical biology of the cell II format: weeks
INFO:root:BIO-315 Biomolecular structure and mechanics format: weeks
INFO:root:BIO-366 Statistical population genetics format: weeks
INFO:root:BIO-377 Physiologie par Systèmes II format: weeks
INFO:root:BIO-382 Neuroscience For Engineers format: weeks
INFO:root:BIO-392 Introduction to Oncology format: weeks
INFO:root:BIO-430 Multidisciplinary organization of medtechs/biotechs format: weeks
INFO:root:BIO-441 Nutrition: from molecules to health format: weeks
INFO:root:BIO-465 Biological modeling of neural networks format: weeks
INFO:root:BIO-472 Cancer Biology II format: weeks
INFO:root:BIO-477 Infection Biology format: weeks
INFO:root:BIO-478 Pharmacology and Pharmacokinetics format: weeks
INFO:root:BIO-483 Neurosciences III : behavioral and cognitive neuroscience format: weeks
INFO:root:BIO-491 New tools and research strategies in personalized medicine format: weeks
INFO:root:BIOENG-404 Analysis and modelling of locomotion format: weeks
INFO:root:BIOENG-433 Biotechnology Laboratory II format: weeks
INFO:root:BIOENG-440 Advanced Transport Phenomena format: weeks
INFO:root:BIOENG-442 Biomaterials format: weeks
INFO:root:BIOENG-444 Advanced Bioengineering Methods Laboratory format: topics
INFO:root:BIOENG-448 Fundamentals of Neuroengineering format: weeks
INFO:root:BIOENG-449 Tissue engineering format: weeks
INFO:root:BIOENG-450 In Silico neuroscience format: weeks
INFO:root:CH-104 Fonctions et réactions organiques I format: topics
INFO:root:CH-104 Fonctions et réactions organiques I format: topics
INFO:root:CH-109(a) Chimie TP II format: weeks
INFO:root:CH-161(a) Chimie générale (GM) format: weeks
INFO:root:CH-161(b) Chimie Générale (PH + EL) format: weeks
INFO:root:CH-161(c) Chimie Générale (MT) format: weeks
INFO:root:CH-161(d) Chimie Générale (MA, Unil) format: weeks
INFO:root:CH-161(d) Chimie Générale (MA, Unil) format: weeks
INFO:root:CH-161(en) Chimie Générale (Anglais) format: weeks
INFO:root:CH-163 Introduction à la chimie organique II (SV) format: topics
INFO:root:CH-222 Coordination chemistry format: topics
INFO:root:CH-223 Organometallic chemistry format: topics
INFO:root:CH-234 Fonctions et réactions organiques III format: weeks
INFO:root:CH-239 Chimie Préparative I format: weeks
INFO:root:CH-244 Quantum chemistry format: topics
INFO:root:CH-312 Biophysique moléculaire et cellulaire II format: weeks
INFO:root:CH-319 Chimie biologique & biophysique expérimentales format: weeks
INFO:root:CH-331 Synthèse asymétrique format: weeks
INFO:root:CH-332 Medicinal chemistry format: weeks
INFO:root:CH-333 Rétrosynthèse format: weeks
INFO:root:CH-342 Chemical kinetics format: weeks
INFO:root:CH-349 Chimie physique expérimentale format: topics
INFO:root:CH-351 Dynamique moléculaire et simulation Monte-Carlo format: topics
INFO:root:CH-352 Eléments de cheminformatique format: weeks
INFO:root:CH-360 Atomes et rayonnement format: weeks
INFO:root:CH-401 Advanced NMR and imaging format: weeks
INFO:root:CH-402 Bioanalytics and analytical sensors format: weeks
INFO:root:CH-403 Mass spectrometry format: weeks
INFO:root:CH-403 Mass spectrometry format: weeks
INFO:root:CH-404 Laboratory information management systems (LIMS) format: weeks
INFO:root:CH-411 Cellular signalling format: weeks
INFO:root:CH-413 Nanobiotechnology and biophysics format: weeks
INFO:root:CH-414 Pharmacological chemistry format: weeks
INFO:root:CH-435 Catalytic asymmetric reactions in organic chemistry 2012 format: weeks
INFO:root:CIVIL-103 Géologie format: weeks
INFO:root:CIVIL-124 Statique I format: weeks
INFO:root:CIVIL-203 Mécanique des sols et écoulements souterrains format: weeks
INFO:root:CIVIL-235 Structures en Métal format: weeks
INFO:root:CIVIL-263 SE-ENAC 03 - DU BLEU AU VERT - Une carte mentale sur la ligne Nyon - St-Cergue - La Cure format: topics
INFO:root:CIVIL-304 Mécanique des roches et ouvrages souterrains format: weeks
INFO:root:CIVIL-312 Ouvrages et aménagements hydrauliques I format: topics
INFO:root:CIVIL-321 Modélisation numérique des solides et structures format: weeks
INFO:root:CIVIL-330 Conception des ponts format: weeks
INFO:root:CIVIL-350 Conception des infrastructures de transport format: weeks
INFO:root:CIVIL-367 UEE12 - Habiter Mars format: topics
INFO:root:CIVIL-404 Travaux souterrains format: weeks
INFO:root:CIVIL-413 Urban hydraulic systems format: topics
INFO:root:CIVIL-431 Ponts en métal format: weeks
INFO:root:CIVIL-433 Constructions en bois format: weeks
INFO:root:CIVIL-441 Economie hydraulique format: weeks
INFO:root:CIVIL-442 Planification intégrée des infrastructures d'énergie format: weeks
INFO:root:CIVIL-445 Réseaux hydrauliques et énergétiques format: weeks
INFO:root:CIVIL-453 Systèmes de transport format: weeks
INFO:root:CIVIL-454 Transport et télématique format: weeks
INFO:root:CIVIL-456 Economie des transports format: weeks
INFO:root:CIVIL-476 Esthétique des ouvrages de génie civil format: weeks
INFO:root:CIVIL-522 Seismic engineering format: weeks
INFO:root:CIVIL-530 Slope stability format: weeks
INFO:root:COM-101 Sciences de l'information format: weeks
INFO:root:COM-308 Internet Analytics format: weeks
INFO:root:COM-405 Mobile networks format: weeks
INFO:root:COM-413 Real-time networks format: topics
INFO:root:COM-421 Statistical Neurosciences format: weeks
INFO:root:COM-500 Statistical Signal and Data Processing through Applications format: weeks
INFO:root:COM-501 Advanced cryptography format: weeks
INFO:root:COM-503 Performance evaluation format: weeks
INFO:root:COM-506 Student seminar : Security protocols and applications format: topics
INFO:root:CS-110(g) ICC Information - Calcul - Communication (CGC + SV) format: topics
INFO:root:CS-111(d) Programmation format: weeks
INFO:root:CS-111(f) Programmation format: weeks
INFO:root:CS-112(c) Programmation I et II (MT & EL) format: topics
INFO:root:CS-112(e) Programmation II format: weeks
INFO:root:CS-112(g) Programmation I et II (MA, PH) format: topics
INFO:root:CS-112(i) Programmation I et II  (SV) format: topics
INFO:root:CS-171 Systèmes Logiques (MT) format: weeks
INFO:root:CS-206 Concurrency format: weeks
INFO:root:CS-207 Programmation orientée système format: topics
INFO:root:CS-211 Introduction à l'informatique visuelle format: weeks
INFO:root:CS-212 Reactive programming & parallelism format: weeks
INFO:root:CS-251 Theory of computation format: weeks
INFO:root:CS-279 Microcontrôleur pour la commande de systèmes mécaniques format: weeks
INFO:root:CS-322 Introduction to Database Systems format: weeks
INFO:root:CS-323 Operating Systems format: weeks
INFO:root:CS-330 Intelligence Artificielle format: weeks
INFO:root:CS-341 Introduction to Computer Graphics format: weeks
INFO:root:CS-410 Technology ventures in IC format: weeks
INFO:root:CS-412 Discrete Computational Geometry format: weeks
INFO:root:CS-420 Advanced Compiler Construction format: topics
INFO:root:CS-422 Big Data format: weeks
INFO:root:CS-423 Distributed Information Systems format: topics
INFO:root:CS-432 Computational Motor Control format: weeks
INFO:root:CS-441 Color reproduction format: weeks
INFO:root:CS-442 Computer Vision format: topics
INFO:root:CS-444 Virtual Reality format: topics
INFO:root:CS-446 Digital 3D Geometry Processing format: weeks
INFO:root:CS-454 Convex optimization and applications format: weeks
INFO:root:CS-476 Real Time Embedded System format: weeks
INFO:root:CS-478 Model-based System Design format: weeks
INFO:root:CS-486 Human Computer Interaction format: weeks
INFO:root:CS-487 Industrial automation format: weeks
INFO:root:CS-489 Personal Interaction Studio format: weeks
INFO:root:CS-490 Business plan for IT services format: weeks
INFO:root:CS-491 Enterprise and service-oriented architecture format: weeks
INFO:root:CS-550 Synthesis, analysis and verification format: topics
INFO:root:CS-551 Computational molecular biology format: weeks
INFO:root:ChE-202 Introduction au Génie Chimique II format: topics
INFO:root:ChE-203 Introduction au génie chimique II - TP format: topics
INFO:root:ChE-302 Phénomènes de transfert II format: topics
INFO:root:ChE-303 Théorie des réacteurs format: weeks
INFO:root:ChE-309 Génie chimique - TP format: topics
INFO:root:ChE-311 Biochemical engineering format: weeks
INFO:root:ChE-319 Computational biotechnology lab format: weeks
INFO:root:ChE-402 Advanced diffusional separation processes format: weeks
INFO:root:ChE-408 Eco-friendly production of the chemicals and process intensification format: weeks
INFO:root:ChE-421 Advanced principles and applications of systems biology format: weeks
INFO:root:ChE-437 Bioprocesses and downstream processing format: weeks
INFO:root:ChE-452 Process development I and II format: weeks
INFO:root:EE-101 Sciences et technologies de l'électricité, laboratoire format: weeks
INFO:root:EE-102(B) Electrotechnique II format: weeks
INFO:root:EE-105 Sciences et technologies de l'électricité (printemps) format: weeks
INFO:root:EE-201 Electromagnétisme II : Calcul des champs format: weeks
INFO:root:EE-203 Electronique II format: weeks
INFO:root:EE-205 Circuits and systems II format: weeks
INFO:root:EE-207 Measurement Systems Lab format: topics
INFO:root:EE-208 Microcontrôleurs et conception de systèmes numériques format: topics
INFO:root:EE-296 Systèmes électriques et électroniques II 2013-2014 format: weeks
INFO:root:EE-330 IC Design II format: topics
INFO:root:EE-332 Circuits et systèmes électroniques II format: topics
INFO:root:EE-340 Introduction à la Photonique format: weeks
INFO:root:EE-342 Systèmes de télécommunications format: topics
INFO:root:EE-381 Electronique III format: weeks
INFO:root:EE-395 TP en technologies de l'information format: topics
INFO:root:EE-396 Lab in energy conversion format: weeks
INFO:root:EE-397 TP de conception de systèmes numériques format: weeks
INFO:root:EE-421 Analog circuits design II format: weeks
INFO:root:EE-431 Advanced VLSI design format: topics
INFO:root:EE-433 Hardware Systems Modeling II format: topics
INFO:root:EE-440 Photonic systems and technology format: weeks
INFO:root:EE-451 Image Analysis and Pattern Recognition format: topics
INFO:root:EE-472 Smart grids technologies format: weeks
INFO:root:EE-480 Emerging Renewable Power format: weeks
INFO:root:EE-511 Sensors in Medical Instrumentation format: topics
INFO:root:EE-514 Brain computer interaction format: weeks
INFO:root:EE-518 Analog circuits for biochip format: weeks
INFO:root:EE-521 Advanced Analog and RF Integrated-Circuits Design II format: topics
INFO:root:EE-543 Receivers for wireless communications : algorithms and architectures I 2011 format: weeks
INFO:root:EE-551 Image Communication format: topics
INFO:root:EE-552 Media Security format: weeks
INFO:root:EE-553 Speech processing format: weeks
INFO:root:EE-576 Electromagnetic compatibility format: weeks
INFO:root:EE-585 Space Mission Design and Operations format: weeks
INFO:root:EE-593 Social media format: weeks
INFO:root:ENG-262 Diagnostic en ENAC, démarche et outils de mesure format: topics
INFO:root:ENG-272 Fluid mechanics (for SIE) format: weeks
INFO:root:ENG-301 UEE-01 : Technical Ecology of Human Communities format: weeks
INFO:root:ENG-366 Signals, Instruments and Systems format: weeks
INFO:root:ENG-382 Gestion du projet d'architecture format: weeks
INFO:root:ENG-400 Water Quality Modelling format: weeks
INFO:root:ENG-430 Introduction to Cellular and Molecular Biotechnology format: weeks
INFO:root:ENG-430 Introduction to Cellular and Molecular Biotechnology format: weeks
INFO:root:ENG-431 Safety of Chemical Processes format: topics
INFO:root:ENG-471 Organisation, économie et droit de la construction II format: topics
INFO:root:ENG-484 Droit de l'architecte I et II format: topics
INFO:root:ENV-100 Biochimie format: weeks
INFO:root:ENV-101 Biologie format: weeks
INFO:root:ENV-140 Eléments de Géomatique format: topics
INFO:root:ENV-168 TP de monitoring environnemental format: weeks
INFO:root:ENV-200 Environmental chemistry format: weeks
INFO:root:ENV-201 Génie des procédés format: weeks
INFO:root:ENV-220 Ecologie Générale format: weeks
INFO:root:ENV-242 Topométrie format: weeks
INFO:root:ENV-275 Semaine ENAC 07: Renewable energy and solar architecture in Davos format: weeks
INFO:root:ENV-306 Ecotoxicology format: weeks
INFO:root:ENV-320 Physics and chemistry of the atmosphere format: topics
INFO:root:ENV-341 Télédétection  format: weeks
INFO:root:ENV-362 Quartiers, infrastructures et aménagement durable format: weeks
INFO:root:ENV-366 Quantitative methods II format: weeks
INFO:root:ENV-400 Air pollution and climate change format: weeks
INFO:root:ENV-417 Hydrologie urbaine format: weeks
INFO:root:ENV-425 Limnology format: weeks
INFO:root:ENV-443 SIG et aide à la décision format: weeks
INFO:root:ENV-443 SIG et aide à la décision format: weeks
INFO:root:ENV-466 Droit : contrats et responsabilité professionnelle format: topics
INFO:root:ENV-503 Génie des Bioprocédés Environnementaux format: weeks
INFO:root:ENV-508 Analyse et Management des risques industriels format: weeks
INFO:root:ENV-542 Advanced satellite positioning format: weeks
INFO:root:FIN-404 Derivatives format: weeks
INFO:root:FIN-405 Investments format: weeks
INFO:root:FIN-407 Financial econometrics format: weeks
INFO:root:FIN-409 Stochastic Calculus II format: weeks
INFO:root:HUM-120(a) Global issues: food A format: weeks
INFO:root:HUM-120(b) Global issues: food B format: weeks
INFO:root:HUM-121(a) Enjeux Mondiaux: Climat A format: weeks
INFO:root:HUM-121(b) Enjeux Mondiaux: Climat B format: weeks
INFO:root:HUM-122(a) Enjeux Mondiaux: Communication A format: topics
INFO:root:HUM-122(b) Enjeux Mondiaux: Communication B format: weeks
INFO:root:HUM-123(a) Enjeux Mondiaux: Energie A format: weeks
INFO:root:HUM-123(b) Enjeux Mondiaux: Energie B format: weeks
INFO:root:HUM-124(a) Enjeux mondiaux: Mobilité A format: topics
INFO:root:HUM-124(b) Enjeux mondiaux: mobilité B format: weeks
INFO:root:HUM-125(a) Enjeux mondiaux: Santé A format: topics
INFO:root:HUM-125(b) Enjeux mondiaux: Santé B format: topics
INFO:root:HUM-217 Musicologie et histoire de la musique B format: weeks
INFO:root:HUM-226 Développement durable A format: weeks
INFO:root:HUM-229 Science, technologie et société B format: weeks
INFO:root:HUM-230 Le genre et ses repr_sentations format: weeks
INFO:root:HUM-243 Inde contemporaine format: weeks
INFO:root:HUM-244 Technologies de la connaissance format: weeks
INFO:root:HUM-249 Economie de la Chine format: weeks
INFO:root:HUM-250 Enjeux politiques contemporains B format: weeks
INFO:root:HUM-253 La place financière suisse format: weeks
INFO:root:HUM-257 Santé, Population, Société format: weeks
INFO:root:HUM-259 Actualités et Théories Economiques format: weeks
INFO:root:HUM-261 Afrique contemporaine format: weeks
INFO:root:HUM-263 Histoire des médias format: weeks
INFO:root:HUM-264 Introduction au monde russe format: weeks
INFO:root:HUM-266 Religions : socio-cultural perspectives A format: weeks
INFO:root:HUM-311 Histoire de l'image A format: weeks
INFO:root:HUM-322 Pratiques artistiques D format: weeks
INFO:root:HUM-328 Développement durable B format: weeks
INFO:root:HUM-332 Science, technologie et société D format: weeks
INFO:root:HUM-334 Genre, travail et professions format: weeks
INFO:root:HUM-338 Moyen-Orient contemporain B format: weeks
INFO:root:HUM-340 Histoire de la pensée économique format: weeks
INFO:root:HUM-347 Comportement organisationnel B format: topics
INFO:root:HUM-359 Ethique de l'Environnement format: weeks
INFO:root:HUM-361 Technologies et entrepreneurship social format: weeks
INFO:root:HUM-363 Japon contemporain B format: weeks
INFO:root:HUM-365 Sciences and religions B format: weeks
INFO:root:HUM-402(b) Going East II format: weeks
INFO:root:HUM-411(b) Énergie, climat, économie et société II format: weeks
INFO:root:HUM-422(b) Understanding modern Switzerland II format: weeks
INFO:root:HUM-427(b) History of globalization II format: weeks
INFO:root:HUM-432(b) How people learn II format: weeks
INFO:root:MATH-106(a) Analyse II (GC) format: weeks
INFO:root:MATH-106(b) Analyse II (EL, SIE)_1314 format: weeks
INFO:root:MATH-106(d) Analyse I et II (MT, MX) format: topics
INFO:root:MATH-106(de) Analyse II (allemand) format: weeks
INFO:root:MATH-106(e) Analyse II (IN et SC) format: weeks
INFO:root:MATH-106(g) Analyse II (CGC + PSU) format: weeks
INFO:root:MATH-106(g) Analyse II (CGC + PSU) format: weeks
INFO:root:MATH-115(a) Algèbre linéaire avancée II (MA) format: weeks
INFO:root:MATH-115(b) Algèbre linéaire avancée II (PH) format: weeks
INFO:root:MATH-121 Géométrie (GM) format: weeks
INFO:root:MATH-123(b) Géométrie (GC) format: weeks
INFO:root:MATH-125 Géométrie II (MA) format: weeks
INFO:root:MATH-126 Géométrie pour Architectes (automne) format: weeks
INFO:root:MATH-150 Analyse numérique (IN, SC, ME, PH) format: weeks
INFO:root:MATH-207(a) Analyse IV (MT, SV) format: weeks
INFO:root:MATH-207(b) Analyse IV (IN, SC) format: topics
INFO:root:MATH-232 Probabilities and statistics  format: weeks
INFO:root:MATH-234(c) Probabilités et Statistique (EL, MT, MX) format: weeks
INFO:root:MATH-236 Probabilités et Statistique II format: weeks
INFO:root:MATH-240 Statistique format: weeks
INFO:root:MATH-250 Analyse Numérique (MA) format: weeks
INFO:root:MATH-251(c) Analyse Numérique (SV) format: weeks
INFO:root:MATH-251(d) Analyse numérique (IN, SC, ME, PH) format: weeks
INFO:root:MATH-261 Discrete optimization format: weeks
INFO:root:MATH-319 Algèbres de Lie_automne format: weeks
INFO:root:MATH-332 Processus stochastiques appliqués format: weeks
INFO:root:MATH-342 Time series format: weeks
INFO:root:MATH-422 Geometrie Riemannienne I format: weeks
INFO:root:MATH-428 Introduction to Algebraic geometry format: weeks
INFO:root:MATH-429 Riemannian geometry II format: weeks
INFO:root:MATH-444 Statistique Multivariée format: weeks
INFO:root:MATH-453 Computational linear algebra format: weeks
INFO:root:MATH-454 Parallel computing and pthreads format: weeks
INFO:root:MATH-457 Numerical approximation of partial differential equations II format: weeks
INFO:root:MATH-471 Quantitative Risk Management format: weeks
INFO:root:MATH-491 Topics in geometry format: weeks
INFO:root:ME-102 Eléments de machines format: weeks
INFO:root:ME-103 Introduction à la mécanique des structures format: weeks
INFO:root:ME-202 Systèmes mécaniques format: weeks
INFO:root:ME-212 Procédés de production format: weeks
INFO:root:ME-221 Systèmes dynamiques format: topics
INFO:root:ME-271 Ecoulements fluides format: weeks
INFO:root:ME-273 Introduction à la commande des systèmes dynamiques format: weeks
INFO:root:ME-311 Dynamique des systèmes mécaniques format: weeks
INFO:root:ME-312 Conception pour X format: weeks
INFO:root:ME-314 Projet d'ingénierie simultanée - LCA format: weeks
INFO:root:ME-323 Commande de procédés format: weeks
INFO:root:ME-331 Solid mechanics format: weeks
INFO:root:ME-342 Introduction aux turbomachines format: weeks
INFO:root:ME-343 Mécanique des Fluides Compressibles format: weeks
INFO:root:ME-351 Thermodynamique et énergétique II format: topics
INFO:root:ME-371 Méthodes de Discrétisation en mécanique des Fluides format: topics
INFO:root:ME-373 Modélisation et simulation par éléments finis format: topics
INFO:root:ME-417 Computer-aided engineering format: weeks
INFO:root:ME-418 Conception mécanique intégrée format: weeks
INFO:root:ME-425 Model predictive control format: weeks
INFO:root:ME-444 Hydrodynamics format: weeks
INFO:root:ME-452 Energy Conversion format: weeks
INFO:root:ME-454 Modelling and optimization of energy systems format: weeks
INFO:root:ME-459 Powerplants and heat pumps format: weeks
INFO:root:ME-460 Renewable energy format: weeks
INFO:root:ME-464 Introduction to nuclear engineering format: weeks
INFO:root:ME-465 Advanced heat transfer format: weeks
INFO:root:ME-473 Dynamique numérique des solides et des structures format: weeks
INFO:root:ME-475 Simulation multi-corps assistée par ordinateur format: weeks
INFO:root:ME-476 Particle-based methods format: topics
INFO:root:ME-481 Biomechanics of the cardiovascular system format: weeks
INFO:root:ME-484 Numerical methods in biomechanics format: weeks
INFO:root:ME-516 Lifecycle economic and environmental performance of product systems format: weeks
INFO:root:MGT-403 Economics of innovation in the biomedical industry format: weeks
INFO:root:MGT-404 Principles of IP Management format: weeks
INFO:root:MGT-407 Innovation & management in the energy industry format: weeks
INFO:root:MGT-428 Introduction to quality management and management systems format: weeks
INFO:root:MGT-430 Quantitative systems modeling techniques format: weeks
INFO:root:MGT-453 Industry dynamics, models & trends format: weeks
INFO:root:MGT-453 Industry dynamics, models & trends format: weeks
INFO:root:MGT-455 Practical Business Law format: weeks
INFO:root:MGT-468 Leadership & human resource management in a global context format: weeks
INFO:root:MGT-483 Optimal decision analysis format: weeks
INFO:root:MGT-501 Economics of Innovation format: weeks
INFO:root:MGT-501 Economics of Innovation format: weeks
INFO:root:MGT-526 Supply Chain Management format: weeks
INFO:root:MGT-527 Management of Enterprise Networks and Supply Chain Management format: weeks
INFO:root:MGT-552 Corporate governance format: weeks
INFO:root:MGT-581 Econometrics: Data Analysis & Empirical Methods format: weeks
INFO:root:MICRO-102 Statique et Dynamique format: weeks
INFO:root:MICRO-201 Conception de mécanismes II format: weeks
INFO:root:MICRO-210 Microcontrôleurs format: topics
INFO:root:MICRO-270 Chimie des surfaces format: topics
INFO:root:MICRO-315 Microinformatique format: weeks
INFO:root:MICRO-322 Ingénierie optique II format: weeks
INFO:root:MICRO-330 Capteurs format: topics
INFO:root:MICRO-421 Imaging Optics format: weeks
INFO:root:MICRO-423 Optics Laboratories Work format: topics
INFO:root:MICRO-451 Robotique industrielle et appliquée format: topics
INFO:root:MICRO-453 Robotics practicals format: topics
INFO:root:MICRO-512 Image processing II format: topics
INFO:root:MICRO-520 Laser microprocessing format: weeks
INFO:root:MICRO-522 Integrated optics format: topics
INFO:root:MICRO-533 Reliability of MEMS format: weeks
INFO:root:MICRO-534 Advanced MEMS and Microsystems format: weeks
INFO:root:MICRO-541 A guided tour for engineers in applied stochastic modelling format: weeks
INFO:root:MICRO-551 Bio-Inspired Artificial Intelligence format: topics
INFO:root:MICRO-553 Haptic human robot interfaces format: topics
INFO:root:MICRO-562 Biomicroscopy II format: weeks
INFO:root:MICRO-565 Fundamentals and processes for photovoltaic devices format: weeks
INFO:root:MICRO-566 Opto- and macroelectronic materials format: weeks
INFO:root:MSE-100(c) Introduction à la science des matériaux (sem. printemps) format: weeks
INFO:root:MSE-206 Rhéologie et mécanique des fluides format: weeks
INFO:root:MSE-210 Propriétés fonctionnelles des matériaux format: weeks
INFO:root:MSE-300(b) Theory of materials : from structure to properties II 2014 format: weeks
INFO:root:MSE-302 Transformations de phase format: weeks
INFO:root:MSE-370 Modélisation des matériaux format: weeks
INFO:root:MSE-431 Polymer physical chemistry and materials properties format: weeks
INFO:root:MSE-442 Introduction to crystal growth by epitaxy format: weeks
INFO:root:MSE-450 Electron Microscopy : Advanced methods format: weeks
INFO:root:MSE-480 Dielectric properties of materials format: weeks
INFO:root:MSE-487 Advanced semiconductor nanomaterials format: weeks
INFO:root:PHYS-105 Physique avancée II format: topics
INFO:root:PHYS-106 Physique Générale II (MX, EL) format: weeks
INFO:root:PHYS-106(a) Physique générale II format: weeks
INFO:root:PHYS-106(b) Physique générale II format: weeks
INFO:root:PHYS-106(c) Physique Générale II (MX, EL) format: weeks
INFO:root:PHYS-106(d) Physique Générale II (GM) format: topics
INFO:root:PHYS-106(de) Physique générale II (allemand) format: weeks
INFO:root:PHYS-106(e) Physique générale II (MT) - Printemps 2015 format: weeks
INFO:root:PHYS-106(en) Physique générale (anglais) II format: weeks
INFO:root:PHYS-106(i) Physique générale II (CH) format: weeks
INFO:root:PHYS-116 Physique du bâtiment I & II format: topics
INFO:root:PHYS-202 Mécanique analytique (pour SPH) format: weeks
INFO:root:PHYS-206 Physique III-IV pour physiciens format: topics
INFO:root:PHYS-207(a) Physique générale IV (SV) format: weeks
INFO:root:PHYS-207(b) Physique Générale III-IV EL-MT-MA format: weeks
INFO:root:PHYS-207(c) Physique Générale III et IV (GM, SGM) format: topics
INFO:root:PHYS-210 Physique Numerique I / II format: topics
INFO:root:PHYS-216 Mathematical methods for physicists format: weeks
INFO:root:PHYS-218 Physique du bâtiment IV format: weeks
INFO:root:PHYS-301 Biophysics I_old format: topics
INFO:root:PHYS-310 Physique du solide II format: weeks
INFO:root:PHYS-312 Physique nucléaire et corpusculaire I et II format: topics
INFO:root:PHYS-314 Physique quantique II format: weeks
INFO:root:PHYS-316 Physique statistique II format: topics
INFO:root:PHYS-317 Optique I format: weeks
INFO:root:PHYS-328 Physique des Nouveaux Matériaux format: weeks
INFO:root:PHYS-332 Computational physics III format: weeks
INFO:root:PHYS-336 Physique du bâtiment VI format: weeks
INFO:root:PHYS-400 Chapitres choisis de physique nucléaire et corpusculaire format: weeks
INFO:root:PHYS-406 Experimental methods in physics II format: weeks
INFO:root:PHYS-420 Solid State Physics IV format: weeks
INFO:root:PHYS-426 Quantum physics IV format: weeks
INFO:root:PHYS-428 Relativity and cosmology II format: weeks
INFO:root:PHYS-434 Semiconductor electronic and optoelectronic devices II format: weeks
INFO:root:PHYS-436 Statistical physics IV format: weeks
INFO:root:PHYS-437 Diffraction Methods in Structural Biology format: weeks
INFO:root:PHYS-449 Optics III format: weeks
INFO:root:PHYS-459 Metrology format: weeks
INFO:root:PREPA-006 Analyse II format: weeks
INFO:root:PREPA-022 Physique format: weeks
INFO:root:PREPA-034 Géométrie analytique (Polymaths) format: weeks
INFO:root:PREPA-036 Algèbre linéaire (Polymaths) format: weeks
INFO:root:UNIL-100 General Analytical chemistry format: weeks
INFO:root:UNIL-102 Chimie générale I  et II (UNIL) format: topics
INFO:root:UNIL-112 Physique générale I (pour BIO+GEU) format: weeks
INFO:root:ENG-615 Topics in Autonomous Robotics format: topics
INFO:root:EE-703: EMC Advanced Topics in Electromagnetic Compatibility format: weeks
INFO:root:CH-710 Gene transfer and recombinant protein expression in animal cells format: weeks
INFO:root:CS-623 CS-623: Database Management on Modern Hardware format: weeks
INFO:root:EE-713 EE-713: Brain-computer interaction format: weeks
INFO:root:Phys-608-NLO PHYS-608: Nonlinear Optics format: topics
INFO:root:MATH-600 MATH-600: Optimization and Simulation format: weeks
INFO:root:BIO-706 Graduate Functional Genomics Course format: weeks
INFO:root:ENG-608 Statistical Thermodynamics for Engineering format: weeks
INFO:root:MATH-741 MATH-741: Advanced Topics in Numerical Modelling for PDEs format: weeks
INFO:root:MATH-703 MATH-703: Computational mechanics by reduced basis methods format: topics
INFO:root:CH-701 Advanced topics in photomedicine format: topics
INFO:root:Micro-600 MICRO-600: Emerging Nanopattering Methods format: topics
INFO:root:MICRO-607 Highlights in microtechnology format: weeks
INFO:root:ME-661 Mechanics of porous media format: topics
INFO:root:MSE-700 MSE-700: Multiscale approach of plastic deformation of metals and alloys format: topics
INFO:root:EE-717 EE-717: Graphical models format: weeks
INFO:root:Phys-604 PHYS-604: Optical Systems format: topics
INFO:root:EE-702 Co-design of Systems-on-Chip on Reconfigurable Hardware format: weeks
INFO:root:CIVIL-707 CIVIL-707: Intelligent Transportation Systems format: weeks
INFO:root:BIO-664 Responsible Conduct in Biomedical Research (Fall) format: weeks
INFO:root:CH-616 Strategy for the assignment of 2D NMR spectra of complex organic molecules format: topics
INFO:root:ENV-715 Atmospheric Boundary Layer format: weeks
INFO:root:EE-604 Estimation Theory format: topics
INFO:root:PHYS-615 Electronic properties of solids and superconductivity format: weeks
INFO:root:MSE-600 MSE-600: Effects of radiation on materials format: topics
INFO:root:BIO-657 old BIO-657: Landmark paper in cancer and infection format: weeks
INFO:root:CS-705 Conducting User Studies format: weeks
INFO:root:CS-615 Advanced topics in Networked Systems format: weeks
INFO:root:CS-710 Parallel and Distributed Query Processing format: weeks
INFO:root:EE-714 Nonlinear signal modeling and prediction format: weeks
INFO:root:CH-708 Frontiers in Chemical Synthesis: Heterocyclic Chemistry format: weeks
INFO:root:BIO-720 Advanced stem cell biology format: weeks
INFO:root:EDOC - Scaling Scaling in MEMS format: topics
INFO:root:PHYS-610 Nonlinear Spectroscopy format: topics
INFO:root:EE-614 Theory and Methods for Linear Inverse Problems format: weeks
INFO:root:CS-709 Decision Making under Uncertainty format: weeks
INFO:root:ENV-721 Waterborne Pathogens format: weeks
INFO:root:BIO-657 Landmark Papers in Cancer and Infection format: weeks
INFO:root:PHYS-724 Ultrafast phenomena format: topics
INFO:root:MGT-713 Technology Foresight format: topics
INFO:root:ENG-614 Multiphysics Finite Element Methods format: weeks
INFO:root:MATH-782 Computational Mechanics by Isogeometric Analysis format: weeks
INFO:root:EDCE-704 Fracture mechanics and fatigue of structures format: weeks
INFO:root:EE-730 Design of Ultra-Low Power Wearable Wireless Systems format: weeks
INFO:root:CH-709 Frontiers in Chemical Synthesis: Stereochemistry format: weeks
INFO:root:EE-722 Advanced biometrics format: weeks
INFO:root:BIO-669 Neuroscience and Neurophilosophy format: weeks
INFO:root:PHYS-608 Nonlinear Optics format: weeks
INFO:root:PHYS-609 Modern Photovoltaic Technologies format: topics
INFO:root:MGT-609 De- and re-regulation of Network Industries format: weeks
INFO:root:MGT-621 Microeconomics format: weeks
INFO:root:MGT-632 Recursive Methods in Macroeconomics format: topics
INFO:root:EE-661 Linear System Theory format: topics
INFO:root:MICRO-617  Energy Autonomous Wireless Systems (EAWS) format: topics
INFO:root:MATH-611 Scientific programming for Engineers format: weeks
INFO:root:CS-624 Technology Ventures in IC format: weeks
INFO:root:MGT-603 Qualitative Research Methods format: weeks
INFO:root:CH-601 Basic and advanced NMR - PART 1 format: weeks
INFO:root:EE-726 Sparse stochastic processes format: weeks
INFO:root:EE-715 Optimal Control format: weeks
INFO:root:ENG-620 Design Methodology format: topics
INFO:root:BIO-674 Neural mechanisms underlying choice: from valuation to pathological decision making format: weeks
INFO:root:EE-729 Fundamentals of Biometrics format: weeks
INFO:root:MGT-630 Econometric Modelling format: weeks
INFO:root:CH-628 Chemosensory receptors: Applications for biosensors and medical therapies format: topics
INFO:root:CS-622 Privacy protection format: weeks
INFO:root:ENG-621 Object oriented and component based programing techniques for complex energy systems development format: weeks
INFO:root:AR-631 Apprendre la thèse en sciences sociales et en architecture format: weeks
INFO:root:MGT-631 Optimization Methods and Models format: topics
INFO:root:PHYS-736 Plasma instabilities format: weeks
INFO:root:CS-715 Advanced Topics in Algorithmic Game Theory and Mechanism Design format: weeks
INFO:root:MATH-609 Reduced Order Modelling of parametrized systems format: weeks
INFO:root:MGT-635 Economics of Innovation (EDMT) format: topics
INFO:root:

New and Hidden Courses


INFO:root:AR-202(k) Théorie et critique du projet BA4 (Perrault) format: weeks
INFO:root:AR-212 Figuration plastique format: weeks
INFO:root:AR-220 Figuration analogique format: weeks
INFO:root:AR-270 C'est beau une ville la nuit format: weeks
INFO:root:AR-302(d) Théorie et critique du projet BA6 (Fröhlich M. & A.) format: weeks
INFO:root:AR-344 Construire dans les zones à radiations naturelles format: weeks
INFO:root:AR-402(b) Théorie et critique du projet MA2 (Gugger) format: weeks
INFO:root:AR-402(c) Théorie et critique du projet MA2 (Geers) format: weeks
INFO:root:AR-402(d) Théorie et critique du projet MA2 (Dietz) format: weeks
INFO:root:AR-402(e) Théorie et critique du projet MA2 (Weinand) format: weeks
INFO:root:AR-402(g) Théorie et critique du projet MA2 (Rollet & Tirone) format: weeks
INFO:root:AR-402(n) Théorie et critique du projet MA2 (Giuliani & Hönger) format: weeks
INFO:root:AR-412 Modélisation et représentation informatique II format: weeks
INFO:root:AR-414 UE I : Analogue-Digital-Virtuel format: weeks
INFO:root:AR-416 UE N : Art et architecture: construire l'image  II format: weeks
INFO:root:AR-420 UE C : Architecture et archéologie format: weeks
INFO:root:AR-433 UE H : Graphie  format: weeks
INFO:root:AR-460 Sciences de la ville II format: weeks
INFO:root:AR-510 UE S: Architectures / dessins / hétérotopies format: weeks
INFO:root:AR-522 Difficult double Double Histories format: weeks
INFO:root:AR-598 Enoncé théorique de master format: weeks
INFO:root:AR-599 Projet de master en architecture format: weeks
INFO:root:BIO-379 Travaux pratiques de physiologie II format: weeks
INFO:root:BIO-443 Fundamentals of biophotonics format: weeks
INFO:root:BIO-486 Laboratory in single-cell electrophysiology format: weeks
INFO:root:BIO-496 Semester project in life sciences & technology format: weeks
INFO:root:BIO-501 Lab immersion I format: weeks
INFO:root:BIO-502 Lab immersion II format: weeks
INFO:root:BIO-503 Lab immersion III format: weeks
INFO:root:BIO-506 Lab immersion A out of EPFL format: weeks
INFO:root:BIO-507 Lab immersion B out of EPFL format: weeks
INFO:root:BIO-598(b) Projet de master en sciences et technologies du vivant format: weeks
INFO:root:BIO-599 Projet de master en bioingénierie et biotechnologie format: weeks
INFO:root:BIOENG-390 Project in bioengineering and biosciences format: weeks
INFO:root:BIOENG-447 Chemical biology - tools and methods format: weeks
INFO:root:BIOENG-489 Semester project in Bioengineering format: weeks
INFO:root:BIOENG-596 Stage d'ingénieur (master en Bioingénierie) format: weeks
INFO:root:CH-229 Chimie préparative II format: weeks
INFO:root:CH-241 Chemical thermodynamics format: weeks
INFO:root:CH-359 Projet de chimie computationnelle format: weeks
INFO:root:CH-412 Chemical biology format: weeks
INFO:root:CH-424 Supramolecular chemistry format: weeks
INFO:root:CH-426 Artificial photosynthesis format: weeks
INFO:root:CH-431 Physical and computational organic chemistry format: weeks
INFO:root:CH-442 Photochimie I format: weeks
INFO:root:CH-446 Lasers and applications in chemistry format: weeks
INFO:root:CH-447 Advanced materials for photovoltaics and lighting format: weeks
INFO:root:CH-448 Photomedicine format: weeks
INFO:root:CH-453 Molecular quantum dynamics  format: weeks
INFO:root:CH-491 Project in molecular sciences format: weeks
INFO:root:CH-599 Projet de master en chimie moléculaire et biologique format: weeks
INFO:root:CIVIL-123 Structures II format: weeks
INFO:root:CIVIL-210 Mécanique des fluides (pour GC) format: weeks
INFO:root:CIVIL-224 Statique II format: weeks
INFO:root:CIVIL-260 Informatique (pour GC) format: weeks
INFO:root:CIVIL-262 Gestion des dangers naturels en montagne format: weeks
INFO:root:CIVIL-264 Cantilever: Making structural logic format: weeks
INFO:root:CIVIL-361 Architecture & Energie solaire: SolarDecathlon format: weeks
INFO:root:CIVIL-390 Projet GC format: weeks
INFO:root:CIVIL-434 Structure et architecture format: weeks
INFO:root:CIVIL-437 Structures existantes II : Interventions format: weeks
INFO:root:CIVIL-490 Projet de construction format: weeks
INFO:root:CIVIL-491 Projet de systèmes civils format: weeks
INFO:root:CIVIL-492 Laboratoire GC format: weeks
INFO:root:CIVIL-493 Projet interdisciplinaire à option format: weeks
INFO:root:CIVIL-515 Ondes de crue et de rupture de barrage format: weeks
INFO:root:CIVIL-529 Plasticity format: weeks
INFO:root:CIVIL-557 Decision-aid methodologies in transportation format: weeks
INFO:root:CIVIL-597 Stage d'ingénieur crédité avec le PDM (master en  Génie civil) format: weeks
INFO:root:CIVIL-598 Pré-étude projet de master format: weeks
INFO:root:CIVIL-599 Projet de master en génie civil format: weeks
INFO:root:COM-302 Principles of digital communications format: weeks
INFO:root:COM-303 Signal processing for communications format: weeks
INFO:root:COM-307 Projet en systèmes de communication I format: weeks
INFO:root:COM-416 Projet en systèmes de communication II format: weeks
INFO:root:COM-507 Optional project in communication systems format: weeks
INFO:root:COM-512 Networks out of control format: weeks
INFO:root:COM-516 Random walks format: weeks
INFO:root:COM-597 Stage d'ingénieur crédité avec le PDM (master en Systèmes de communication) format: weeks
INFO:root:COM-599 Projet de master en systèmes de communication format: weeks
INFO:root:CS-108 Pratique de la programmation orientée-objet format: weeks
INFO:root:CS-173 Conception de systèmes numériques format: weeks
INFO:root:CS-209 Architecture des systems-on-chip format: weeks
INFO:root:CS-398 Projet en informatique I format: weeks
INFO:root:CS-431 Introduction to natural language processing format: weeks
INFO:root:CS-455 Topics in theoretical computer science format: weeks
INFO:root:CS-470 Advanced computer architecture format: weeks
INFO:root:CS-498 Projet en informatique II format: weeks
INFO:root:CS-595 Stage d'ingénieur crédité avec le PDM (master en Informatique) format: weeks
INFO:root:CS-596 Optional project in computer science format: weeks
INFO:root:CS-599 Projet de master en informatique format: weeks
INFO:root:ChE-404 Environment chemical and biological technology format: weeks
INFO:root:ChE-407 Electrochemical engineering format: weeks
INFO:root:ChE-410 Catalysis for emission control and energy processes format: weeks
INFO:root:ChE-459 Process development project format: weeks
INFO:root:ChE-596 Stage d'ingénieur (master en Génie chimique et Biotechnologie) format: weeks
INFO:root:ChE-599 Projet de master en génie chimique et biotechnologie format: weeks
INFO:root:EE-333 Dispositifs micro- nanoélectroniques format: weeks
INFO:root:EE-361 Electromécanique format: weeks
INFO:root:EE-365 Electronique de puissance format: weeks
INFO:root:EE-380 Electronique, labo format: weeks
INFO:root:EE-399 Projet d'électricité format: weeks
INFO:root:EE-470 Power systems dynamics format: weeks
INFO:root:EE-491(a) Project in Electrical Energy Systems format: weeks
INFO:root:EE-491(b) Project in Information Technologies format: weeks
INFO:root:EE-491(c) Project in Micro and Nanoelectronics format: weeks
INFO:root:EE-525 HF and VHF circuits and techniques II format: weeks
INFO:root:EE-545 Propagation of electromagnetic waves format: weeks
INFO:root:EE-565 Industrial electronics II format: weeks
INFO:root:EE-570 Power system restructuring and deregulation format: weeks
INFO:root:EE-588 Advanced lab in Electrical Energy Systems format: weeks
INFO:root:EE-596(a) Stage d'ingénieur (master en Génie électrique et électronique) format: weeks
INFO:root:EE-597 Stage d'ingénieur crédité avec le PDM (master en Génie électrique et électronique) format: weeks
INFO:root:EE-597(a) Stage d'ingénieur crédité avec le PDM (master en Génie électrique et électronique) format: weeks
INFO:root:EE-598 Advanced lab in Electrical Engineering format: weeks
INFO:root:EE-599 Projet de master en génie électrique et électronique format: weeks
INFO:root:EE-599(a) Projet de master en génie électrique et électronique format: weeks
INFO:root:EE-599(b) Projet de master MNIS pour étudiants de Grenoble format: weeks
INFO:root:EE-599(c) Projet de master MNIS pour étudiants de Turin format: weeks
INFO:root:ENG-217 Conception, simulation et informatique format: weeks
INFO:root:ENG-432 Législation du travail au laboratoire format: weeks
INFO:root:ENG-435 Chemistry of food processes format: weeks
INFO:root:ENG-436 Food biotechnology format: weeks
INFO:root:ENG-472(b) Project in energy management and sustainability II format: weeks
INFO:root:ENV-241 Photo-interprétation format: weeks
INFO:root:ENV-352 Visualising future cities : Venice format: weeks
INFO:root:ENV-361 Aménagement et gestion du territoire format: weeks
INFO:root:ENV-365 Du relevé numérique à la mesure du changement format: weeks
INFO:root:ENV-420 Bio-ingénierie des cours d'eau et des systèmes naturels format: weeks
INFO:root:ENV-494 Projet ENAC format: weeks
INFO:root:ENV-523 Hydrogeophysics format: weeks
INFO:root:ENV-590 Citégraphie / Projet format: weeks
INFO:root:ENV-593 Stage d'ingénieur crédité avec le PDM (master en Gestion de l'énergie et construction durable) format: weeks
INFO:root:ENV-595 Projet de master en gestion de l'énergie et construction durable format: weeks
INFO:root:ENV-596 Design project format: weeks
INFO:root:ENV-597 Projet SIE/ENAC format: weeks
INFO:root:ENV-598 Stage d'ingénieur crédité avec le PDM (master en Sciences et ingénierie de l'environnement) format: weeks
INFO:root:ENV-599 Projet de master en sciences et ingénierie de l'environnement format: weeks
INFO:root:FIN-599 Projet de master en ingénierie financière format: weeks
INFO:root:HUM-224 Design graphique II format: weeks
INFO:root:HUM-225 Design industriel II format: weeks
INFO:root:HUM-228 Études musicales format: weeks
INFO:root:HUM-234 Droit des affaires format: weeks
INFO:root:HUM-237 Méditerranée: grands textes et mythes fondateurs B format: weeks
INFO:root:HUM-238 Philosophie des sciences B format: weeks
INFO:root:HUM-239 Psychologie des émotions format: weeks
INFO:root:HUM-240 Psychologie sociale B format: weeks
INFO:root:HUM-251 Science et littérature B format: weeks
INFO:root:HUM-262 Chine contemporaine format: weeks
INFO:root:HUM-301 Pratiques artistiques B format: weeks
INFO:root:HUM-307 Droit de la recherche technologique format: weeks
INFO:root:HUM-321 Histoire de l'image B format: weeks
INFO:root:HUM-323 Asie orientale : le cas de la Chine format: weeks
INFO:root:HUM-324 Asie orientale : le cas du Sud-Est format: weeks
INFO:root:HUM-326 Design graphique IV format: weeks
INFO:root:HUM-327 Design industriel IV format: weeks
INFO:root:HUM-331 Études musicales format: weeks
INFO:root:HUM-337 Médias et société B format: weeks
INFO:root:HUM-339 Méditerranée: grands textes et mythes fondateurs D format: weeks
INFO:root:HUM-343 Psychologie sociale D format: weeks
INFO:root:HUM-345 Science et littérature D format: weeks
INFO:root:HUM-350 L'Art Brut format: weeks
INFO:root:HUM-362 Histoire sociale des technologies C format: weeks
INFO:root:HUM-364 Musicologie et histoire de la musique D format: weeks
INFO:root:HUM-400 SHS : Projet complet format: weeks
INFO:root:HUM-401(b) Pratiques artistiques II format: weeks
INFO:root:HUM-403(b) Experimental cognitive psychology II format: weeks
INFO:root:HUM-404(b) Culture médiatique II format: weeks
INFO:root:HUM-405(b) Internet : enjeux sociaux, enjeux mondiaux II format: weeks
INFO:root:HUM-406(b) Musique, politique, société II format: weeks
INFO:root:HUM-407(b) Design graphique VI format: weeks
INFO:root:HUM-408(b) Design industriel VI format: weeks
INFO:root:HUM-409(b) Images de la nature II format: weeks
INFO:root:HUM-410(b) Droit et technique II format: weeks
INFO:root:HUM-412(b) Enjeux éthiques contemporains II format: weeks
INFO:root:HUM-414(b) Études musicales format: weeks
INFO:root:HUM-415(b) Géopolitique et politique de la mondialisation II format: weeks
INFO:root:HUM-416(b) Hommes / Machines II format: weeks
INFO:root:HUM-417(b) Philosophy, epistemology and history of science II format: weeks
INFO:root:HUM-418(b) Histoire de l'image II format: weeks
INFO:root:HUM-419(b) Mythes de la Méditerranée ancienne II format: weeks
INFO:root:HUM-420(b) Psychologie sociale II format: weeks
INFO:root:HUM-423 Langue et culture : Hindi format: weeks
INFO:root:HUM-424 Langue et culture : Mandarin format: weeks
INFO:root:HUM-426(b) Histoire sociale des technologies II format: weeks
INFO:root:HUM-428(b) Science, technologie et société II format: weeks
INFO:root:HUM-429(b) Philosophy of life sciences II format: weeks
INFO:root:HUM-431 Langue et culture : Arabe format: weeks
INFO:root:HUM-433(b) Digital humanities II format: weeks
INFO:root:HUM-434(b) Chine: la renaissance d'une grande puissance II format: weeks
INFO:root:HUM-435(b) Gestion des organisations II format: weeks
INFO:root:HUM-436(b) Sciences et religions II format: weeks
INFO:root:HUM-437(b) La recherche dans tous ses états II format: weeks
INFO:root:MATH-105(a) Analyse avancée II format: weeks
INFO:root:MATH-105(b) Analyse avancée II format: weeks
INFO:root:MATH-106(c) Analyse II format: weeks
INFO:root:MATH-106(en) Analyse II (anglais) format: weeks
INFO:root:MATH-106(f) Analyse II format: weeks
INFO:root:MATH-131 Probabilités et statistique format: weeks
INFO:root:MATH-186 Mathématiques II format: weeks
INFO:root:MATH-205 Analyse IV  format: weeks
INFO:root:MATH-206 Analyse IV  format: weeks
INFO:root:MATH-207(c) Analyse IV  format: weeks
INFO:root:MATH-207(d) Analyse IV  format: weeks
INFO:root:MATH-215 Algèbre II format: weeks
INFO:root:MATH-225 Topologie II format: weeks
INFO:root:MATH-312 Introduction à la théorie algébrique des nombres format: weeks
INFO:root:MATH-313 Introduction à la théorie analytique des nombres format: weeks
INFO:root:MATH-316 Computer algebra format: weeks
INFO:root:MATH-330 Martingales et applications format: weeks
INFO:root:MATH-351 Advanced numerical analysis format: weeks
INFO:root:MATH-360 Graph theory format: weeks
INFO:root:MATH-360 Graph theory format: weeks
INFO:root:MATH-397 Projet de Mathématiques (bachelor) format: weeks
INFO:root:MATH-401 Advanced analysis II format: weeks
INFO:root:MATH-404 Analyse fonctionnelle II format: weeks
INFO:root:MATH-406 Elliptic partial differential equations format: weeks
INFO:root:MATH-416 Analysis on groups format: weeks
INFO:root:MATH-419 Algebraic K-theory format: weeks
INFO:root:MATH-466 Geometric graph theory format: weeks
INFO:root:MATH-470 Martingales in financial mathematics format: weeks
INFO:root:MATH-488 Finite-dimensional algebras format: weeks
INFO:root:MATH-490 Numerical integration  of stochastic differential equations format: weeks
INFO:root:MATH-498 Projet de Mathématiques (master) format: weeks
INFO:root:MATH-498(c) Projet MA-HEP format: weeks
INFO:root:MATH-591 Projet CSE I format: weeks
INFO:root:MATH-592 Projet CSE II format: weeks
INFO:root:MATH-593 Projet CSE III format: weeks
INFO:root:MATH-595 Stage d'ingénieur (master en  Sciences et ingénierie computationnelles) format: weeks
INFO:root:MATH-596 Stage d'ingénieur (master en Ingénierie mathématique) format: weeks
INFO:root:MATH-597 Stage d'ingénieur crédité avec le PDM (master en Ingénierie mathématique) format: weeks
INFO:root:MATH-598 Projet de master en science et ingénierie computationelles format: weeks
INFO:root:MATH-599 Projet de master en mathématiques format: weeks
INFO:root:ME-201 Mécanique des milieux continus format: weeks
INFO:root:ME-301 Techniques de mesure format: weeks
INFO:root:ME-324 Systèmes multivariables format: weeks
INFO:root:ME-341 Heat and mass transfer format: weeks
INFO:root:ME-401 Projet Génie mécanique I format: weeks
INFO:root:ME-402 Projet Génie mécanique II format: weeks
INFO:root:ME-420 Design methodology format: weeks
INFO:root:ME-424 Systèmes mécatroniques format: weeks
INFO:root:ME-432 Fracture mechanics format: weeks
INFO:root:ME-443 Hydrodynamique acoustique format: weeks
INFO:root:ME-524 Advanced control systems format: weeks
INFO:root:ME-571 Numerical methods in heat transfer format: weeks
INFO:root:ME-597 Stage d'ingénieur crédité avec le PDM (master en  Génie mécanique) format: weeks
INFO:root:ME-599 Projet de master en génie mécanique format: weeks
INFO:root:MGT-413(b) Entrepreneurship & new venture strategy (b) format: weeks
INFO:root:MGT-426 Logistique et analyse de la demande format: weeks
INFO:root:MGT-431 Information : strategy & economics format: weeks
INFO:root:MGT-597 Stage d'ingénieur crédité avec le PDM (master en  Management de la technologie et entrepreneuriat) format: weeks
INFO:root:MGT-599 Projet de master en management de la technologie format: weeks
INFO:root:MICRO-213 Conversion électromécanique I format: weeks
INFO:root:MICRO-311(a) Signaux et systèmes II (pour MT) format: weeks
INFO:root:MICRO-311(b) Signaux et systèmes II (pour SV) format: weeks
INFO:root:MICRO-314 Conversion électromécanique TP format: weeks
INFO:root:MICRO-332 TP en salle blanche (printemps) format: weeks
INFO:root:MICRO-342 Conception de produits  II format: weeks
INFO:root:MICRO-343 Industrialisation format: weeks
INFO:root:MICRO-434 Microsystèmes et capteurs TP II format: weeks
INFO:root:MICRO-441 Techniques d'assemblage II format: weeks
INFO:root:MICRO-443 Analyse de produits et systèmes format: weeks
INFO:root:MICRO-499 Projet microtechnique II format: weeks
INFO:root:MICRO-510 Commande d'actionneurs à l'aide d'un microprocesseur + TP format: weeks
INFO:root:MICRO-513 Signal processing for functional brain imaging format: weeks
INFO:root:MICRO-540 L'ingénieur dans R&D industriels format: weeks
INFO:root:MICRO-570 Advanced machine learning format: weeks
INFO:root:MICRO-597 Stage d'ingénieur crédité avec le PDM (master en  Microtechnique) format: weeks
INFO:root:MICRO-599 Projet de master en microtechnique format: weeks
INFO:root:MSE-103 Technologie et pratique des matériaux format: weeks
INFO:root:MSE-202 Crystallography and diffraction methods format: weeks
INFO:root:MSE-205 Résistance des matériaux format: weeks
INFO:root:MSE-208 Matériaux microtechniques II format: weeks
INFO:root:MSE-209 Phénomènes de transfert en science des matériaux format: weeks
INFO:root:MSE-211 Chimie organique  format: weeks
INFO:root:MSE-230 Polymères, structures, propriétés format: weeks
INFO:root:MSE-231 Ceramics, structures and properties + TP format: weeks
INFO:root:MSE-271 Matériaux II TP format: weeks
INFO:root:MSE-311 Corrosion et protection des métaux + TP format: weeks
INFO:root:MSE-322 Matériaux de construction + TP format: weeks
INFO:root:MSE-351 Analyse des surfaces format: weeks
INFO:root:MSE-390 Projet Matériaux format: weeks
INFO:root:MSE-451 Polymer morphological characterization techniques format: weeks
INFO:root:MSE-461 Micro and nanostructuration of materials format: weeks
INFO:root:MSE-463 Recycling of materials format: weeks
INFO:root:MSE-464 Assembly techniques format: weeks
INFO:root:MSE-466 Wood structures, properties and uses format: weeks
INFO:root:MSE-470 Seminar series on advances in materials format: weeks
INFO:root:MSE-473 Materials for sport format: weeks
INFO:root:MSE-474 Materials selection format: weeks
INFO:root:MSE-478 Organic semiconductors format: weeks
INFO:root:MSE-486 Organic electronic materials - Synthesis, applications, properties format: weeks
INFO:root:MSE-490(a) Research project in materials I format: weeks
INFO:root:MSE-490(b) Research project in materials II format: weeks
INFO:root:MSE-597 Stage d'ingénieur crédité avec le PDM (master en  Science et génie des matériaux) format: weeks
INFO:root:MSE-599 Projet de master en science et génie des matériaux format: weeks
INFO:root:PHYS-106(f) Physique générale II format: weeks
INFO:root:PHYS-106(h) Physique générale II format: weeks
INFO:root:PHYS-209 Astrophysique I : Introduction à l'astrophysique format: weeks
INFO:root:PHYS-211 Laboratoire de physique IIb format: weeks
INFO:root:PHYS-320 Laboratoire de physique IIIb format: weeks
INFO:root:PHYS-323 Astrophysique II : Bases physiques de l'astrophysique format: weeks
INFO:root:PHYS-325 Physique des plasmas I format: weeks
INFO:root:PHYS-402 Astrophysics IV : Observational cosmology format: weeks
INFO:root:PHYS-404 Computer simulation of physical systems II format: weeks
INFO:root:PHYS-416 Particules élémentaires II format: weeks
INFO:root:PHYS-422 Laboratoire de physique IVb format: weeks
INFO:root:PHYS-424 Plasma physics III format: weeks
INFO:root:PHYS-432 Relativistic quantum fields II format: weeks
INFO:root:PHYS-438 Fundamentals of biomedical imaging format: weeks
INFO:root:PHYS-439 Introduction à la physique des astroparticules format: weeks
INFO:root:PHYS-440 Particle detection format: weeks
INFO:root:PHYS-454 Quantum optics and quantum information format: weeks
INFO:root:PHYS-500(b) Projet de master en physique format: weeks
INFO:root:PHYS-501(b) Projet de master en génie nucléaire format: weeks
INFO:root:PHYS-502(b) Projet de master en physique format: weeks
INFO:root:PHYS-595 Stage d'ingénieur (master en Génie nucléaire) format: weeks
INFO:root:PHYS-596 Stage d'ingénieur (master en Ingénierie physique) format: weeks
INFO:root:PREPA-002 Algèbre linéaire (pour CMS) format: weeks
INFO:root:PREPA-004 Analyse I (pour CMS) format: weeks
INFO:root:PREPA-008 Application des mathématiques (CMS) format: weeks
INFO:root:PREPA-010 Biologie (pour CMS) format: weeks
INFO:root:PREPA-012 Chimie (pour CMS) format: weeks
INFO:root:PREPA-014 Géométrie analytique (pour CMS) format: weeks
INFO:root:PREPA-016 Géométrie descriptive (pour CMS) format: weeks
INFO:root:PREPA-018 Informatique (pour CMS) format: weeks
INFO:root:PREPA-020 Mathématiques (pour CMS) format: weeks
INFO:root:PREPA-030 Analyse I (pour Polymaths) format: weeks
INFO:root:PREPA-031 Analyse II (pour Polymaths) format: weeks
INFO:root:PREPA-032 Analyse III (pour Polymaths) format: weeks
INFO:root:PREPA-033 Analyse IV (pour Polymaths) format: weeks
INFO:root:PREPA-035 Physique (Polymaths) format: weeks
INFO:root:PREPA-037 Méthodes de travail format: weeks
INFO:root:PREPA-038 Appuis informatique format: weeks
INFO:root:UNIL-002 Histoire de la cosmologie format: weeks
INFO:root:UNIL-004 L'homme et la matière format: weeks
INFO:root:UNIL-105 Chimie TP II (pour PHA) format: weeks
INFO:root:UNIL-108 Mathématiques générales II  format: weeks
INFO:root:UNIL-110 Physique expérimentale II format: weeks
INFO:root:UNIL-111 Physique expérimentale TP format: weeks
INFO:root:UNIL-121 Chimie TP I (pour SFU) format: weeks
INFO:root:UNIL-123 Physique expérimentale II format: weeks
INFO:root:UNIL-124 Physique expérimentale TP format: weeks
INFO:root:UNIL-125 B1.4 Système locomoteur - Biomécanique format: weeks
INFO:root:UNIL-127 Chimie organique (pour GEU) format: weeks
INFO:root:UNIL-301 Géologie de l'ingénieur format: weeks
INFO:root:UNIL-303 Méthodes de séparation analytiques TP format: weeks
INFO:root:UNIL-401 Projet avancé en chimie analytique format: weeks
INFO:root:
54 Courses not created ['Alt\xc3\xa9rit\xc3\xa9s et int\xc3\xa9grations', 'Cours ETHZ', 'Cours Euler, Analyse I', 'Cours Euler, G\xc3\xa9om\xc3\xa9trie II', 'Cours Euler, Math\xc3\xa9matiques II', 'Cours Euler, Physique g\xc3\xa9n\xc3\xa9rale II', 'Cours UNI Fribourg', 'Cours UNI Neuch\xc3\xa2tel', 'Cours UNIL - Facult\xc3\xa9 de biologie et de m\xc3\xa9decine II (printemps)', 'Cours UNIL - Facult\xc3\xa9 de droit et des sciences criminelles II (printemps)', "Cours UNIL - Facult\xc3\xa9 des g\xc3\xa9osciences et de l'environnement GSE II (printemps)", 'Cours UNIL - Facult\xc3\xa9 des hautes \xc3\xa9tudes commerciales HEC II (printemps)', 'Cours UNIL - Facult\xc3\xa9 des sciences sociales et politiques SSP I (printemps)', 'Didactique des math\xc3\xa9matiques au secondaire II', 'Equivalence cycle master', "Le d\xc3\xa9veloppement de l'adolescent", "Projet de master pour \xc3\xa9tudiant venant en \xc3\xa9change \xc3\xa0 l'EPFL", 'Pr\xc3\xa9paration de MOOC', 'SHS : Cycle Bachelor BA4', 'SHS : Cycle Bachelor BA6', 'Syst\xc3\xa8mes \xc3\xa9ducatifs, organisations, acteurs, savoirs', "Autre contribution \xc3\xa0 l'enseignement", 'Cours Euler, Alg\xc3\xa8bre lin\xc3\xa9aire I', 'Cours Euler, Chimie g\xc3\xa9n\xc3\xa9rale', 'Cours Euler, Math\xc3\xa9matiques I', 'Cours Euler, Math\xc3\xa9matiques III', 'Cours Institut National Polytechnique de Grenoble', 'Cours UNI Gen\xc3\xa8ve', 'Cours UNIL - Facult\xc3\xa9 de biologie et de m\xc3\xa9decine I (printemps)', 'Cours UNIL - Facult\xc3\xa9 de droit et des sciences criminelles I (printemps)', "Cours UNIL - Facult\xc3\xa9 des g\xc3\xa9osciences et de l'environnement GSE I (printemps)", 'Cours UNIL - Facult\xc3\xa9 des hautes \xc3\xa9tudes commerciales HEC I (printemps)', 'Cours UNIL - Facult\xc3\xa9 des lettres II (printemps)', 'Cours UNIL - Facult\xc3\xa9 des sciences sociales et politiques SSP II (printemps)', 'ETH-401', 'ETH-402', 'ETH-403', 'ETH-404', 'ETH-430', 'ETH-431', 'ETH-432', 'ETH-433', 'ETH-434', 'ETH-435', 'ETH-440', 'ETH-441', 'ETH-442', 'ETH-443', 'Evaluations des apprentissages', 'Promotion des \xc3\xa9tudes', 'SHS : Cycle Bachelor BA3+BA4', 'SHS : Cycle Bachelor BA5+BA6', 'Suivi de MOOC externe', 'Travail pratique de laboratoire (30 cr\xc3\xa9dits)']
INFO:root:
896 Total Courses made
548 Already existing and visible courses
348 New and hidden courses
