AR-121
AR-131
AR-201(c)
AR-201(k)
AR-231
AR-301(c)
AR-301(d)
AR-312
AR-331
AR-365
AR-401(b)
AR-401(d)
AR-401(e)
AR-401(g)
AR-407
AR-411
AR-415
AR-457
AR-459
AR-461
AR-470
AR-513
AR-520
AR-598
AR-599
Apprentissage, développement et enseignement
Autre contribution à l'enseignement
BIO-318
BIO-378
BIO-447
BIO-468
BIO-469
BIO-485
BIO-487
BIO-488
BIO-489
BIO-493
BIO-501
BIO-502
BIO-503
BIO-504
BIO-505
BIO-598(a)
BIO-599
BIOENG-390
BIOENG-489
BIOENG-596
CH-101
CH-101
CH-160
CH-160(a)
CH-221
CH-230
CH-243
CH-313
CH-329
CH-341
CH-353
CH-409
CH-443
CH-451
CH-452
CH-460
CH-460
CH-491
CH-492
CH-599
CIVIL-122
CIVIL-234
CIVIL-403
CIVIL-420
CIVIL-430
CIVIL-447
CIVIL-490
CIVIL-491
CIVIL-492
CIVIL-493
CIVIL-500
CIVIL-525
CIVIL-532
CIVIL-597
CIVIL-598
CIVIL-599
COM-301
COM-307
COM-404
COM-416
COM-417
COM-418(tp)
COM-507
COM-597
COM-599
CS-106
CS-110(d)
CS-111(c)
CS-111(g)
CS-111(i)
CS-305
CS-398
CS-471
CS-498
CS-522
CS-595
CS-596
CS-599
ChE-301
ChE-406
ChE-451
ChE-596
ChE-599
Cours ETHZ
Cours Euler, Algèbre linéaire II
Cours Euler, Analyse Gymnase
Cours Euler, Analyse II
Cours Euler, Mathématiques I
Cours Euler, Mathématiques II
Cours Euler, Mathématiques III
Cours Euler, Physique générale I
Cours Politecnico di Torino
Cours UNI Fribourg
Cours UNI Genève
Cours UNI Neuchâtel
Cours UNIL - Faculté de biologie et de médecine I (automne)
Cours UNIL - Faculté de biologie et de médecine II (automne)
Cours UNIL - Faculté de droit et des sciences criminelles I (automne)
Cours UNIL - Faculté de droit et des sciences criminelles II (automne)
Cours UNIL - Faculté des géosciences et de l'environnement GSE I (automne)
Cours UNIL - Faculté des géosciences et de l'environnement GSE II (automne)
Cours UNIL - Faculté des hautes études commerciales HEC I (automne)
Cours UNIL - Faculté des hautes études commerciales HEC II (automne)
Cours UNIL - Faculté des lettres I (automne)
Cours UNIL - Faculté des sciences sociales et politiques SSP I (automne)
Cours UNIL - Faculté des sciences sociales et politiques SSP II (automne)
EE-100(B)
EE-348
EE-370
EE-382
EE-445
EE-460
EE-461
EE-465
EE-466
EE-477
EE-490(a)
EE-490(d)
EE-490(e)
EE-491(a)
EE-491(b)
EE-548
EE-549
EE-554
EE-555
EE-562
EE-588
EE-596(a)
EE-597
EE-597(a)
EE-598
EE-599
EE-599(c)
ENG-273
ENG-383
ENG-433
ENG-433
ENG-434
ENG-472(a)
ENV-166
ENV-300
ENV-370
ENV-402
ENV-460
ENV-494
ENV-507
ENV-524
ENV-524
ENV-548
ENV-590
ENV-593
ENV-595
ENV-597
ENV-598
ENV-599
ETH-530
ETH-531
ETH-532
ETH-590
Equivalence cycle master
FIN-410
FIN-521
FIN-524
FIN-524
FIN-599
HUM-202
HUM-203
HUM-205
HUM-206
HUM-208
HUM-209
HUM-215
HUM-216
HUM-218
HUM-219
HUM-221
HUM-222
HUM-241
HUM-255
HUM-305
HUM-306
HUM-309
HUM-312(a)
HUM-313
HUM-314
HUM-317
HUM-330
HUM-344
HUM-352
HUM-400
HUM-401(a)
HUM-405(a)
HUM-407(a)
HUM-408(a)
HUM-409(a)
HUM-414(a)
HUM-416(a)
HUM-419(a)
HUM-420(a)
HUM-426(a)
HUM-429(a)
HUM-434(a)
HUM-437(a)
MATH-100(a)
MATH-101(c)
MATH-101(d)
MATH-101(en)
MATH-101(f)
MATH-111(a)
MATH-111(de)
MATH-111(en)
MATH-124
MATH-184
MATH-200
MATH-201
MATH-202(c)
MATH-203(a)
MATH-210
MATH-220
MATH-260
MATH-265
MATH-300
MATH-301
MATH-302
MATH-303
MATH-310
MATH-315
MATH-318
MATH-324
MATH-397
MATH-400
MATH-417
MATH-431
MATH-432
MATH-447
MATH-452
MATH-483
MATH-487
MATH-498
MATH-498(b)
MATH-498(c)
MATH-591
MATH-592
MATH-593
MATH-595
MATH-596
MATH-597
MATH-598
MATH-599
ME-232
ME-401
ME-402
ME-446
ME-597
ME-599
MGT-365
MGT-409
MGT-427
MGT-528
MGT-597
MGT-599
MICRO-313
MICRO-331
MICRO-332
MICRO-340
MICRO-341
MICRO-431
MICRO-440
MICRO-498
MICRO-499
MICRO-597
MICRO-599
MSE-100(a)
MSE-100(b)
MSE-207
MSE-236
MSE-300(a)
MSE-326
MSE-340
MSE-360
MSE-390
MSE-411
MSE-420
MSE-430
MSE-440
MSE-441
MSE-462
MSE-465
MSE-470
MSE-472
MSE-477
MSE-479
MSE-485
MSE-488
MSE-490(a)
MSE-490(b)
MSE-597
MSE-599
PHYS-101(h)
PHYS-115
PHYS-200
PHYS-201(b)
PHYS-201(c)
PHYS-201(d)
PHYS-203
PHYS-204
PHYS-300(a)
PHYS-311
PHYS-319
PHYS-324
PHYS-329(a)
PHYS-401
PHYS-403
PHYS-415
PHYS-421
PHYS-423
PHYS-431
PHYS-445
PHYS-447
PHYS-453
PHYS-458
PHYS-500(a)
PHYS-501(a)
PHYS-502(a)
PHYS-595
PHYS-596
PREPA-001
PREPA-003
PREPA-005
PREPA-007
PREPA-009
PREPA-011
PREPA-013
PREPA-015
PREPA-017
PREPA-019
PREPA-021
PREPA-023
PREPA-024
Projet de master pour étudiant venant en échange à l'EPFL
Promotion des études
Préparation de MOOC
SHS : Cycle Bachelor BA3
SHS : Cycle Bachelor BA5
SHS : Introduction au projet
SHS : Projet
Suivi de MOOC externe
Travail pratique de laboratoire (30 crédits)
UNIL-001
UNIL-003
UNIL-101
UNIL-104
UNIL-106
UNIL-107
UNIL-109
UNIL-114
UNIL-118
UNIL-119
UNIL-203
UNIL-204
UNIL-205
UNIL-206
UNIL-207
