Patching args: ['php', '/var/www/vhosts/moodle.epfl.ch/htdocs/enrol/database/cli/sync.php', '-v']
Process is not python, returning.
Patching args: ['php', '/var/www/vhosts/moodle.epfl.ch/htdocs/enrol/database/cli/sync.php', '-v']
Process is not python, returning.
Patching args: ['php', '/var/www/vhosts/moodle.epfl.ch/htdocs/enrol/database/cli/sync.php', '-v']
Process is not python, returning.
Patching args: ['php', '/var/www/vhosts/moodle.epfl.ch/htdocs/enrol/database/cli/sync.php', '-v']
Process is not python, returning.
Patching args: ['php', '/var/www/vhosts/moodle.epfl.ch/htdocs/enrol/database/cli/sync.php', '-v']
Process is not python, returning.
Could not open input file: /var/www/vhosts/moodle.epfl.ch/htdocs/enrol/database/cli/sync.php

